G04 #@! TF.GenerationSoftware,KiCad,Pcbnew,5.1.9*
G04 #@! TF.CreationDate,2021-02-13T19:55:35+01:00*
G04 #@! TF.ProjectId,alternati-boy,616c7465-726e-4617-9469-2d626f792e6b,rev?*
G04 #@! TF.SameCoordinates,Original*
G04 #@! TF.FileFunction,Soldermask,Top*
G04 #@! TF.FilePolarity,Negative*
%FSLAX46Y46*%
G04 Gerber Fmt 4.6, Leading zero omitted, Abs format (unit mm)*
G04 Created by KiCad (PCBNEW 5.1.9) date 2021-02-13 19:55:35*
%MOMM*%
%LPD*%
G01*
G04 APERTURE LIST*
%ADD10C,7.000000*%
%ADD11R,0.279400X1.270000*%
%ADD12C,2.250000*%
%ADD13R,0.850000X0.640000*%
%ADD14R,1.950720X1.501140*%
%ADD15R,0.600000X0.250000*%
%ADD16R,0.800000X1.000000*%
%ADD17R,1.016000X1.016000*%
%ADD18C,1.016000*%
%ADD19R,0.400000X0.450000*%
%ADD20R,1.000000X1.750000*%
%ADD21C,0.900000*%
%ADD22R,1.500000X5.800000*%
%ADD23R,1.000000X5.800000*%
%ADD24R,6.070000X6.070000*%
%ADD25R,0.450000X0.400000*%
%ADD26R,1.000000X1.000000*%
%ADD27O,1.000000X1.000000*%
%ADD28R,0.800000X0.900000*%
%ADD29R,0.285000X1.000000*%
%ADD30R,0.250000X1.100000*%
%ADD31R,0.560000X1.600000*%
%ADD32R,1.600000X0.560000*%
%ADD33C,0.254000*%
%ADD34C,0.100000*%
G04 APERTURE END LIST*
D10*
X148100000Y-130000000D03*
D11*
X162300000Y-101373000D03*
X161800000Y-101373000D03*
X161300000Y-101373000D03*
X160800000Y-101373000D03*
X160300000Y-101373000D03*
X159800000Y-101373000D03*
X159300000Y-101373000D03*
X158800000Y-101373000D03*
X158300000Y-101373000D03*
X157800000Y-101373000D03*
X157300000Y-101373000D03*
X156800000Y-101373000D03*
X156300000Y-101373000D03*
X155800000Y-101373000D03*
X155300000Y-101373000D03*
X154800000Y-101373000D03*
X154800000Y-120804000D03*
X155300000Y-120804000D03*
X155800000Y-120804000D03*
X156300000Y-120804000D03*
X156800000Y-120804000D03*
X157300000Y-120804000D03*
X157800000Y-120804000D03*
X158300000Y-120804000D03*
X158800000Y-120804000D03*
X159300000Y-120804000D03*
X159800000Y-120804000D03*
X160300000Y-120804000D03*
X160800000Y-120804000D03*
X161300000Y-120804000D03*
X161800000Y-120804000D03*
X162300000Y-120804000D03*
X154300000Y-101373000D03*
X153800000Y-101373000D03*
X153300000Y-101373000D03*
X152800000Y-101373000D03*
X152300000Y-101373000D03*
X151800000Y-101373000D03*
X151300000Y-101373000D03*
X150800000Y-101373000D03*
X150800000Y-120804000D03*
X151300000Y-120804000D03*
X151800000Y-120804000D03*
X152300000Y-120804000D03*
X152800000Y-120804000D03*
X153300000Y-120804000D03*
X153800000Y-120804000D03*
X154300000Y-120804000D03*
D12*
X148100000Y-105000000D03*
D13*
X149550000Y-85350000D03*
X149550000Y-86200000D03*
X151000000Y-86200000D03*
X151000000Y-85350000D03*
D14*
X127258900Y-134975000D03*
X124541100Y-134975000D03*
D15*
X126400000Y-128900000D03*
X126400000Y-129400000D03*
X126400000Y-129900000D03*
X126400000Y-130400000D03*
X126400000Y-130900000D03*
X129200000Y-130900000D03*
X129200000Y-130400000D03*
X129200000Y-129900000D03*
X129200000Y-129400000D03*
X129200000Y-128900000D03*
D16*
X128200000Y-130400000D03*
X128200000Y-129400000D03*
X127400000Y-130400000D03*
X127400000Y-129400000D03*
D17*
X129095000Y-105030000D03*
D18*
X129095000Y-106300000D03*
X127825000Y-105030000D03*
X127825000Y-106300000D03*
X126555000Y-105030000D03*
X126555000Y-106300000D03*
D19*
X166825000Y-89525000D03*
X166025000Y-89525000D03*
X166425000Y-90675000D03*
D20*
X129825000Y-102750000D03*
X129825000Y-108500000D03*
X127825000Y-102750000D03*
X127825000Y-108500000D03*
X125825000Y-102750000D03*
X125825000Y-108500000D03*
D21*
X130825000Y-105625000D03*
X124825000Y-105625000D03*
D22*
X124600000Y-142300000D03*
D23*
X126350000Y-142300000D03*
X127850000Y-142300000D03*
X129350000Y-142300000D03*
X130850000Y-142300000D03*
X132350000Y-142300000D03*
X133850000Y-142300000D03*
X135350000Y-142300000D03*
X136850000Y-142300000D03*
X138350000Y-142300000D03*
X139850000Y-142300000D03*
X141350000Y-142300000D03*
X142850000Y-142300000D03*
X144350000Y-142300000D03*
X145850000Y-142300000D03*
X147350000Y-142300000D03*
X148850000Y-142300000D03*
X150350000Y-142300000D03*
X151850000Y-142300000D03*
X153350000Y-142300000D03*
X154850000Y-142300000D03*
X156350000Y-142300000D03*
X157850000Y-142300000D03*
X159350000Y-142300000D03*
X160850000Y-142300000D03*
X162350000Y-142300000D03*
X163850000Y-142300000D03*
X165350000Y-142300000D03*
X166850000Y-142300000D03*
X168350000Y-142300000D03*
X169850000Y-142300000D03*
D22*
X171600000Y-142300000D03*
D24*
X127152000Y-95306000D03*
X139482000Y-95306000D03*
X151812000Y-95306000D03*
G36*
G01*
X124243750Y-130147971D02*
X124756250Y-130147971D01*
G75*
G02*
X124975000Y-130366721I0J-218750D01*
G01*
X124975000Y-130804221D01*
G75*
G02*
X124756250Y-131022971I-218750J0D01*
G01*
X124243750Y-131022971D01*
G75*
G02*
X124025000Y-130804221I0J218750D01*
G01*
X124025000Y-130366721D01*
G75*
G02*
X124243750Y-130147971I218750J0D01*
G01*
G37*
G36*
G01*
X124243750Y-128572971D02*
X124756250Y-128572971D01*
G75*
G02*
X124975000Y-128791721I0J-218750D01*
G01*
X124975000Y-129229221D01*
G75*
G02*
X124756250Y-129447971I-218750J0D01*
G01*
X124243750Y-129447971D01*
G75*
G02*
X124025000Y-129229221I0J218750D01*
G01*
X124025000Y-128791721D01*
G75*
G02*
X124243750Y-128572971I218750J0D01*
G01*
G37*
G36*
G01*
X124850000Y-132443750D02*
X124850000Y-132956250D01*
G75*
G02*
X124631250Y-133175000I-218750J0D01*
G01*
X124193750Y-133175000D01*
G75*
G02*
X123975000Y-132956250I0J218750D01*
G01*
X123975000Y-132443750D01*
G75*
G02*
X124193750Y-132225000I218750J0D01*
G01*
X124631250Y-132225000D01*
G75*
G02*
X124850000Y-132443750I0J-218750D01*
G01*
G37*
G36*
G01*
X126425000Y-132443750D02*
X126425000Y-132956250D01*
G75*
G02*
X126206250Y-133175000I-218750J0D01*
G01*
X125768750Y-133175000D01*
G75*
G02*
X125550000Y-132956250I0J218750D01*
G01*
X125550000Y-132443750D01*
G75*
G02*
X125768750Y-132225000I218750J0D01*
G01*
X126206250Y-132225000D01*
G75*
G02*
X126425000Y-132443750I0J-218750D01*
G01*
G37*
G36*
G01*
X129493750Y-133775000D02*
X130006250Y-133775000D01*
G75*
G02*
X130225000Y-133993750I0J-218750D01*
G01*
X130225000Y-134431250D01*
G75*
G02*
X130006250Y-134650000I-218750J0D01*
G01*
X129493750Y-134650000D01*
G75*
G02*
X129275000Y-134431250I0J218750D01*
G01*
X129275000Y-133993750D01*
G75*
G02*
X129493750Y-133775000I218750J0D01*
G01*
G37*
G36*
G01*
X129493750Y-135350000D02*
X130006250Y-135350000D01*
G75*
G02*
X130225000Y-135568750I0J-218750D01*
G01*
X130225000Y-136006250D01*
G75*
G02*
X130006250Y-136225000I-218750J0D01*
G01*
X129493750Y-136225000D01*
G75*
G02*
X129275000Y-136006250I0J218750D01*
G01*
X129275000Y-135568750D01*
G75*
G02*
X129493750Y-135350000I218750J0D01*
G01*
G37*
G36*
G01*
X145700000Y-135481250D02*
X145700000Y-134968750D01*
G75*
G02*
X145918750Y-134750000I218750J0D01*
G01*
X146356250Y-134750000D01*
G75*
G02*
X146575000Y-134968750I0J-218750D01*
G01*
X146575000Y-135481250D01*
G75*
G02*
X146356250Y-135700000I-218750J0D01*
G01*
X145918750Y-135700000D01*
G75*
G02*
X145700000Y-135481250I0J218750D01*
G01*
G37*
G36*
G01*
X144125000Y-135481250D02*
X144125000Y-134968750D01*
G75*
G02*
X144343750Y-134750000I218750J0D01*
G01*
X144781250Y-134750000D01*
G75*
G02*
X145000000Y-134968750I0J-218750D01*
G01*
X145000000Y-135481250D01*
G75*
G02*
X144781250Y-135700000I-218750J0D01*
G01*
X144343750Y-135700000D01*
G75*
G02*
X144125000Y-135481250I0J218750D01*
G01*
G37*
G36*
G01*
X166656250Y-129925000D02*
X166143750Y-129925000D01*
G75*
G02*
X165925000Y-129706250I0J218750D01*
G01*
X165925000Y-129268750D01*
G75*
G02*
X166143750Y-129050000I218750J0D01*
G01*
X166656250Y-129050000D01*
G75*
G02*
X166875000Y-129268750I0J-218750D01*
G01*
X166875000Y-129706250D01*
G75*
G02*
X166656250Y-129925000I-218750J0D01*
G01*
G37*
G36*
G01*
X166656250Y-128350000D02*
X166143750Y-128350000D01*
G75*
G02*
X165925000Y-128131250I0J218750D01*
G01*
X165925000Y-127693750D01*
G75*
G02*
X166143750Y-127475000I218750J0D01*
G01*
X166656250Y-127475000D01*
G75*
G02*
X166875000Y-127693750I0J-218750D01*
G01*
X166875000Y-128131250D01*
G75*
G02*
X166656250Y-128350000I-218750J0D01*
G01*
G37*
G36*
G01*
X150375000Y-134968750D02*
X150375000Y-135481250D01*
G75*
G02*
X150156250Y-135700000I-218750J0D01*
G01*
X149718750Y-135700000D01*
G75*
G02*
X149500000Y-135481250I0J218750D01*
G01*
X149500000Y-134968750D01*
G75*
G02*
X149718750Y-134750000I218750J0D01*
G01*
X150156250Y-134750000D01*
G75*
G02*
X150375000Y-134968750I0J-218750D01*
G01*
G37*
G36*
G01*
X151950000Y-134968750D02*
X151950000Y-135481250D01*
G75*
G02*
X151731250Y-135700000I-218750J0D01*
G01*
X151293750Y-135700000D01*
G75*
G02*
X151075000Y-135481250I0J218750D01*
G01*
X151075000Y-134968750D01*
G75*
G02*
X151293750Y-134750000I218750J0D01*
G01*
X151731250Y-134750000D01*
G75*
G02*
X151950000Y-134968750I0J-218750D01*
G01*
G37*
G36*
G01*
X129425000Y-132443750D02*
X129425000Y-132956250D01*
G75*
G02*
X129206250Y-133175000I-218750J0D01*
G01*
X128768750Y-133175000D01*
G75*
G02*
X128550000Y-132956250I0J218750D01*
G01*
X128550000Y-132443750D01*
G75*
G02*
X128768750Y-132225000I218750J0D01*
G01*
X129206250Y-132225000D01*
G75*
G02*
X129425000Y-132443750I0J-218750D01*
G01*
G37*
G36*
G01*
X127850000Y-132443750D02*
X127850000Y-132956250D01*
G75*
G02*
X127631250Y-133175000I-218750J0D01*
G01*
X127193750Y-133175000D01*
G75*
G02*
X126975000Y-132956250I0J218750D01*
G01*
X126975000Y-132443750D01*
G75*
G02*
X127193750Y-132225000I218750J0D01*
G01*
X127631250Y-132225000D01*
G75*
G02*
X127850000Y-132443750I0J-218750D01*
G01*
G37*
G36*
G01*
X127925000Y-124018750D02*
X127925000Y-124531250D01*
G75*
G02*
X127706250Y-124750000I-218750J0D01*
G01*
X127268750Y-124750000D01*
G75*
G02*
X127050000Y-124531250I0J218750D01*
G01*
X127050000Y-124018750D01*
G75*
G02*
X127268750Y-123800000I218750J0D01*
G01*
X127706250Y-123800000D01*
G75*
G02*
X127925000Y-124018750I0J-218750D01*
G01*
G37*
G36*
G01*
X126350000Y-124018750D02*
X126350000Y-124531250D01*
G75*
G02*
X126131250Y-124750000I-218750J0D01*
G01*
X125693750Y-124750000D01*
G75*
G02*
X125475000Y-124531250I0J218750D01*
G01*
X125475000Y-124018750D01*
G75*
G02*
X125693750Y-123800000I218750J0D01*
G01*
X126131250Y-123800000D01*
G75*
G02*
X126350000Y-124018750I0J-218750D01*
G01*
G37*
G36*
G01*
X124850000Y-126843750D02*
X124850000Y-127356250D01*
G75*
G02*
X124631250Y-127575000I-218750J0D01*
G01*
X124193750Y-127575000D01*
G75*
G02*
X123975000Y-127356250I0J218750D01*
G01*
X123975000Y-126843750D01*
G75*
G02*
X124193750Y-126625000I218750J0D01*
G01*
X124631250Y-126625000D01*
G75*
G02*
X124850000Y-126843750I0J-218750D01*
G01*
G37*
G36*
G01*
X126425000Y-126843750D02*
X126425000Y-127356250D01*
G75*
G02*
X126206250Y-127575000I-218750J0D01*
G01*
X125768750Y-127575000D01*
G75*
G02*
X125550000Y-127356250I0J218750D01*
G01*
X125550000Y-126843750D01*
G75*
G02*
X125768750Y-126625000I218750J0D01*
G01*
X126206250Y-126625000D01*
G75*
G02*
X126425000Y-126843750I0J-218750D01*
G01*
G37*
G36*
G01*
X168525000Y-92706250D02*
X168525000Y-92193750D01*
G75*
G02*
X168743750Y-91975000I218750J0D01*
G01*
X169181250Y-91975000D01*
G75*
G02*
X169400000Y-92193750I0J-218750D01*
G01*
X169400000Y-92706250D01*
G75*
G02*
X169181250Y-92925000I-218750J0D01*
G01*
X168743750Y-92925000D01*
G75*
G02*
X168525000Y-92706250I0J218750D01*
G01*
G37*
G36*
G01*
X170100000Y-92706250D02*
X170100000Y-92193750D01*
G75*
G02*
X170318750Y-91975000I218750J0D01*
G01*
X170756250Y-91975000D01*
G75*
G02*
X170975000Y-92193750I0J-218750D01*
G01*
X170975000Y-92706250D01*
G75*
G02*
X170756250Y-92925000I-218750J0D01*
G01*
X170318750Y-92925000D01*
G75*
G02*
X170100000Y-92706250I0J218750D01*
G01*
G37*
G36*
G01*
X166400000Y-92193750D02*
X166400000Y-92706250D01*
G75*
G02*
X166181250Y-92925000I-218750J0D01*
G01*
X165743750Y-92925000D01*
G75*
G02*
X165525000Y-92706250I0J218750D01*
G01*
X165525000Y-92193750D01*
G75*
G02*
X165743750Y-91975000I218750J0D01*
G01*
X166181250Y-91975000D01*
G75*
G02*
X166400000Y-92193750I0J-218750D01*
G01*
G37*
G36*
G01*
X167975000Y-92193750D02*
X167975000Y-92706250D01*
G75*
G02*
X167756250Y-92925000I-218750J0D01*
G01*
X167318750Y-92925000D01*
G75*
G02*
X167100000Y-92706250I0J218750D01*
G01*
X167100000Y-92193750D01*
G75*
G02*
X167318750Y-91975000I218750J0D01*
G01*
X167756250Y-91975000D01*
G75*
G02*
X167975000Y-92193750I0J-218750D01*
G01*
G37*
G36*
G01*
X141584500Y-112580250D02*
X141584500Y-112067750D01*
G75*
G02*
X141803250Y-111849000I218750J0D01*
G01*
X142240750Y-111849000D01*
G75*
G02*
X142459500Y-112067750I0J-218750D01*
G01*
X142459500Y-112580250D01*
G75*
G02*
X142240750Y-112799000I-218750J0D01*
G01*
X141803250Y-112799000D01*
G75*
G02*
X141584500Y-112580250I0J218750D01*
G01*
G37*
G36*
G01*
X143159500Y-112580250D02*
X143159500Y-112067750D01*
G75*
G02*
X143378250Y-111849000I218750J0D01*
G01*
X143815750Y-111849000D01*
G75*
G02*
X144034500Y-112067750I0J-218750D01*
G01*
X144034500Y-112580250D01*
G75*
G02*
X143815750Y-112799000I-218750J0D01*
G01*
X143378250Y-112799000D01*
G75*
G02*
X143159500Y-112580250I0J218750D01*
G01*
G37*
G36*
G01*
X134600000Y-108956250D02*
X134600000Y-108443750D01*
G75*
G02*
X134818750Y-108225000I218750J0D01*
G01*
X135256250Y-108225000D01*
G75*
G02*
X135475000Y-108443750I0J-218750D01*
G01*
X135475000Y-108956250D01*
G75*
G02*
X135256250Y-109175000I-218750J0D01*
G01*
X134818750Y-109175000D01*
G75*
G02*
X134600000Y-108956250I0J218750D01*
G01*
G37*
G36*
G01*
X133025000Y-108956250D02*
X133025000Y-108443750D01*
G75*
G02*
X133243750Y-108225000I218750J0D01*
G01*
X133681250Y-108225000D01*
G75*
G02*
X133900000Y-108443750I0J-218750D01*
G01*
X133900000Y-108956250D01*
G75*
G02*
X133681250Y-109175000I-218750J0D01*
G01*
X133243750Y-109175000D01*
G75*
G02*
X133025000Y-108956250I0J218750D01*
G01*
G37*
G36*
G01*
X142356250Y-120625000D02*
X141843750Y-120625000D01*
G75*
G02*
X141625000Y-120406250I0J218750D01*
G01*
X141625000Y-119968750D01*
G75*
G02*
X141843750Y-119750000I218750J0D01*
G01*
X142356250Y-119750000D01*
G75*
G02*
X142575000Y-119968750I0J-218750D01*
G01*
X142575000Y-120406250D01*
G75*
G02*
X142356250Y-120625000I-218750J0D01*
G01*
G37*
G36*
G01*
X142356250Y-119050000D02*
X141843750Y-119050000D01*
G75*
G02*
X141625000Y-118831250I0J218750D01*
G01*
X141625000Y-118393750D01*
G75*
G02*
X141843750Y-118175000I218750J0D01*
G01*
X142356250Y-118175000D01*
G75*
G02*
X142575000Y-118393750I0J-218750D01*
G01*
X142575000Y-118831250D01*
G75*
G02*
X142356250Y-119050000I-218750J0D01*
G01*
G37*
G36*
G01*
X131650000Y-123943750D02*
X131650000Y-124456250D01*
G75*
G02*
X131431250Y-124675000I-218750J0D01*
G01*
X130993750Y-124675000D01*
G75*
G02*
X130775000Y-124456250I0J218750D01*
G01*
X130775000Y-123943750D01*
G75*
G02*
X130993750Y-123725000I218750J0D01*
G01*
X131431250Y-123725000D01*
G75*
G02*
X131650000Y-123943750I0J-218750D01*
G01*
G37*
G36*
G01*
X133225000Y-123943750D02*
X133225000Y-124456250D01*
G75*
G02*
X133006250Y-124675000I-218750J0D01*
G01*
X132568750Y-124675000D01*
G75*
G02*
X132350000Y-124456250I0J218750D01*
G01*
X132350000Y-123943750D01*
G75*
G02*
X132568750Y-123725000I218750J0D01*
G01*
X133006250Y-123725000D01*
G75*
G02*
X133225000Y-123943750I0J-218750D01*
G01*
G37*
G36*
G01*
X126875000Y-114593750D02*
X126875000Y-115106250D01*
G75*
G02*
X126656250Y-115325000I-218750J0D01*
G01*
X126218750Y-115325000D01*
G75*
G02*
X126000000Y-115106250I0J218750D01*
G01*
X126000000Y-114593750D01*
G75*
G02*
X126218750Y-114375000I218750J0D01*
G01*
X126656250Y-114375000D01*
G75*
G02*
X126875000Y-114593750I0J-218750D01*
G01*
G37*
G36*
G01*
X125300000Y-114593750D02*
X125300000Y-115106250D01*
G75*
G02*
X125081250Y-115325000I-218750J0D01*
G01*
X124643750Y-115325000D01*
G75*
G02*
X124425000Y-115106250I0J218750D01*
G01*
X124425000Y-114593750D01*
G75*
G02*
X124643750Y-114375000I218750J0D01*
G01*
X125081250Y-114375000D01*
G75*
G02*
X125300000Y-114593750I0J-218750D01*
G01*
G37*
G36*
G01*
X156531300Y-122693750D02*
X156531300Y-123206250D01*
G75*
G02*
X156312550Y-123425000I-218750J0D01*
G01*
X155875050Y-123425000D01*
G75*
G02*
X155656300Y-123206250I0J218750D01*
G01*
X155656300Y-122693750D01*
G75*
G02*
X155875050Y-122475000I218750J0D01*
G01*
X156312550Y-122475000D01*
G75*
G02*
X156531300Y-122693750I0J-218750D01*
G01*
G37*
G36*
G01*
X154956300Y-122693750D02*
X154956300Y-123206250D01*
G75*
G02*
X154737550Y-123425000I-218750J0D01*
G01*
X154300050Y-123425000D01*
G75*
G02*
X154081300Y-123206250I0J218750D01*
G01*
X154081300Y-122693750D01*
G75*
G02*
X154300050Y-122475000I218750J0D01*
G01*
X154737550Y-122475000D01*
G75*
G02*
X154956300Y-122693750I0J-218750D01*
G01*
G37*
G36*
G01*
X158678900Y-123206250D02*
X158678900Y-122693750D01*
G75*
G02*
X158897650Y-122475000I218750J0D01*
G01*
X159335150Y-122475000D01*
G75*
G02*
X159553900Y-122693750I0J-218750D01*
G01*
X159553900Y-123206250D01*
G75*
G02*
X159335150Y-123425000I-218750J0D01*
G01*
X158897650Y-123425000D01*
G75*
G02*
X158678900Y-123206250I0J218750D01*
G01*
G37*
G36*
G01*
X157103900Y-123206250D02*
X157103900Y-122693750D01*
G75*
G02*
X157322650Y-122475000I218750J0D01*
G01*
X157760150Y-122475000D01*
G75*
G02*
X157978900Y-122693750I0J-218750D01*
G01*
X157978900Y-123206250D01*
G75*
G02*
X157760150Y-123425000I-218750J0D01*
G01*
X157322650Y-123425000D01*
G75*
G02*
X157103900Y-123206250I0J218750D01*
G01*
G37*
D25*
X143225000Y-108622000D03*
X143225000Y-109422000D03*
X144375000Y-109022000D03*
D26*
X145324000Y-106609000D03*
D27*
X144054000Y-106609000D03*
D28*
X140056000Y-108625000D03*
X141956000Y-108625000D03*
X141006000Y-106625000D03*
G36*
G01*
X168924836Y-90760758D02*
X168412336Y-90760758D01*
G75*
G02*
X168193586Y-90542008I0J218750D01*
G01*
X168193586Y-90104508D01*
G75*
G02*
X168412336Y-89885758I218750J0D01*
G01*
X168924836Y-89885758D01*
G75*
G02*
X169143586Y-90104508I0J-218750D01*
G01*
X169143586Y-90542008D01*
G75*
G02*
X168924836Y-90760758I-218750J0D01*
G01*
G37*
G36*
G01*
X168924836Y-89185758D02*
X168412336Y-89185758D01*
G75*
G02*
X168193586Y-88967008I0J218750D01*
G01*
X168193586Y-88529508D01*
G75*
G02*
X168412336Y-88310758I218750J0D01*
G01*
X168924836Y-88310758D01*
G75*
G02*
X169143586Y-88529508I0J-218750D01*
G01*
X169143586Y-88967008D01*
G75*
G02*
X168924836Y-89185758I-218750J0D01*
G01*
G37*
G36*
G01*
X138595250Y-109129500D02*
X138082750Y-109129500D01*
G75*
G02*
X137864000Y-108910750I0J218750D01*
G01*
X137864000Y-108473250D01*
G75*
G02*
X138082750Y-108254500I218750J0D01*
G01*
X138595250Y-108254500D01*
G75*
G02*
X138814000Y-108473250I0J-218750D01*
G01*
X138814000Y-108910750D01*
G75*
G02*
X138595250Y-109129500I-218750J0D01*
G01*
G37*
G36*
G01*
X138595250Y-107554500D02*
X138082750Y-107554500D01*
G75*
G02*
X137864000Y-107335750I0J218750D01*
G01*
X137864000Y-106898250D01*
G75*
G02*
X138082750Y-106679500I218750J0D01*
G01*
X138595250Y-106679500D01*
G75*
G02*
X138814000Y-106898250I0J-218750D01*
G01*
X138814000Y-107335750D01*
G75*
G02*
X138595250Y-107554500I-218750J0D01*
G01*
G37*
G36*
G01*
X143134000Y-110929250D02*
X143134000Y-110416750D01*
G75*
G02*
X143352750Y-110198000I218750J0D01*
G01*
X143790250Y-110198000D01*
G75*
G02*
X144009000Y-110416750I0J-218750D01*
G01*
X144009000Y-110929250D01*
G75*
G02*
X143790250Y-111148000I-218750J0D01*
G01*
X143352750Y-111148000D01*
G75*
G02*
X143134000Y-110929250I0J218750D01*
G01*
G37*
G36*
G01*
X141559000Y-110929250D02*
X141559000Y-110416750D01*
G75*
G02*
X141777750Y-110198000I218750J0D01*
G01*
X142215250Y-110198000D01*
G75*
G02*
X142434000Y-110416750I0J-218750D01*
G01*
X142434000Y-110929250D01*
G75*
G02*
X142215250Y-111148000I-218750J0D01*
G01*
X141777750Y-111148000D01*
G75*
G02*
X141559000Y-110929250I0J218750D01*
G01*
G37*
G36*
G01*
X149656250Y-90125000D02*
X149143750Y-90125000D01*
G75*
G02*
X148925000Y-89906250I0J218750D01*
G01*
X148925000Y-89468750D01*
G75*
G02*
X149143750Y-89250000I218750J0D01*
G01*
X149656250Y-89250000D01*
G75*
G02*
X149875000Y-89468750I0J-218750D01*
G01*
X149875000Y-89906250D01*
G75*
G02*
X149656250Y-90125000I-218750J0D01*
G01*
G37*
G36*
G01*
X149656250Y-88550000D02*
X149143750Y-88550000D01*
G75*
G02*
X148925000Y-88331250I0J218750D01*
G01*
X148925000Y-87893750D01*
G75*
G02*
X149143750Y-87675000I218750J0D01*
G01*
X149656250Y-87675000D01*
G75*
G02*
X149875000Y-87893750I0J-218750D01*
G01*
X149875000Y-88331250D01*
G75*
G02*
X149656250Y-88550000I-218750J0D01*
G01*
G37*
G36*
G01*
X151356250Y-88550000D02*
X150843750Y-88550000D01*
G75*
G02*
X150625000Y-88331250I0J218750D01*
G01*
X150625000Y-87893750D01*
G75*
G02*
X150843750Y-87675000I218750J0D01*
G01*
X151356250Y-87675000D01*
G75*
G02*
X151575000Y-87893750I0J-218750D01*
G01*
X151575000Y-88331250D01*
G75*
G02*
X151356250Y-88550000I-218750J0D01*
G01*
G37*
G36*
G01*
X151356250Y-90125000D02*
X150843750Y-90125000D01*
G75*
G02*
X150625000Y-89906250I0J218750D01*
G01*
X150625000Y-89468750D01*
G75*
G02*
X150843750Y-89250000I218750J0D01*
G01*
X151356250Y-89250000D01*
G75*
G02*
X151575000Y-89468750I0J-218750D01*
G01*
X151575000Y-89906250D01*
G75*
G02*
X151356250Y-90125000I-218750J0D01*
G01*
G37*
G36*
G01*
X153056250Y-90125000D02*
X152543750Y-90125000D01*
G75*
G02*
X152325000Y-89906250I0J218750D01*
G01*
X152325000Y-89468750D01*
G75*
G02*
X152543750Y-89250000I218750J0D01*
G01*
X153056250Y-89250000D01*
G75*
G02*
X153275000Y-89468750I0J-218750D01*
G01*
X153275000Y-89906250D01*
G75*
G02*
X153056250Y-90125000I-218750J0D01*
G01*
G37*
G36*
G01*
X153056250Y-88550000D02*
X152543750Y-88550000D01*
G75*
G02*
X152325000Y-88331250I0J218750D01*
G01*
X152325000Y-87893750D01*
G75*
G02*
X152543750Y-87675000I218750J0D01*
G01*
X153056250Y-87675000D01*
G75*
G02*
X153275000Y-87893750I0J-218750D01*
G01*
X153275000Y-88331250D01*
G75*
G02*
X153056250Y-88550000I-218750J0D01*
G01*
G37*
G36*
G01*
X163850000Y-89792008D02*
X163850000Y-89279508D01*
G75*
G02*
X164068750Y-89060758I218750J0D01*
G01*
X164506250Y-89060758D01*
G75*
G02*
X164725000Y-89279508I0J-218750D01*
G01*
X164725000Y-89792008D01*
G75*
G02*
X164506250Y-90010758I-218750J0D01*
G01*
X164068750Y-90010758D01*
G75*
G02*
X163850000Y-89792008I0J218750D01*
G01*
G37*
G36*
G01*
X162275000Y-89792008D02*
X162275000Y-89279508D01*
G75*
G02*
X162493750Y-89060758I218750J0D01*
G01*
X162931250Y-89060758D01*
G75*
G02*
X163150000Y-89279508I0J-218750D01*
G01*
X163150000Y-89792008D01*
G75*
G02*
X162931250Y-90010758I-218750J0D01*
G01*
X162493750Y-90010758D01*
G75*
G02*
X162275000Y-89792008I0J218750D01*
G01*
G37*
G36*
G01*
X170162336Y-88310758D02*
X170674836Y-88310758D01*
G75*
G02*
X170893586Y-88529508I0J-218750D01*
G01*
X170893586Y-88967008D01*
G75*
G02*
X170674836Y-89185758I-218750J0D01*
G01*
X170162336Y-89185758D01*
G75*
G02*
X169943586Y-88967008I0J218750D01*
G01*
X169943586Y-88529508D01*
G75*
G02*
X170162336Y-88310758I218750J0D01*
G01*
G37*
G36*
G01*
X170162336Y-89885758D02*
X170674836Y-89885758D01*
G75*
G02*
X170893586Y-90104508I0J-218750D01*
G01*
X170893586Y-90542008D01*
G75*
G02*
X170674836Y-90760758I-218750J0D01*
G01*
X170162336Y-90760758D01*
G75*
G02*
X169943586Y-90542008I0J218750D01*
G01*
X169943586Y-90104508D01*
G75*
G02*
X170162336Y-89885758I218750J0D01*
G01*
G37*
G36*
G01*
X170518750Y-117650000D02*
X171031250Y-117650000D01*
G75*
G02*
X171250000Y-117868750I0J-218750D01*
G01*
X171250000Y-118306250D01*
G75*
G02*
X171031250Y-118525000I-218750J0D01*
G01*
X170518750Y-118525000D01*
G75*
G02*
X170300000Y-118306250I0J218750D01*
G01*
X170300000Y-117868750D01*
G75*
G02*
X170518750Y-117650000I218750J0D01*
G01*
G37*
G36*
G01*
X170518750Y-116075000D02*
X171031250Y-116075000D01*
G75*
G02*
X171250000Y-116293750I0J-218750D01*
G01*
X171250000Y-116731250D01*
G75*
G02*
X171031250Y-116950000I-218750J0D01*
G01*
X170518750Y-116950000D01*
G75*
G02*
X170300000Y-116731250I0J218750D01*
G01*
X170300000Y-116293750D01*
G75*
G02*
X170518750Y-116075000I218750J0D01*
G01*
G37*
D29*
X142906000Y-135659000D03*
X142406000Y-135659000D03*
X141906000Y-135659000D03*
X141406000Y-135659000D03*
X140906000Y-135659000D03*
X140406000Y-135659000D03*
X139906000Y-135659000D03*
X139406000Y-135659000D03*
X138906000Y-135659000D03*
X138406000Y-135659000D03*
X137906000Y-135659000D03*
X137406000Y-135659000D03*
X136906000Y-135659000D03*
X136406000Y-135659000D03*
X135906000Y-135659000D03*
X135406000Y-135659000D03*
X134906000Y-135659000D03*
X134406000Y-135659000D03*
X133906000Y-135659000D03*
X133406000Y-135659000D03*
X132906000Y-135659000D03*
X132406000Y-135659000D03*
X131906000Y-135659000D03*
X131406000Y-135659000D03*
X131406000Y-128159000D03*
X131906000Y-128159000D03*
X132406000Y-128159000D03*
X132906000Y-128159000D03*
X133406000Y-128159000D03*
X133906000Y-128159000D03*
X134406000Y-128159000D03*
X134906000Y-128159000D03*
X135406000Y-128159000D03*
X135906000Y-128159000D03*
X136406000Y-128159000D03*
X136906000Y-128159000D03*
X137406000Y-128159000D03*
X137906000Y-128159000D03*
X138406000Y-128159000D03*
X138906000Y-128159000D03*
X139406000Y-128159000D03*
X139906000Y-128159000D03*
X140406000Y-128159000D03*
X140906000Y-128159000D03*
X141406000Y-128159000D03*
X141906000Y-128159000D03*
X142406000Y-128159000D03*
X142906000Y-128159000D03*
X164698000Y-128332000D03*
X164198000Y-128332000D03*
X163698000Y-128332000D03*
X163198000Y-128332000D03*
X162698000Y-128332000D03*
X162198000Y-128332000D03*
X161698000Y-128332000D03*
X161198000Y-128332000D03*
X160698000Y-128332000D03*
X160198000Y-128332000D03*
X159698000Y-128332000D03*
X159198000Y-128332000D03*
X158698000Y-128332000D03*
X158198000Y-128332000D03*
X157698000Y-128332000D03*
X157198000Y-128332000D03*
X156698000Y-128332000D03*
X156198000Y-128332000D03*
X155698000Y-128332000D03*
X155198000Y-128332000D03*
X154698000Y-128332000D03*
X154198000Y-128332000D03*
X153698000Y-128332000D03*
X153198000Y-128332000D03*
X153198000Y-135832000D03*
X153698000Y-135832000D03*
X154198000Y-135832000D03*
X154698000Y-135832000D03*
X155198000Y-135832000D03*
X155698000Y-135832000D03*
X156198000Y-135832000D03*
X156698000Y-135832000D03*
X157198000Y-135832000D03*
X157698000Y-135832000D03*
X158198000Y-135832000D03*
X158698000Y-135832000D03*
X159198000Y-135832000D03*
X159698000Y-135832000D03*
X160198000Y-135832000D03*
X160698000Y-135832000D03*
X161198000Y-135832000D03*
X161698000Y-135832000D03*
X162198000Y-135832000D03*
X162698000Y-135832000D03*
X163198000Y-135832000D03*
X163698000Y-135832000D03*
X164198000Y-135832000D03*
X164698000Y-135832000D03*
D30*
X171700000Y-94525000D03*
X164200000Y-114025000D03*
X171200000Y-94525000D03*
X170700000Y-94525000D03*
X170200000Y-94525000D03*
X169700000Y-94525000D03*
X169200000Y-94525000D03*
X168700000Y-94525000D03*
X168200000Y-94525000D03*
X167700000Y-94525000D03*
X167200000Y-94525000D03*
X166700000Y-94525000D03*
X166200000Y-94525000D03*
X165700000Y-94525000D03*
X165200000Y-94525000D03*
X164700000Y-94525000D03*
X164200000Y-94525000D03*
X164700000Y-114025000D03*
X165200000Y-114025000D03*
X165700000Y-114025000D03*
X166200000Y-114025000D03*
X166700000Y-114025000D03*
X167200000Y-114025000D03*
X167700000Y-114025000D03*
X168200000Y-114025000D03*
X168700000Y-114025000D03*
X169200000Y-114025000D03*
X169700000Y-114025000D03*
X170200000Y-114025000D03*
X170700000Y-114025000D03*
X171200000Y-114025000D03*
X171700000Y-114025000D03*
D31*
X138250000Y-110600000D03*
X137450000Y-110600000D03*
X136650000Y-110600000D03*
X135850000Y-110600000D03*
X135050000Y-110600000D03*
X134250000Y-110600000D03*
X133450000Y-110600000D03*
X132650000Y-110600000D03*
X131850000Y-110600000D03*
X131050000Y-110600000D03*
X130250000Y-110600000D03*
D32*
X128400000Y-112450000D03*
X128400000Y-113250000D03*
X128400000Y-114050000D03*
X128400000Y-114850000D03*
X128400000Y-115650000D03*
X128400000Y-116450000D03*
X128400000Y-117250000D03*
X128400000Y-118050000D03*
X128400000Y-118850000D03*
X128400000Y-119650000D03*
X128400000Y-120450000D03*
D31*
X130250000Y-122300000D03*
X131050000Y-122300000D03*
X131850000Y-122300000D03*
X132650000Y-122300000D03*
X133450000Y-122300000D03*
X134250000Y-122300000D03*
X135050000Y-122300000D03*
X135850000Y-122300000D03*
X136650000Y-122300000D03*
X137450000Y-122300000D03*
X138250000Y-122300000D03*
D32*
X140100000Y-120450000D03*
X140100000Y-119650000D03*
X140100000Y-118850000D03*
X140100000Y-118050000D03*
X140100000Y-117250000D03*
X140100000Y-116450000D03*
X140100000Y-115650000D03*
X140100000Y-114850000D03*
X140100000Y-114050000D03*
X140100000Y-113250000D03*
X140100000Y-112450000D03*
D33*
X172700000Y-145373000D02*
X123500000Y-145373000D01*
X123500000Y-139477000D01*
X172700000Y-139477000D01*
X172700000Y-145373000D01*
D34*
G36*
X172700000Y-145373000D02*
G01*
X123500000Y-145373000D01*
X123500000Y-139477000D01*
X172700000Y-139477000D01*
X172700000Y-145373000D01*
G37*
G36*
X159557232Y-135331000D02*
G01*
X159557500Y-135332000D01*
X159557500Y-136332000D01*
X159556500Y-136333732D01*
X159555500Y-136334000D01*
X159340500Y-136334000D01*
X159338768Y-136333000D01*
X159338500Y-136332000D01*
X159338500Y-135332000D01*
X159339500Y-135330268D01*
X159340500Y-135330000D01*
X159555500Y-135330000D01*
X159557232Y-135331000D01*
G37*
G36*
X154057232Y-135331000D02*
G01*
X154057500Y-135332000D01*
X154057500Y-136332000D01*
X154056500Y-136333732D01*
X154055500Y-136334000D01*
X153840500Y-136334000D01*
X153838768Y-136333000D01*
X153838500Y-136332000D01*
X153838500Y-135332000D01*
X153839500Y-135330268D01*
X153840500Y-135330000D01*
X154055500Y-135330000D01*
X154057232Y-135331000D01*
G37*
G36*
X160057232Y-135331000D02*
G01*
X160057500Y-135332000D01*
X160057500Y-136332000D01*
X160056500Y-136333732D01*
X160055500Y-136334000D01*
X159840500Y-136334000D01*
X159838768Y-136333000D01*
X159838500Y-136332000D01*
X159838500Y-135332000D01*
X159839500Y-135330268D01*
X159840500Y-135330000D01*
X160055500Y-135330000D01*
X160057232Y-135331000D01*
G37*
G36*
X154557232Y-135331000D02*
G01*
X154557500Y-135332000D01*
X154557500Y-136332000D01*
X154556500Y-136333732D01*
X154555500Y-136334000D01*
X154340500Y-136334000D01*
X154338768Y-136333000D01*
X154338500Y-136332000D01*
X154338500Y-135332000D01*
X154339500Y-135330268D01*
X154340500Y-135330000D01*
X154555500Y-135330000D01*
X154557232Y-135331000D01*
G37*
G36*
X155057232Y-135331000D02*
G01*
X155057500Y-135332000D01*
X155057500Y-136332000D01*
X155056500Y-136333732D01*
X155055500Y-136334000D01*
X154840500Y-136334000D01*
X154838768Y-136333000D01*
X154838500Y-136332000D01*
X154838500Y-135332000D01*
X154839500Y-135330268D01*
X154840500Y-135330000D01*
X155055500Y-135330000D01*
X155057232Y-135331000D01*
G37*
G36*
X155557232Y-135331000D02*
G01*
X155557500Y-135332000D01*
X155557500Y-136332000D01*
X155556500Y-136333732D01*
X155555500Y-136334000D01*
X155340500Y-136334000D01*
X155338768Y-136333000D01*
X155338500Y-136332000D01*
X155338500Y-135332000D01*
X155339500Y-135330268D01*
X155340500Y-135330000D01*
X155555500Y-135330000D01*
X155557232Y-135331000D01*
G37*
G36*
X156057232Y-135331000D02*
G01*
X156057500Y-135332000D01*
X156057500Y-136332000D01*
X156056500Y-136333732D01*
X156055500Y-136334000D01*
X155840500Y-136334000D01*
X155838768Y-136333000D01*
X155838500Y-136332000D01*
X155838500Y-135332000D01*
X155839500Y-135330268D01*
X155840500Y-135330000D01*
X156055500Y-135330000D01*
X156057232Y-135331000D01*
G37*
G36*
X156557232Y-135331000D02*
G01*
X156557500Y-135332000D01*
X156557500Y-136332000D01*
X156556500Y-136333732D01*
X156555500Y-136334000D01*
X156340500Y-136334000D01*
X156338768Y-136333000D01*
X156338500Y-136332000D01*
X156338500Y-135332000D01*
X156339500Y-135330268D01*
X156340500Y-135330000D01*
X156555500Y-135330000D01*
X156557232Y-135331000D01*
G37*
G36*
X157057232Y-135331000D02*
G01*
X157057500Y-135332000D01*
X157057500Y-136332000D01*
X157056500Y-136333732D01*
X157055500Y-136334000D01*
X156840500Y-136334000D01*
X156838768Y-136333000D01*
X156838500Y-136332000D01*
X156838500Y-135332000D01*
X156839500Y-135330268D01*
X156840500Y-135330000D01*
X157055500Y-135330000D01*
X157057232Y-135331000D01*
G37*
G36*
X157557232Y-135331000D02*
G01*
X157557500Y-135332000D01*
X157557500Y-136332000D01*
X157556500Y-136333732D01*
X157555500Y-136334000D01*
X157340500Y-136334000D01*
X157338768Y-136333000D01*
X157338500Y-136332000D01*
X157338500Y-135332000D01*
X157339500Y-135330268D01*
X157340500Y-135330000D01*
X157555500Y-135330000D01*
X157557232Y-135331000D01*
G37*
G36*
X158057232Y-135331000D02*
G01*
X158057500Y-135332000D01*
X158057500Y-136332000D01*
X158056500Y-136333732D01*
X158055500Y-136334000D01*
X157840500Y-136334000D01*
X157838768Y-136333000D01*
X157838500Y-136332000D01*
X157838500Y-135332000D01*
X157839500Y-135330268D01*
X157840500Y-135330000D01*
X158055500Y-135330000D01*
X158057232Y-135331000D01*
G37*
G36*
X158557232Y-135331000D02*
G01*
X158557500Y-135332000D01*
X158557500Y-136332000D01*
X158556500Y-136333732D01*
X158555500Y-136334000D01*
X158340500Y-136334000D01*
X158338768Y-136333000D01*
X158338500Y-136332000D01*
X158338500Y-135332000D01*
X158339500Y-135330268D01*
X158340500Y-135330000D01*
X158555500Y-135330000D01*
X158557232Y-135331000D01*
G37*
G36*
X160557232Y-135331000D02*
G01*
X160557500Y-135332000D01*
X160557500Y-136332000D01*
X160556500Y-136333732D01*
X160555500Y-136334000D01*
X160340500Y-136334000D01*
X160338768Y-136333000D01*
X160338500Y-136332000D01*
X160338500Y-135332000D01*
X160339500Y-135330268D01*
X160340500Y-135330000D01*
X160555500Y-135330000D01*
X160557232Y-135331000D01*
G37*
G36*
X161057232Y-135331000D02*
G01*
X161057500Y-135332000D01*
X161057500Y-136332000D01*
X161056500Y-136333732D01*
X161055500Y-136334000D01*
X160840500Y-136334000D01*
X160838768Y-136333000D01*
X160838500Y-136332000D01*
X160838500Y-135332000D01*
X160839500Y-135330268D01*
X160840500Y-135330000D01*
X161055500Y-135330000D01*
X161057232Y-135331000D01*
G37*
G36*
X161557232Y-135331000D02*
G01*
X161557500Y-135332000D01*
X161557500Y-136332000D01*
X161556500Y-136333732D01*
X161555500Y-136334000D01*
X161340500Y-136334000D01*
X161338768Y-136333000D01*
X161338500Y-136332000D01*
X161338500Y-135332000D01*
X161339500Y-135330268D01*
X161340500Y-135330000D01*
X161555500Y-135330000D01*
X161557232Y-135331000D01*
G37*
G36*
X162057232Y-135331000D02*
G01*
X162057500Y-135332000D01*
X162057500Y-136332000D01*
X162056500Y-136333732D01*
X162055500Y-136334000D01*
X161840500Y-136334000D01*
X161838768Y-136333000D01*
X161838500Y-136332000D01*
X161838500Y-135332000D01*
X161839500Y-135330268D01*
X161840500Y-135330000D01*
X162055500Y-135330000D01*
X162057232Y-135331000D01*
G37*
G36*
X162557232Y-135331000D02*
G01*
X162557500Y-135332000D01*
X162557500Y-136332000D01*
X162556500Y-136333732D01*
X162555500Y-136334000D01*
X162340500Y-136334000D01*
X162338768Y-136333000D01*
X162338500Y-136332000D01*
X162338500Y-135332000D01*
X162339500Y-135330268D01*
X162340500Y-135330000D01*
X162555500Y-135330000D01*
X162557232Y-135331000D01*
G37*
G36*
X163057232Y-135331000D02*
G01*
X163057500Y-135332000D01*
X163057500Y-136332000D01*
X163056500Y-136333732D01*
X163055500Y-136334000D01*
X162840500Y-136334000D01*
X162838768Y-136333000D01*
X162838500Y-136332000D01*
X162838500Y-135332000D01*
X162839500Y-135330268D01*
X162840500Y-135330000D01*
X163055500Y-135330000D01*
X163057232Y-135331000D01*
G37*
G36*
X163557232Y-135331000D02*
G01*
X163557500Y-135332000D01*
X163557500Y-136332000D01*
X163556500Y-136333732D01*
X163555500Y-136334000D01*
X163340500Y-136334000D01*
X163338768Y-136333000D01*
X163338500Y-136332000D01*
X163338500Y-135332000D01*
X163339500Y-135330268D01*
X163340500Y-135330000D01*
X163555500Y-135330000D01*
X163557232Y-135331000D01*
G37*
G36*
X164057232Y-135331000D02*
G01*
X164057500Y-135332000D01*
X164057500Y-136332000D01*
X164056500Y-136333732D01*
X164055500Y-136334000D01*
X163840500Y-136334000D01*
X163838768Y-136333000D01*
X163838500Y-136332000D01*
X163838500Y-135332000D01*
X163839500Y-135330268D01*
X163840500Y-135330000D01*
X164055500Y-135330000D01*
X164057232Y-135331000D01*
G37*
G36*
X164557232Y-135331000D02*
G01*
X164557500Y-135332000D01*
X164557500Y-136332000D01*
X164556500Y-136333732D01*
X164555500Y-136334000D01*
X164340500Y-136334000D01*
X164338768Y-136333000D01*
X164338500Y-136332000D01*
X164338500Y-135332000D01*
X164339500Y-135330268D01*
X164340500Y-135330000D01*
X164555500Y-135330000D01*
X164557232Y-135331000D01*
G37*
G36*
X153557232Y-135331000D02*
G01*
X153557500Y-135332000D01*
X153557500Y-136332000D01*
X153556500Y-136333732D01*
X153555500Y-136334000D01*
X153340500Y-136334000D01*
X153338768Y-136333000D01*
X153338500Y-136332000D01*
X153338500Y-135332000D01*
X153339500Y-135330268D01*
X153340500Y-135330000D01*
X153555500Y-135330000D01*
X153557232Y-135331000D01*
G37*
G36*
X159057232Y-135331000D02*
G01*
X159057500Y-135332000D01*
X159057500Y-136332000D01*
X159056500Y-136333732D01*
X159055500Y-136334000D01*
X158840500Y-136334000D01*
X158838768Y-136333000D01*
X158838500Y-136332000D01*
X158838500Y-135332000D01*
X158839500Y-135330268D01*
X158840500Y-135330000D01*
X159055500Y-135330000D01*
X159057232Y-135331000D01*
G37*
G36*
X132765232Y-135158000D02*
G01*
X132765500Y-135159000D01*
X132765500Y-136159000D01*
X132764500Y-136160732D01*
X132763500Y-136161000D01*
X132548500Y-136161000D01*
X132546768Y-136160000D01*
X132546500Y-136159000D01*
X132546500Y-135159000D01*
X132547500Y-135157268D01*
X132548500Y-135157000D01*
X132763500Y-135157000D01*
X132765232Y-135158000D01*
G37*
G36*
X142265232Y-135158000D02*
G01*
X142265500Y-135159000D01*
X142265500Y-136159000D01*
X142264500Y-136160732D01*
X142263500Y-136161000D01*
X142048500Y-136161000D01*
X142046768Y-136160000D01*
X142046500Y-136159000D01*
X142046500Y-135159000D01*
X142047500Y-135157268D01*
X142048500Y-135157000D01*
X142263500Y-135157000D01*
X142265232Y-135158000D01*
G37*
G36*
X141765232Y-135158000D02*
G01*
X141765500Y-135159000D01*
X141765500Y-136159000D01*
X141764500Y-136160732D01*
X141763500Y-136161000D01*
X141548500Y-136161000D01*
X141546768Y-136160000D01*
X141546500Y-136159000D01*
X141546500Y-135159000D01*
X141547500Y-135157268D01*
X141548500Y-135157000D01*
X141763500Y-135157000D01*
X141765232Y-135158000D01*
G37*
G36*
X141265232Y-135158000D02*
G01*
X141265500Y-135159000D01*
X141265500Y-136159000D01*
X141264500Y-136160732D01*
X141263500Y-136161000D01*
X141048500Y-136161000D01*
X141046768Y-136160000D01*
X141046500Y-136159000D01*
X141046500Y-135159000D01*
X141047500Y-135157268D01*
X141048500Y-135157000D01*
X141263500Y-135157000D01*
X141265232Y-135158000D01*
G37*
G36*
X131765232Y-135158000D02*
G01*
X131765500Y-135159000D01*
X131765500Y-136159000D01*
X131764500Y-136160732D01*
X131763500Y-136161000D01*
X131548500Y-136161000D01*
X131546768Y-136160000D01*
X131546500Y-136159000D01*
X131546500Y-135159000D01*
X131547500Y-135157268D01*
X131548500Y-135157000D01*
X131763500Y-135157000D01*
X131765232Y-135158000D01*
G37*
G36*
X140765232Y-135158000D02*
G01*
X140765500Y-135159000D01*
X140765500Y-136159000D01*
X140764500Y-136160732D01*
X140763500Y-136161000D01*
X140548500Y-136161000D01*
X140546768Y-136160000D01*
X140546500Y-136159000D01*
X140546500Y-135159000D01*
X140547500Y-135157268D01*
X140548500Y-135157000D01*
X140763500Y-135157000D01*
X140765232Y-135158000D01*
G37*
G36*
X142765232Y-135158000D02*
G01*
X142765500Y-135159000D01*
X142765500Y-136159000D01*
X142764500Y-136160732D01*
X142763500Y-136161000D01*
X142548500Y-136161000D01*
X142546768Y-136160000D01*
X142546500Y-136159000D01*
X142546500Y-135159000D01*
X142547500Y-135157268D01*
X142548500Y-135157000D01*
X142763500Y-135157000D01*
X142765232Y-135158000D01*
G37*
G36*
X139765232Y-135158000D02*
G01*
X139765500Y-135159000D01*
X139765500Y-136159000D01*
X139764500Y-136160732D01*
X139763500Y-136161000D01*
X139548500Y-136161000D01*
X139546768Y-136160000D01*
X139546500Y-136159000D01*
X139546500Y-135159000D01*
X139547500Y-135157268D01*
X139548500Y-135157000D01*
X139763500Y-135157000D01*
X139765232Y-135158000D01*
G37*
G36*
X140265232Y-135158000D02*
G01*
X140265500Y-135159000D01*
X140265500Y-136159000D01*
X140264500Y-136160732D01*
X140263500Y-136161000D01*
X140048500Y-136161000D01*
X140046768Y-136160000D01*
X140046500Y-136159000D01*
X140046500Y-135159000D01*
X140047500Y-135157268D01*
X140048500Y-135157000D01*
X140263500Y-135157000D01*
X140265232Y-135158000D01*
G37*
G36*
X134265232Y-135158000D02*
G01*
X134265500Y-135159000D01*
X134265500Y-136159000D01*
X134264500Y-136160732D01*
X134263500Y-136161000D01*
X134048500Y-136161000D01*
X134046768Y-136160000D01*
X134046500Y-136159000D01*
X134046500Y-135159000D01*
X134047500Y-135157268D01*
X134048500Y-135157000D01*
X134263500Y-135157000D01*
X134265232Y-135158000D01*
G37*
G36*
X138765232Y-135158000D02*
G01*
X138765500Y-135159000D01*
X138765500Y-136159000D01*
X138764500Y-136160732D01*
X138763500Y-136161000D01*
X138548500Y-136161000D01*
X138546768Y-136160000D01*
X138546500Y-136159000D01*
X138546500Y-135159000D01*
X138547500Y-135157268D01*
X138548500Y-135157000D01*
X138763500Y-135157000D01*
X138765232Y-135158000D01*
G37*
G36*
X139265232Y-135158000D02*
G01*
X139265500Y-135159000D01*
X139265500Y-136159000D01*
X139264500Y-136160732D01*
X139263500Y-136161000D01*
X139048500Y-136161000D01*
X139046768Y-136160000D01*
X139046500Y-136159000D01*
X139046500Y-135159000D01*
X139047500Y-135157268D01*
X139048500Y-135157000D01*
X139263500Y-135157000D01*
X139265232Y-135158000D01*
G37*
G36*
X135765232Y-135158000D02*
G01*
X135765500Y-135159000D01*
X135765500Y-136159000D01*
X135764500Y-136160732D01*
X135763500Y-136161000D01*
X135548500Y-136161000D01*
X135546768Y-136160000D01*
X135546500Y-136159000D01*
X135546500Y-135159000D01*
X135547500Y-135157268D01*
X135548500Y-135157000D01*
X135763500Y-135157000D01*
X135765232Y-135158000D01*
G37*
G36*
X138265232Y-135158000D02*
G01*
X138265500Y-135159000D01*
X138265500Y-136159000D01*
X138264500Y-136160732D01*
X138263500Y-136161000D01*
X138048500Y-136161000D01*
X138046768Y-136160000D01*
X138046500Y-136159000D01*
X138046500Y-135159000D01*
X138047500Y-135157268D01*
X138048500Y-135157000D01*
X138263500Y-135157000D01*
X138265232Y-135158000D01*
G37*
G36*
X137765232Y-135158000D02*
G01*
X137765500Y-135159000D01*
X137765500Y-136159000D01*
X137764500Y-136160732D01*
X137763500Y-136161000D01*
X137548500Y-136161000D01*
X137546768Y-136160000D01*
X137546500Y-136159000D01*
X137546500Y-135159000D01*
X137547500Y-135157268D01*
X137548500Y-135157000D01*
X137763500Y-135157000D01*
X137765232Y-135158000D01*
G37*
G36*
X137265232Y-135158000D02*
G01*
X137265500Y-135159000D01*
X137265500Y-136159000D01*
X137264500Y-136160732D01*
X137263500Y-136161000D01*
X137048500Y-136161000D01*
X137046768Y-136160000D01*
X137046500Y-136159000D01*
X137046500Y-135159000D01*
X137047500Y-135157268D01*
X137048500Y-135157000D01*
X137263500Y-135157000D01*
X137265232Y-135158000D01*
G37*
G36*
X136765232Y-135158000D02*
G01*
X136765500Y-135159000D01*
X136765500Y-136159000D01*
X136764500Y-136160732D01*
X136763500Y-136161000D01*
X136548500Y-136161000D01*
X136546768Y-136160000D01*
X136546500Y-136159000D01*
X136546500Y-135159000D01*
X136547500Y-135157268D01*
X136548500Y-135157000D01*
X136763500Y-135157000D01*
X136765232Y-135158000D01*
G37*
G36*
X136265232Y-135158000D02*
G01*
X136265500Y-135159000D01*
X136265500Y-136159000D01*
X136264500Y-136160732D01*
X136263500Y-136161000D01*
X136048500Y-136161000D01*
X136046768Y-136160000D01*
X136046500Y-136159000D01*
X136046500Y-135159000D01*
X136047500Y-135157268D01*
X136048500Y-135157000D01*
X136263500Y-135157000D01*
X136265232Y-135158000D01*
G37*
G36*
X135265232Y-135158000D02*
G01*
X135265500Y-135159000D01*
X135265500Y-136159000D01*
X135264500Y-136160732D01*
X135263500Y-136161000D01*
X135048500Y-136161000D01*
X135046768Y-136160000D01*
X135046500Y-136159000D01*
X135046500Y-135159000D01*
X135047500Y-135157268D01*
X135048500Y-135157000D01*
X135263500Y-135157000D01*
X135265232Y-135158000D01*
G37*
G36*
X134765232Y-135158000D02*
G01*
X134765500Y-135159000D01*
X134765500Y-136159000D01*
X134764500Y-136160732D01*
X134763500Y-136161000D01*
X134548500Y-136161000D01*
X134546768Y-136160000D01*
X134546500Y-136159000D01*
X134546500Y-135159000D01*
X134547500Y-135157268D01*
X134548500Y-135157000D01*
X134763500Y-135157000D01*
X134765232Y-135158000D01*
G37*
G36*
X133765232Y-135158000D02*
G01*
X133765500Y-135159000D01*
X133765500Y-136159000D01*
X133764500Y-136160732D01*
X133763500Y-136161000D01*
X133548500Y-136161000D01*
X133546768Y-136160000D01*
X133546500Y-136159000D01*
X133546500Y-135159000D01*
X133547500Y-135157268D01*
X133548500Y-135157000D01*
X133763500Y-135157000D01*
X133765232Y-135158000D01*
G37*
G36*
X133265232Y-135158000D02*
G01*
X133265500Y-135159000D01*
X133265500Y-136159000D01*
X133264500Y-136160732D01*
X133263500Y-136161000D01*
X133048500Y-136161000D01*
X133046768Y-136160000D01*
X133046500Y-136159000D01*
X133046500Y-135159000D01*
X133047500Y-135157268D01*
X133048500Y-135157000D01*
X133263500Y-135157000D01*
X133265232Y-135158000D01*
G37*
G36*
X132265232Y-135158000D02*
G01*
X132265500Y-135159000D01*
X132265500Y-136159000D01*
X132264500Y-136160732D01*
X132263500Y-136161000D01*
X132048500Y-136161000D01*
X132046768Y-136160000D01*
X132046500Y-136159000D01*
X132046500Y-135159000D01*
X132047500Y-135157268D01*
X132048500Y-135157000D01*
X132263500Y-135157000D01*
X132265232Y-135158000D01*
G37*
G36*
X164557232Y-127831000D02*
G01*
X164557500Y-127832000D01*
X164557500Y-128832000D01*
X164556500Y-128833732D01*
X164555500Y-128834000D01*
X164340500Y-128834000D01*
X164338768Y-128833000D01*
X164338500Y-128832000D01*
X164338500Y-127832000D01*
X164339500Y-127830268D01*
X164340500Y-127830000D01*
X164555500Y-127830000D01*
X164557232Y-127831000D01*
G37*
G36*
X162557232Y-127831000D02*
G01*
X162557500Y-127832000D01*
X162557500Y-128832000D01*
X162556500Y-128833732D01*
X162555500Y-128834000D01*
X162340500Y-128834000D01*
X162338768Y-128833000D01*
X162338500Y-128832000D01*
X162338500Y-127832000D01*
X162339500Y-127830268D01*
X162340500Y-127830000D01*
X162555500Y-127830000D01*
X162557232Y-127831000D01*
G37*
G36*
X158557232Y-127831000D02*
G01*
X158557500Y-127832000D01*
X158557500Y-128832000D01*
X158556500Y-128833732D01*
X158555500Y-128834000D01*
X158340500Y-128834000D01*
X158338768Y-128833000D01*
X158338500Y-128832000D01*
X158338500Y-127832000D01*
X158339500Y-127830268D01*
X158340500Y-127830000D01*
X158555500Y-127830000D01*
X158557232Y-127831000D01*
G37*
G36*
X157557232Y-127831000D02*
G01*
X157557500Y-127832000D01*
X157557500Y-128832000D01*
X157556500Y-128833732D01*
X157555500Y-128834000D01*
X157340500Y-128834000D01*
X157338768Y-128833000D01*
X157338500Y-128832000D01*
X157338500Y-127832000D01*
X157339500Y-127830268D01*
X157340500Y-127830000D01*
X157555500Y-127830000D01*
X157557232Y-127831000D01*
G37*
G36*
X157057232Y-127831000D02*
G01*
X157057500Y-127832000D01*
X157057500Y-128832000D01*
X157056500Y-128833732D01*
X157055500Y-128834000D01*
X156840500Y-128834000D01*
X156838768Y-128833000D01*
X156838500Y-128832000D01*
X156838500Y-127832000D01*
X156839500Y-127830268D01*
X156840500Y-127830000D01*
X157055500Y-127830000D01*
X157057232Y-127831000D01*
G37*
G36*
X156057232Y-127831000D02*
G01*
X156057500Y-127832000D01*
X156057500Y-128832000D01*
X156056500Y-128833732D01*
X156055500Y-128834000D01*
X155840500Y-128834000D01*
X155838768Y-128833000D01*
X155838500Y-128832000D01*
X155838500Y-127832000D01*
X155839500Y-127830268D01*
X155840500Y-127830000D01*
X156055500Y-127830000D01*
X156057232Y-127831000D01*
G37*
G36*
X155557232Y-127831000D02*
G01*
X155557500Y-127832000D01*
X155557500Y-128832000D01*
X155556500Y-128833732D01*
X155555500Y-128834000D01*
X155340500Y-128834000D01*
X155338768Y-128833000D01*
X155338500Y-128832000D01*
X155338500Y-127832000D01*
X155339500Y-127830268D01*
X155340500Y-127830000D01*
X155555500Y-127830000D01*
X155557232Y-127831000D01*
G37*
G36*
X155057232Y-127831000D02*
G01*
X155057500Y-127832000D01*
X155057500Y-128832000D01*
X155056500Y-128833732D01*
X155055500Y-128834000D01*
X154840500Y-128834000D01*
X154838768Y-128833000D01*
X154838500Y-128832000D01*
X154838500Y-127832000D01*
X154839500Y-127830268D01*
X154840500Y-127830000D01*
X155055500Y-127830000D01*
X155057232Y-127831000D01*
G37*
G36*
X154557232Y-127831000D02*
G01*
X154557500Y-127832000D01*
X154557500Y-128832000D01*
X154556500Y-128833732D01*
X154555500Y-128834000D01*
X154340500Y-128834000D01*
X154338768Y-128833000D01*
X154338500Y-128832000D01*
X154338500Y-127832000D01*
X154339500Y-127830268D01*
X154340500Y-127830000D01*
X154555500Y-127830000D01*
X154557232Y-127831000D01*
G37*
G36*
X154057232Y-127831000D02*
G01*
X154057500Y-127832000D01*
X154057500Y-128832000D01*
X154056500Y-128833732D01*
X154055500Y-128834000D01*
X153840500Y-128834000D01*
X153838768Y-128833000D01*
X153838500Y-128832000D01*
X153838500Y-127832000D01*
X153839500Y-127830268D01*
X153840500Y-127830000D01*
X154055500Y-127830000D01*
X154057232Y-127831000D01*
G37*
G36*
X153557232Y-127831000D02*
G01*
X153557500Y-127832000D01*
X153557500Y-128832000D01*
X153556500Y-128833732D01*
X153555500Y-128834000D01*
X153340500Y-128834000D01*
X153338768Y-128833000D01*
X153338500Y-128832000D01*
X153338500Y-127832000D01*
X153339500Y-127830268D01*
X153340500Y-127830000D01*
X153555500Y-127830000D01*
X153557232Y-127831000D01*
G37*
G36*
X156557232Y-127831000D02*
G01*
X156557500Y-127832000D01*
X156557500Y-128832000D01*
X156556500Y-128833732D01*
X156555500Y-128834000D01*
X156340500Y-128834000D01*
X156338768Y-128833000D01*
X156338500Y-128832000D01*
X156338500Y-127832000D01*
X156339500Y-127830268D01*
X156340500Y-127830000D01*
X156555500Y-127830000D01*
X156557232Y-127831000D01*
G37*
G36*
X164057232Y-127831000D02*
G01*
X164057500Y-127832000D01*
X164057500Y-128832000D01*
X164056500Y-128833732D01*
X164055500Y-128834000D01*
X163840500Y-128834000D01*
X163838768Y-128833000D01*
X163838500Y-128832000D01*
X163838500Y-127832000D01*
X163839500Y-127830268D01*
X163840500Y-127830000D01*
X164055500Y-127830000D01*
X164057232Y-127831000D01*
G37*
G36*
X163557232Y-127831000D02*
G01*
X163557500Y-127832000D01*
X163557500Y-128832000D01*
X163556500Y-128833732D01*
X163555500Y-128834000D01*
X163340500Y-128834000D01*
X163338768Y-128833000D01*
X163338500Y-128832000D01*
X163338500Y-127832000D01*
X163339500Y-127830268D01*
X163340500Y-127830000D01*
X163555500Y-127830000D01*
X163557232Y-127831000D01*
G37*
G36*
X158057232Y-127831000D02*
G01*
X158057500Y-127832000D01*
X158057500Y-128832000D01*
X158056500Y-128833732D01*
X158055500Y-128834000D01*
X157840500Y-128834000D01*
X157838768Y-128833000D01*
X157838500Y-128832000D01*
X157838500Y-127832000D01*
X157839500Y-127830268D01*
X157840500Y-127830000D01*
X158055500Y-127830000D01*
X158057232Y-127831000D01*
G37*
G36*
X162057232Y-127831000D02*
G01*
X162057500Y-127832000D01*
X162057500Y-128832000D01*
X162056500Y-128833732D01*
X162055500Y-128834000D01*
X161840500Y-128834000D01*
X161838768Y-128833000D01*
X161838500Y-128832000D01*
X161838500Y-127832000D01*
X161839500Y-127830268D01*
X161840500Y-127830000D01*
X162055500Y-127830000D01*
X162057232Y-127831000D01*
G37*
G36*
X161557232Y-127831000D02*
G01*
X161557500Y-127832000D01*
X161557500Y-128832000D01*
X161556500Y-128833732D01*
X161555500Y-128834000D01*
X161340500Y-128834000D01*
X161338768Y-128833000D01*
X161338500Y-128832000D01*
X161338500Y-127832000D01*
X161339500Y-127830268D01*
X161340500Y-127830000D01*
X161555500Y-127830000D01*
X161557232Y-127831000D01*
G37*
G36*
X161057232Y-127831000D02*
G01*
X161057500Y-127832000D01*
X161057500Y-128832000D01*
X161056500Y-128833732D01*
X161055500Y-128834000D01*
X160840500Y-128834000D01*
X160838768Y-128833000D01*
X160838500Y-128832000D01*
X160838500Y-127832000D01*
X160839500Y-127830268D01*
X160840500Y-127830000D01*
X161055500Y-127830000D01*
X161057232Y-127831000D01*
G37*
G36*
X160557232Y-127831000D02*
G01*
X160557500Y-127832000D01*
X160557500Y-128832000D01*
X160556500Y-128833732D01*
X160555500Y-128834000D01*
X160340500Y-128834000D01*
X160338768Y-128833000D01*
X160338500Y-128832000D01*
X160338500Y-127832000D01*
X160339500Y-127830268D01*
X160340500Y-127830000D01*
X160555500Y-127830000D01*
X160557232Y-127831000D01*
G37*
G36*
X160057232Y-127831000D02*
G01*
X160057500Y-127832000D01*
X160057500Y-128832000D01*
X160056500Y-128833732D01*
X160055500Y-128834000D01*
X159840500Y-128834000D01*
X159838768Y-128833000D01*
X159838500Y-128832000D01*
X159838500Y-127832000D01*
X159839500Y-127830268D01*
X159840500Y-127830000D01*
X160055500Y-127830000D01*
X160057232Y-127831000D01*
G37*
G36*
X159557232Y-127831000D02*
G01*
X159557500Y-127832000D01*
X159557500Y-128832000D01*
X159556500Y-128833732D01*
X159555500Y-128834000D01*
X159340500Y-128834000D01*
X159338768Y-128833000D01*
X159338500Y-128832000D01*
X159338500Y-127832000D01*
X159339500Y-127830268D01*
X159340500Y-127830000D01*
X159555500Y-127830000D01*
X159557232Y-127831000D01*
G37*
G36*
X159057232Y-127831000D02*
G01*
X159057500Y-127832000D01*
X159057500Y-128832000D01*
X159056500Y-128833732D01*
X159055500Y-128834000D01*
X158840500Y-128834000D01*
X158838768Y-128833000D01*
X158838500Y-128832000D01*
X158838500Y-127832000D01*
X158839500Y-127830268D01*
X158840500Y-127830000D01*
X159055500Y-127830000D01*
X159057232Y-127831000D01*
G37*
G36*
X163057232Y-127831000D02*
G01*
X163057500Y-127832000D01*
X163057500Y-128832000D01*
X163056500Y-128833732D01*
X163055500Y-128834000D01*
X162840500Y-128834000D01*
X162838768Y-128833000D01*
X162838500Y-128832000D01*
X162838500Y-127832000D01*
X162839500Y-127830268D01*
X162840500Y-127830000D01*
X163055500Y-127830000D01*
X163057232Y-127831000D01*
G37*
G36*
X133265232Y-127658000D02*
G01*
X133265500Y-127659000D01*
X133265500Y-128659000D01*
X133264500Y-128660732D01*
X133263500Y-128661000D01*
X133048500Y-128661000D01*
X133046768Y-128660000D01*
X133046500Y-128659000D01*
X133046500Y-127659000D01*
X133047500Y-127657268D01*
X133048500Y-127657000D01*
X133263500Y-127657000D01*
X133265232Y-127658000D01*
G37*
G36*
X141265232Y-127658000D02*
G01*
X141265500Y-127659000D01*
X141265500Y-128659000D01*
X141264500Y-128660732D01*
X141263500Y-128661000D01*
X141048500Y-128661000D01*
X141046768Y-128660000D01*
X141046500Y-128659000D01*
X141046500Y-127659000D01*
X141047500Y-127657268D01*
X141048500Y-127657000D01*
X141263500Y-127657000D01*
X141265232Y-127658000D01*
G37*
G36*
X140765232Y-127658000D02*
G01*
X140765500Y-127659000D01*
X140765500Y-128659000D01*
X140764500Y-128660732D01*
X140763500Y-128661000D01*
X140548500Y-128661000D01*
X140546768Y-128660000D01*
X140546500Y-128659000D01*
X140546500Y-127659000D01*
X140547500Y-127657268D01*
X140548500Y-127657000D01*
X140763500Y-127657000D01*
X140765232Y-127658000D01*
G37*
G36*
X140265232Y-127658000D02*
G01*
X140265500Y-127659000D01*
X140265500Y-128659000D01*
X140264500Y-128660732D01*
X140263500Y-128661000D01*
X140048500Y-128661000D01*
X140046768Y-128660000D01*
X140046500Y-128659000D01*
X140046500Y-127659000D01*
X140047500Y-127657268D01*
X140048500Y-127657000D01*
X140263500Y-127657000D01*
X140265232Y-127658000D01*
G37*
G36*
X139765232Y-127658000D02*
G01*
X139765500Y-127659000D01*
X139765500Y-128659000D01*
X139764500Y-128660732D01*
X139763500Y-128661000D01*
X139548500Y-128661000D01*
X139546768Y-128660000D01*
X139546500Y-128659000D01*
X139546500Y-127659000D01*
X139547500Y-127657268D01*
X139548500Y-127657000D01*
X139763500Y-127657000D01*
X139765232Y-127658000D01*
G37*
G36*
X142265232Y-127658000D02*
G01*
X142265500Y-127659000D01*
X142265500Y-128659000D01*
X142264500Y-128660732D01*
X142263500Y-128661000D01*
X142048500Y-128661000D01*
X142046768Y-128660000D01*
X142046500Y-128659000D01*
X142046500Y-127659000D01*
X142047500Y-127657268D01*
X142048500Y-127657000D01*
X142263500Y-127657000D01*
X142265232Y-127658000D01*
G37*
G36*
X142765232Y-127658000D02*
G01*
X142765500Y-127659000D01*
X142765500Y-128659000D01*
X142764500Y-128660732D01*
X142763500Y-128661000D01*
X142548500Y-128661000D01*
X142546768Y-128660000D01*
X142546500Y-128659000D01*
X142546500Y-127659000D01*
X142547500Y-127657268D01*
X142548500Y-127657000D01*
X142763500Y-127657000D01*
X142765232Y-127658000D01*
G37*
G36*
X139265232Y-127658000D02*
G01*
X139265500Y-127659000D01*
X139265500Y-128659000D01*
X139264500Y-128660732D01*
X139263500Y-128661000D01*
X139048500Y-128661000D01*
X139046768Y-128660000D01*
X139046500Y-128659000D01*
X139046500Y-127659000D01*
X139047500Y-127657268D01*
X139048500Y-127657000D01*
X139263500Y-127657000D01*
X139265232Y-127658000D01*
G37*
G36*
X131765232Y-127658000D02*
G01*
X131765500Y-127659000D01*
X131765500Y-128659000D01*
X131764500Y-128660732D01*
X131763500Y-128661000D01*
X131548500Y-128661000D01*
X131546768Y-128660000D01*
X131546500Y-128659000D01*
X131546500Y-127659000D01*
X131547500Y-127657268D01*
X131548500Y-127657000D01*
X131763500Y-127657000D01*
X131765232Y-127658000D01*
G37*
G36*
X132265232Y-127658000D02*
G01*
X132265500Y-127659000D01*
X132265500Y-128659000D01*
X132264500Y-128660732D01*
X132263500Y-128661000D01*
X132048500Y-128661000D01*
X132046768Y-128660000D01*
X132046500Y-128659000D01*
X132046500Y-127659000D01*
X132047500Y-127657268D01*
X132048500Y-127657000D01*
X132263500Y-127657000D01*
X132265232Y-127658000D01*
G37*
G36*
X141765232Y-127658000D02*
G01*
X141765500Y-127659000D01*
X141765500Y-128659000D01*
X141764500Y-128660732D01*
X141763500Y-128661000D01*
X141548500Y-128661000D01*
X141546768Y-128660000D01*
X141546500Y-128659000D01*
X141546500Y-127659000D01*
X141547500Y-127657268D01*
X141548500Y-127657000D01*
X141763500Y-127657000D01*
X141765232Y-127658000D01*
G37*
G36*
X133765232Y-127658000D02*
G01*
X133765500Y-127659000D01*
X133765500Y-128659000D01*
X133764500Y-128660732D01*
X133763500Y-128661000D01*
X133548500Y-128661000D01*
X133546768Y-128660000D01*
X133546500Y-128659000D01*
X133546500Y-127659000D01*
X133547500Y-127657268D01*
X133548500Y-127657000D01*
X133763500Y-127657000D01*
X133765232Y-127658000D01*
G37*
G36*
X132765232Y-127658000D02*
G01*
X132765500Y-127659000D01*
X132765500Y-128659000D01*
X132764500Y-128660732D01*
X132763500Y-128661000D01*
X132548500Y-128661000D01*
X132546768Y-128660000D01*
X132546500Y-128659000D01*
X132546500Y-127659000D01*
X132547500Y-127657268D01*
X132548500Y-127657000D01*
X132763500Y-127657000D01*
X132765232Y-127658000D01*
G37*
G36*
X138765232Y-127658000D02*
G01*
X138765500Y-127659000D01*
X138765500Y-128659000D01*
X138764500Y-128660732D01*
X138763500Y-128661000D01*
X138548500Y-128661000D01*
X138546768Y-128660000D01*
X138546500Y-128659000D01*
X138546500Y-127659000D01*
X138547500Y-127657268D01*
X138548500Y-127657000D01*
X138763500Y-127657000D01*
X138765232Y-127658000D01*
G37*
G36*
X138265232Y-127658000D02*
G01*
X138265500Y-127659000D01*
X138265500Y-128659000D01*
X138264500Y-128660732D01*
X138263500Y-128661000D01*
X138048500Y-128661000D01*
X138046768Y-128660000D01*
X138046500Y-128659000D01*
X138046500Y-127659000D01*
X138047500Y-127657268D01*
X138048500Y-127657000D01*
X138263500Y-127657000D01*
X138265232Y-127658000D01*
G37*
G36*
X137765232Y-127658000D02*
G01*
X137765500Y-127659000D01*
X137765500Y-128659000D01*
X137764500Y-128660732D01*
X137763500Y-128661000D01*
X137548500Y-128661000D01*
X137546768Y-128660000D01*
X137546500Y-128659000D01*
X137546500Y-127659000D01*
X137547500Y-127657268D01*
X137548500Y-127657000D01*
X137763500Y-127657000D01*
X137765232Y-127658000D01*
G37*
G36*
X137265232Y-127658000D02*
G01*
X137265500Y-127659000D01*
X137265500Y-128659000D01*
X137264500Y-128660732D01*
X137263500Y-128661000D01*
X137048500Y-128661000D01*
X137046768Y-128660000D01*
X137046500Y-128659000D01*
X137046500Y-127659000D01*
X137047500Y-127657268D01*
X137048500Y-127657000D01*
X137263500Y-127657000D01*
X137265232Y-127658000D01*
G37*
G36*
X136765232Y-127658000D02*
G01*
X136765500Y-127659000D01*
X136765500Y-128659000D01*
X136764500Y-128660732D01*
X136763500Y-128661000D01*
X136548500Y-128661000D01*
X136546768Y-128660000D01*
X136546500Y-128659000D01*
X136546500Y-127659000D01*
X136547500Y-127657268D01*
X136548500Y-127657000D01*
X136763500Y-127657000D01*
X136765232Y-127658000D01*
G37*
G36*
X135765232Y-127658000D02*
G01*
X135765500Y-127659000D01*
X135765500Y-128659000D01*
X135764500Y-128660732D01*
X135763500Y-128661000D01*
X135548500Y-128661000D01*
X135546768Y-128660000D01*
X135546500Y-128659000D01*
X135546500Y-127659000D01*
X135547500Y-127657268D01*
X135548500Y-127657000D01*
X135763500Y-127657000D01*
X135765232Y-127658000D01*
G37*
G36*
X135265232Y-127658000D02*
G01*
X135265500Y-127659000D01*
X135265500Y-128659000D01*
X135264500Y-128660732D01*
X135263500Y-128661000D01*
X135048500Y-128661000D01*
X135046768Y-128660000D01*
X135046500Y-128659000D01*
X135046500Y-127659000D01*
X135047500Y-127657268D01*
X135048500Y-127657000D01*
X135263500Y-127657000D01*
X135265232Y-127658000D01*
G37*
G36*
X134765232Y-127658000D02*
G01*
X134765500Y-127659000D01*
X134765500Y-128659000D01*
X134764500Y-128660732D01*
X134763500Y-128661000D01*
X134548500Y-128661000D01*
X134546768Y-128660000D01*
X134546500Y-128659000D01*
X134546500Y-127659000D01*
X134547500Y-127657268D01*
X134548500Y-127657000D01*
X134763500Y-127657000D01*
X134765232Y-127658000D01*
G37*
G36*
X134265232Y-127658000D02*
G01*
X134265500Y-127659000D01*
X134265500Y-128659000D01*
X134264500Y-128660732D01*
X134263500Y-128661000D01*
X134048500Y-128661000D01*
X134046768Y-128660000D01*
X134046500Y-128659000D01*
X134046500Y-127659000D01*
X134047500Y-127657268D01*
X134048500Y-127657000D01*
X134263500Y-127657000D01*
X134265232Y-127658000D01*
G37*
G36*
X136265232Y-127658000D02*
G01*
X136265500Y-127659000D01*
X136265500Y-128659000D01*
X136264500Y-128660732D01*
X136263500Y-128661000D01*
X136048500Y-128661000D01*
X136046768Y-128660000D01*
X136046500Y-128659000D01*
X136046500Y-127659000D01*
X136047500Y-127657268D01*
X136048500Y-127657000D01*
X136263500Y-127657000D01*
X136265232Y-127658000D01*
G37*
G36*
X133971732Y-121499000D02*
G01*
X133972000Y-121500000D01*
X133972000Y-123100000D01*
X133971000Y-123101732D01*
X133970000Y-123102000D01*
X133730000Y-123102000D01*
X133728268Y-123101000D01*
X133728000Y-123100000D01*
X133728000Y-121500000D01*
X133729000Y-121498268D01*
X133730000Y-121498000D01*
X133970000Y-121498000D01*
X133971732Y-121499000D01*
G37*
G36*
X130771732Y-121499000D02*
G01*
X130772000Y-121500000D01*
X130772000Y-123100000D01*
X130771000Y-123101732D01*
X130770000Y-123102000D01*
X130530000Y-123102000D01*
X130528268Y-123101000D01*
X130528000Y-123100000D01*
X130528000Y-121500000D01*
X130529000Y-121498268D01*
X130530000Y-121498000D01*
X130770000Y-121498000D01*
X130771732Y-121499000D01*
G37*
G36*
X133171732Y-121499000D02*
G01*
X133172000Y-121500000D01*
X133172000Y-123100000D01*
X133171000Y-123101732D01*
X133170000Y-123102000D01*
X132930000Y-123102000D01*
X132928268Y-123101000D01*
X132928000Y-123100000D01*
X132928000Y-121500000D01*
X132929000Y-121498268D01*
X132930000Y-121498000D01*
X133170000Y-121498000D01*
X133171732Y-121499000D01*
G37*
G36*
X132371732Y-121499000D02*
G01*
X132372000Y-121500000D01*
X132372000Y-123100000D01*
X132371000Y-123101732D01*
X132370000Y-123102000D01*
X132130000Y-123102000D01*
X132128268Y-123101000D01*
X132128000Y-123100000D01*
X132128000Y-121500000D01*
X132129000Y-121498268D01*
X132130000Y-121498000D01*
X132370000Y-121498000D01*
X132371732Y-121499000D01*
G37*
G36*
X134771732Y-121499000D02*
G01*
X134772000Y-121500000D01*
X134772000Y-123100000D01*
X134771000Y-123101732D01*
X134770000Y-123102000D01*
X134530000Y-123102000D01*
X134528268Y-123101000D01*
X134528000Y-123100000D01*
X134528000Y-121500000D01*
X134529000Y-121498268D01*
X134530000Y-121498000D01*
X134770000Y-121498000D01*
X134771732Y-121499000D01*
G37*
G36*
X135571732Y-121499000D02*
G01*
X135572000Y-121500000D01*
X135572000Y-123100000D01*
X135571000Y-123101732D01*
X135570000Y-123102000D01*
X135330000Y-123102000D01*
X135328268Y-123101000D01*
X135328000Y-123100000D01*
X135328000Y-121500000D01*
X135329000Y-121498268D01*
X135330000Y-121498000D01*
X135570000Y-121498000D01*
X135571732Y-121499000D01*
G37*
G36*
X136371732Y-121499000D02*
G01*
X136372000Y-121500000D01*
X136372000Y-123100000D01*
X136371000Y-123101732D01*
X136370000Y-123102000D01*
X136130000Y-123102000D01*
X136128268Y-123101000D01*
X136128000Y-123100000D01*
X136128000Y-121500000D01*
X136129000Y-121498268D01*
X136130000Y-121498000D01*
X136370000Y-121498000D01*
X136371732Y-121499000D01*
G37*
G36*
X137971732Y-121499000D02*
G01*
X137972000Y-121500000D01*
X137972000Y-123100000D01*
X137971000Y-123101732D01*
X137970000Y-123102000D01*
X137730000Y-123102000D01*
X137728268Y-123101000D01*
X137728000Y-123100000D01*
X137728000Y-121500000D01*
X137729000Y-121498268D01*
X137730000Y-121498000D01*
X137970000Y-121498000D01*
X137971732Y-121499000D01*
G37*
G36*
X137171732Y-121499000D02*
G01*
X137172000Y-121500000D01*
X137172000Y-123100000D01*
X137171000Y-123101732D01*
X137170000Y-123102000D01*
X136930000Y-123102000D01*
X136928268Y-123101000D01*
X136928000Y-123100000D01*
X136928000Y-121500000D01*
X136929000Y-121498268D01*
X136930000Y-121498000D01*
X137170000Y-121498000D01*
X137171732Y-121499000D01*
G37*
G36*
X131571732Y-121499000D02*
G01*
X131572000Y-121500000D01*
X131572000Y-123100000D01*
X131571000Y-123101732D01*
X131570000Y-123102000D01*
X131330000Y-123102000D01*
X131328268Y-123101000D01*
X131328000Y-123100000D01*
X131328000Y-121500000D01*
X131329000Y-121498268D01*
X131330000Y-121498000D01*
X131570000Y-121498000D01*
X131571732Y-121499000D01*
G37*
G36*
X156162032Y-120168000D02*
G01*
X156162300Y-120169000D01*
X156162300Y-121439000D01*
X156161300Y-121440732D01*
X156160300Y-121441000D01*
X155939700Y-121441000D01*
X155937968Y-121440000D01*
X155937700Y-121439000D01*
X155937700Y-120169000D01*
X155938700Y-120167268D01*
X155939700Y-120167000D01*
X156160300Y-120167000D01*
X156162032Y-120168000D01*
G37*
G36*
X154662032Y-120168000D02*
G01*
X154662300Y-120169000D01*
X154662300Y-121439000D01*
X154661300Y-121440732D01*
X154660300Y-121441000D01*
X154439700Y-121441000D01*
X154437968Y-121440000D01*
X154437700Y-121439000D01*
X154437700Y-120169000D01*
X154438700Y-120167268D01*
X154439700Y-120167000D01*
X154660300Y-120167000D01*
X154662032Y-120168000D01*
G37*
G36*
X154162032Y-120168000D02*
G01*
X154162300Y-120169000D01*
X154162300Y-121439000D01*
X154161300Y-121440732D01*
X154160300Y-121441000D01*
X153939700Y-121441000D01*
X153937968Y-121440000D01*
X153937700Y-121439000D01*
X153937700Y-120169000D01*
X153938700Y-120167268D01*
X153939700Y-120167000D01*
X154160300Y-120167000D01*
X154162032Y-120168000D01*
G37*
G36*
X153662032Y-120168000D02*
G01*
X153662300Y-120169000D01*
X153662300Y-121439000D01*
X153661300Y-121440732D01*
X153660300Y-121441000D01*
X153439700Y-121441000D01*
X153437968Y-121440000D01*
X153437700Y-121439000D01*
X153437700Y-120169000D01*
X153438700Y-120167268D01*
X153439700Y-120167000D01*
X153660300Y-120167000D01*
X153662032Y-120168000D01*
G37*
G36*
X153162032Y-120168000D02*
G01*
X153162300Y-120169000D01*
X153162300Y-121439000D01*
X153161300Y-121440732D01*
X153160300Y-121441000D01*
X152939700Y-121441000D01*
X152937968Y-121440000D01*
X152937700Y-121439000D01*
X152937700Y-120169000D01*
X152938700Y-120167268D01*
X152939700Y-120167000D01*
X153160300Y-120167000D01*
X153162032Y-120168000D01*
G37*
G36*
X152662032Y-120168000D02*
G01*
X152662300Y-120169000D01*
X152662300Y-121439000D01*
X152661300Y-121440732D01*
X152660300Y-121441000D01*
X152439700Y-121441000D01*
X152437968Y-121440000D01*
X152437700Y-121439000D01*
X152437700Y-120169000D01*
X152438700Y-120167268D01*
X152439700Y-120167000D01*
X152660300Y-120167000D01*
X152662032Y-120168000D01*
G37*
G36*
X152162032Y-120168000D02*
G01*
X152162300Y-120169000D01*
X152162300Y-121439000D01*
X152161300Y-121440732D01*
X152160300Y-121441000D01*
X151939700Y-121441000D01*
X151937968Y-121440000D01*
X151937700Y-121439000D01*
X151937700Y-120169000D01*
X151938700Y-120167268D01*
X151939700Y-120167000D01*
X152160300Y-120167000D01*
X152162032Y-120168000D01*
G37*
G36*
X155662032Y-120168000D02*
G01*
X155662300Y-120169000D01*
X155662300Y-121439000D01*
X155661300Y-121440732D01*
X155660300Y-121441000D01*
X155439700Y-121441000D01*
X155437968Y-121440000D01*
X155437700Y-121439000D01*
X155437700Y-120169000D01*
X155438700Y-120167268D01*
X155439700Y-120167000D01*
X155660300Y-120167000D01*
X155662032Y-120168000D01*
G37*
G36*
X151162032Y-120168000D02*
G01*
X151162300Y-120169000D01*
X151162300Y-121439000D01*
X151161300Y-121440732D01*
X151160300Y-121441000D01*
X150939700Y-121441000D01*
X150937968Y-121440000D01*
X150937700Y-121439000D01*
X150937700Y-120169000D01*
X150938700Y-120167268D01*
X150939700Y-120167000D01*
X151160300Y-120167000D01*
X151162032Y-120168000D01*
G37*
G36*
X161662032Y-120168000D02*
G01*
X161662300Y-120169000D01*
X161662300Y-121439000D01*
X161661300Y-121440732D01*
X161660300Y-121441000D01*
X161439700Y-121441000D01*
X161437968Y-121440000D01*
X161437700Y-121439000D01*
X161437700Y-120169000D01*
X161438700Y-120167268D01*
X161439700Y-120167000D01*
X161660300Y-120167000D01*
X161662032Y-120168000D01*
G37*
G36*
X158162032Y-120168000D02*
G01*
X158162300Y-120169000D01*
X158162300Y-121439000D01*
X158161300Y-121440732D01*
X158160300Y-121441000D01*
X157939700Y-121441000D01*
X157937968Y-121440000D01*
X157937700Y-121439000D01*
X157937700Y-120169000D01*
X157938700Y-120167268D01*
X157939700Y-120167000D01*
X158160300Y-120167000D01*
X158162032Y-120168000D01*
G37*
G36*
X155162032Y-120168000D02*
G01*
X155162300Y-120169000D01*
X155162300Y-121439000D01*
X155161300Y-121440732D01*
X155160300Y-121441000D01*
X154939700Y-121441000D01*
X154937968Y-121440000D01*
X154937700Y-121439000D01*
X154937700Y-120169000D01*
X154938700Y-120167268D01*
X154939700Y-120167000D01*
X155160300Y-120167000D01*
X155162032Y-120168000D01*
G37*
G36*
X161162032Y-120168000D02*
G01*
X161162300Y-120169000D01*
X161162300Y-121439000D01*
X161161300Y-121440732D01*
X161160300Y-121441000D01*
X160939700Y-121441000D01*
X160937968Y-121440000D01*
X160937700Y-121439000D01*
X160937700Y-120169000D01*
X160938700Y-120167268D01*
X160939700Y-120167000D01*
X161160300Y-120167000D01*
X161162032Y-120168000D01*
G37*
G36*
X162162032Y-120168000D02*
G01*
X162162300Y-120169000D01*
X162162300Y-121439000D01*
X162161300Y-121440732D01*
X162160300Y-121441000D01*
X161939700Y-121441000D01*
X161937968Y-121440000D01*
X161937700Y-121439000D01*
X161937700Y-120169000D01*
X161938700Y-120167268D01*
X161939700Y-120167000D01*
X162160300Y-120167000D01*
X162162032Y-120168000D01*
G37*
G36*
X151662032Y-120168000D02*
G01*
X151662300Y-120169000D01*
X151662300Y-121439000D01*
X151661300Y-121440732D01*
X151660300Y-121441000D01*
X151439700Y-121441000D01*
X151437968Y-121440000D01*
X151437700Y-121439000D01*
X151437700Y-120169000D01*
X151438700Y-120167268D01*
X151439700Y-120167000D01*
X151660300Y-120167000D01*
X151662032Y-120168000D01*
G37*
G36*
X156662032Y-120168000D02*
G01*
X156662300Y-120169000D01*
X156662300Y-121439000D01*
X156661300Y-121440732D01*
X156660300Y-121441000D01*
X156439700Y-121441000D01*
X156437968Y-121440000D01*
X156437700Y-121439000D01*
X156437700Y-120169000D01*
X156438700Y-120167268D01*
X156439700Y-120167000D01*
X156660300Y-120167000D01*
X156662032Y-120168000D01*
G37*
G36*
X157162032Y-120168000D02*
G01*
X157162300Y-120169000D01*
X157162300Y-121439000D01*
X157161300Y-121440732D01*
X157160300Y-121441000D01*
X156939700Y-121441000D01*
X156937968Y-121440000D01*
X156937700Y-121439000D01*
X156937700Y-120169000D01*
X156938700Y-120167268D01*
X156939700Y-120167000D01*
X157160300Y-120167000D01*
X157162032Y-120168000D01*
G37*
G36*
X157662032Y-120168000D02*
G01*
X157662300Y-120169000D01*
X157662300Y-121439000D01*
X157661300Y-121440732D01*
X157660300Y-121441000D01*
X157439700Y-121441000D01*
X157437968Y-121440000D01*
X157437700Y-121439000D01*
X157437700Y-120169000D01*
X157438700Y-120167268D01*
X157439700Y-120167000D01*
X157660300Y-120167000D01*
X157662032Y-120168000D01*
G37*
G36*
X159162032Y-120168000D02*
G01*
X159162300Y-120169000D01*
X159162300Y-121439000D01*
X159161300Y-121440732D01*
X159160300Y-121441000D01*
X158939700Y-121441000D01*
X158937968Y-121440000D01*
X158937700Y-121439000D01*
X158937700Y-120169000D01*
X158938700Y-120167268D01*
X158939700Y-120167000D01*
X159160300Y-120167000D01*
X159162032Y-120168000D01*
G37*
G36*
X158662032Y-120168000D02*
G01*
X158662300Y-120169000D01*
X158662300Y-121439000D01*
X158661300Y-121440732D01*
X158660300Y-121441000D01*
X158439700Y-121441000D01*
X158437968Y-121440000D01*
X158437700Y-121439000D01*
X158437700Y-120169000D01*
X158438700Y-120167268D01*
X158439700Y-120167000D01*
X158660300Y-120167000D01*
X158662032Y-120168000D01*
G37*
G36*
X160662032Y-120168000D02*
G01*
X160662300Y-120169000D01*
X160662300Y-121439000D01*
X160661300Y-121440732D01*
X160660300Y-121441000D01*
X160439700Y-121441000D01*
X160437968Y-121440000D01*
X160437700Y-121439000D01*
X160437700Y-120169000D01*
X160438700Y-120167268D01*
X160439700Y-120167000D01*
X160660300Y-120167000D01*
X160662032Y-120168000D01*
G37*
G36*
X159662032Y-120168000D02*
G01*
X159662300Y-120169000D01*
X159662300Y-121439000D01*
X159661300Y-121440732D01*
X159660300Y-121441000D01*
X159439700Y-121441000D01*
X159437968Y-121440000D01*
X159437700Y-121439000D01*
X159437700Y-120169000D01*
X159438700Y-120167268D01*
X159439700Y-120167000D01*
X159660300Y-120167000D01*
X159662032Y-120168000D01*
G37*
G36*
X160162032Y-120168000D02*
G01*
X160162300Y-120169000D01*
X160162300Y-121439000D01*
X160161300Y-121440732D01*
X160160300Y-121441000D01*
X159939700Y-121441000D01*
X159937968Y-121440000D01*
X159937700Y-121439000D01*
X159937700Y-120169000D01*
X159938700Y-120167268D01*
X159939700Y-120167000D01*
X160160300Y-120167000D01*
X160162032Y-120168000D01*
G37*
G36*
X129201732Y-119929000D02*
G01*
X129202000Y-119930000D01*
X129202000Y-120170000D01*
X129201000Y-120171732D01*
X129200000Y-120172000D01*
X127600000Y-120172000D01*
X127598268Y-120171000D01*
X127598000Y-120170000D01*
X127598000Y-119930000D01*
X127599000Y-119928268D01*
X127600000Y-119928000D01*
X129200000Y-119928000D01*
X129201732Y-119929000D01*
G37*
G36*
X140901732Y-119929000D02*
G01*
X140902000Y-119930000D01*
X140902000Y-120170000D01*
X140901000Y-120171732D01*
X140900000Y-120172000D01*
X139300000Y-120172000D01*
X139298268Y-120171000D01*
X139298000Y-120170000D01*
X139298000Y-119930000D01*
X139299000Y-119928268D01*
X139300000Y-119928000D01*
X140900000Y-119928000D01*
X140901732Y-119929000D01*
G37*
G36*
X140901732Y-119129000D02*
G01*
X140902000Y-119130000D01*
X140902000Y-119370000D01*
X140901000Y-119371732D01*
X140900000Y-119372000D01*
X139300000Y-119372000D01*
X139298268Y-119371000D01*
X139298000Y-119370000D01*
X139298000Y-119130000D01*
X139299000Y-119128268D01*
X139300000Y-119128000D01*
X140900000Y-119128000D01*
X140901732Y-119129000D01*
G37*
G36*
X129201732Y-119129000D02*
G01*
X129202000Y-119130000D01*
X129202000Y-119370000D01*
X129201000Y-119371732D01*
X129200000Y-119372000D01*
X127600000Y-119372000D01*
X127598268Y-119371000D01*
X127598000Y-119370000D01*
X127598000Y-119130000D01*
X127599000Y-119128268D01*
X127600000Y-119128000D01*
X129200000Y-119128000D01*
X129201732Y-119129000D01*
G37*
G36*
X129201732Y-118329000D02*
G01*
X129202000Y-118330000D01*
X129202000Y-118570000D01*
X129201000Y-118571732D01*
X129200000Y-118572000D01*
X127600000Y-118572000D01*
X127598268Y-118571000D01*
X127598000Y-118570000D01*
X127598000Y-118330000D01*
X127599000Y-118328268D01*
X127600000Y-118328000D01*
X129200000Y-118328000D01*
X129201732Y-118329000D01*
G37*
G36*
X140901732Y-118329000D02*
G01*
X140902000Y-118330000D01*
X140902000Y-118570000D01*
X140901000Y-118571732D01*
X140900000Y-118572000D01*
X139300000Y-118572000D01*
X139298268Y-118571000D01*
X139298000Y-118570000D01*
X139298000Y-118330000D01*
X139299000Y-118328268D01*
X139300000Y-118328000D01*
X140900000Y-118328000D01*
X140901732Y-118329000D01*
G37*
G36*
X129201732Y-117529000D02*
G01*
X129202000Y-117530000D01*
X129202000Y-117770000D01*
X129201000Y-117771732D01*
X129200000Y-117772000D01*
X127600000Y-117772000D01*
X127598268Y-117771000D01*
X127598000Y-117770000D01*
X127598000Y-117530000D01*
X127599000Y-117528268D01*
X127600000Y-117528000D01*
X129200000Y-117528000D01*
X129201732Y-117529000D01*
G37*
G36*
X140901732Y-117529000D02*
G01*
X140902000Y-117530000D01*
X140902000Y-117770000D01*
X140901000Y-117771732D01*
X140900000Y-117772000D01*
X139300000Y-117772000D01*
X139298268Y-117771000D01*
X139298000Y-117770000D01*
X139298000Y-117530000D01*
X139299000Y-117528268D01*
X139300000Y-117528000D01*
X140900000Y-117528000D01*
X140901732Y-117529000D01*
G37*
G36*
X129201732Y-116729000D02*
G01*
X129202000Y-116730000D01*
X129202000Y-116970000D01*
X129201000Y-116971732D01*
X129200000Y-116972000D01*
X127600000Y-116972000D01*
X127598268Y-116971000D01*
X127598000Y-116970000D01*
X127598000Y-116730000D01*
X127599000Y-116728268D01*
X127600000Y-116728000D01*
X129200000Y-116728000D01*
X129201732Y-116729000D01*
G37*
G36*
X140901732Y-116729000D02*
G01*
X140902000Y-116730000D01*
X140902000Y-116970000D01*
X140901000Y-116971732D01*
X140900000Y-116972000D01*
X139300000Y-116972000D01*
X139298268Y-116971000D01*
X139298000Y-116970000D01*
X139298000Y-116730000D01*
X139299000Y-116728268D01*
X139300000Y-116728000D01*
X140900000Y-116728000D01*
X140901732Y-116729000D01*
G37*
G36*
X129201732Y-115929000D02*
G01*
X129202000Y-115930000D01*
X129202000Y-116170000D01*
X129201000Y-116171732D01*
X129200000Y-116172000D01*
X127600000Y-116172000D01*
X127598268Y-116171000D01*
X127598000Y-116170000D01*
X127598000Y-115930000D01*
X127599000Y-115928268D01*
X127600000Y-115928000D01*
X129200000Y-115928000D01*
X129201732Y-115929000D01*
G37*
G36*
X140901732Y-115929000D02*
G01*
X140902000Y-115930000D01*
X140902000Y-116170000D01*
X140901000Y-116171732D01*
X140900000Y-116172000D01*
X139300000Y-116172000D01*
X139298268Y-116171000D01*
X139298000Y-116170000D01*
X139298000Y-115930000D01*
X139299000Y-115928268D01*
X139300000Y-115928000D01*
X140900000Y-115928000D01*
X140901732Y-115929000D01*
G37*
G36*
X140901732Y-115129000D02*
G01*
X140902000Y-115130000D01*
X140902000Y-115370000D01*
X140901000Y-115371732D01*
X140900000Y-115372000D01*
X139300000Y-115372000D01*
X139298268Y-115371000D01*
X139298000Y-115370000D01*
X139298000Y-115130000D01*
X139299000Y-115128268D01*
X139300000Y-115128000D01*
X140900000Y-115128000D01*
X140901732Y-115129000D01*
G37*
G36*
X129201732Y-115129000D02*
G01*
X129202000Y-115130000D01*
X129202000Y-115370000D01*
X129201000Y-115371732D01*
X129200000Y-115372000D01*
X127600000Y-115372000D01*
X127598268Y-115371000D01*
X127598000Y-115370000D01*
X127598000Y-115130000D01*
X127599000Y-115128268D01*
X127600000Y-115128000D01*
X129200000Y-115128000D01*
X129201732Y-115129000D01*
G37*
G36*
X129201732Y-114329000D02*
G01*
X129202000Y-114330000D01*
X129202000Y-114570000D01*
X129201000Y-114571732D01*
X129200000Y-114572000D01*
X127600000Y-114572000D01*
X127598268Y-114571000D01*
X127598000Y-114570000D01*
X127598000Y-114330000D01*
X127599000Y-114328268D01*
X127600000Y-114328000D01*
X129200000Y-114328000D01*
X129201732Y-114329000D01*
G37*
G36*
X140901732Y-114329000D02*
G01*
X140902000Y-114330000D01*
X140902000Y-114570000D01*
X140901000Y-114571732D01*
X140900000Y-114572000D01*
X139300000Y-114572000D01*
X139298268Y-114571000D01*
X139298000Y-114570000D01*
X139298000Y-114330000D01*
X139299000Y-114328268D01*
X139300000Y-114328000D01*
X140900000Y-114328000D01*
X140901732Y-114329000D01*
G37*
G36*
X129201732Y-113529000D02*
G01*
X129202000Y-113530000D01*
X129202000Y-113770000D01*
X129201000Y-113771732D01*
X129200000Y-113772000D01*
X127600000Y-113772000D01*
X127598268Y-113771000D01*
X127598000Y-113770000D01*
X127598000Y-113530000D01*
X127599000Y-113528268D01*
X127600000Y-113528000D01*
X129200000Y-113528000D01*
X129201732Y-113529000D01*
G37*
G36*
X140901732Y-113529000D02*
G01*
X140902000Y-113530000D01*
X140902000Y-113770000D01*
X140901000Y-113771732D01*
X140900000Y-113772000D01*
X139300000Y-113772000D01*
X139298268Y-113771000D01*
X139298000Y-113770000D01*
X139298000Y-113530000D01*
X139299000Y-113528268D01*
X139300000Y-113528000D01*
X140900000Y-113528000D01*
X140901732Y-113529000D01*
G37*
G36*
X129201732Y-112729000D02*
G01*
X129202000Y-112730000D01*
X129202000Y-112970000D01*
X129201000Y-112971732D01*
X129200000Y-112972000D01*
X127600000Y-112972000D01*
X127598268Y-112971000D01*
X127598000Y-112970000D01*
X127598000Y-112730000D01*
X127599000Y-112728268D01*
X127600000Y-112728000D01*
X129200000Y-112728000D01*
X129201732Y-112729000D01*
G37*
G36*
X140901732Y-112729000D02*
G01*
X140902000Y-112730000D01*
X140902000Y-112970000D01*
X140901000Y-112971732D01*
X140900000Y-112972000D01*
X139300000Y-112972000D01*
X139298268Y-112971000D01*
X139298000Y-112970000D01*
X139298000Y-112730000D01*
X139299000Y-112728268D01*
X139300000Y-112728000D01*
X140900000Y-112728000D01*
X140901732Y-112729000D01*
G37*
G36*
X137971732Y-109799000D02*
G01*
X137972000Y-109800000D01*
X137972000Y-111400000D01*
X137971000Y-111401732D01*
X137970000Y-111402000D01*
X137730000Y-111402000D01*
X137728268Y-111401000D01*
X137728000Y-111400000D01*
X137728000Y-109800000D01*
X137729000Y-109798268D01*
X137730000Y-109798000D01*
X137970000Y-109798000D01*
X137971732Y-109799000D01*
G37*
G36*
X130771732Y-109799000D02*
G01*
X130772000Y-109800000D01*
X130772000Y-111400000D01*
X130771000Y-111401732D01*
X130770000Y-111402000D01*
X130530000Y-111402000D01*
X130528268Y-111401000D01*
X130528000Y-111400000D01*
X130528000Y-109800000D01*
X130529000Y-109798268D01*
X130530000Y-109798000D01*
X130770000Y-109798000D01*
X130771732Y-109799000D01*
G37*
G36*
X131571732Y-109799000D02*
G01*
X131572000Y-109800000D01*
X131572000Y-111400000D01*
X131571000Y-111401732D01*
X131570000Y-111402000D01*
X131330000Y-111402000D01*
X131328268Y-111401000D01*
X131328000Y-111400000D01*
X131328000Y-109800000D01*
X131329000Y-109798268D01*
X131330000Y-109798000D01*
X131570000Y-109798000D01*
X131571732Y-109799000D01*
G37*
G36*
X133171732Y-109799000D02*
G01*
X133172000Y-109800000D01*
X133172000Y-111400000D01*
X133171000Y-111401732D01*
X133170000Y-111402000D01*
X132930000Y-111402000D01*
X132928268Y-111401000D01*
X132928000Y-111400000D01*
X132928000Y-109800000D01*
X132929000Y-109798268D01*
X132930000Y-109798000D01*
X133170000Y-109798000D01*
X133171732Y-109799000D01*
G37*
G36*
X133971732Y-109799000D02*
G01*
X133972000Y-109800000D01*
X133972000Y-111400000D01*
X133971000Y-111401732D01*
X133970000Y-111402000D01*
X133730000Y-111402000D01*
X133728268Y-111401000D01*
X133728000Y-111400000D01*
X133728000Y-109800000D01*
X133729000Y-109798268D01*
X133730000Y-109798000D01*
X133970000Y-109798000D01*
X133971732Y-109799000D01*
G37*
G36*
X136371732Y-109799000D02*
G01*
X136372000Y-109800000D01*
X136372000Y-111400000D01*
X136371000Y-111401732D01*
X136370000Y-111402000D01*
X136130000Y-111402000D01*
X136128268Y-111401000D01*
X136128000Y-111400000D01*
X136128000Y-109800000D01*
X136129000Y-109798268D01*
X136130000Y-109798000D01*
X136370000Y-109798000D01*
X136371732Y-109799000D01*
G37*
G36*
X135571732Y-109799000D02*
G01*
X135572000Y-109800000D01*
X135572000Y-111400000D01*
X135571000Y-111401732D01*
X135570000Y-111402000D01*
X135330000Y-111402000D01*
X135328268Y-111401000D01*
X135328000Y-111400000D01*
X135328000Y-109800000D01*
X135329000Y-109798268D01*
X135330000Y-109798000D01*
X135570000Y-109798000D01*
X135571732Y-109799000D01*
G37*
G36*
X134771732Y-109799000D02*
G01*
X134772000Y-109800000D01*
X134772000Y-111400000D01*
X134771000Y-111401732D01*
X134770000Y-111402000D01*
X134530000Y-111402000D01*
X134528268Y-111401000D01*
X134528000Y-111400000D01*
X134528000Y-109800000D01*
X134529000Y-109798268D01*
X134530000Y-109798000D01*
X134770000Y-109798000D01*
X134771732Y-109799000D01*
G37*
G36*
X132371732Y-109799000D02*
G01*
X132372000Y-109800000D01*
X132372000Y-111400000D01*
X132371000Y-111401732D01*
X132370000Y-111402000D01*
X132130000Y-111402000D01*
X132128268Y-111401000D01*
X132128000Y-111400000D01*
X132128000Y-109800000D01*
X132129000Y-109798268D01*
X132130000Y-109798000D01*
X132370000Y-109798000D01*
X132371732Y-109799000D01*
G37*
G36*
X137171732Y-109799000D02*
G01*
X137172000Y-109800000D01*
X137172000Y-111400000D01*
X137171000Y-111401732D01*
X137170000Y-111402000D01*
X136930000Y-111402000D01*
X136928268Y-111401000D01*
X136928000Y-111400000D01*
X136928000Y-109800000D01*
X136929000Y-109798268D01*
X136930000Y-109798000D01*
X137170000Y-109798000D01*
X137171732Y-109799000D01*
G37*
G36*
X151162032Y-100737000D02*
G01*
X151162300Y-100738000D01*
X151162300Y-102008000D01*
X151161300Y-102009732D01*
X151160300Y-102010000D01*
X150939700Y-102010000D01*
X150937968Y-102009000D01*
X150937700Y-102008000D01*
X150937700Y-100738000D01*
X150938700Y-100736268D01*
X150939700Y-100736000D01*
X151160300Y-100736000D01*
X151162032Y-100737000D01*
G37*
G36*
X162162032Y-100737000D02*
G01*
X162162300Y-100738000D01*
X162162300Y-102008000D01*
X162161300Y-102009732D01*
X162160300Y-102010000D01*
X161939700Y-102010000D01*
X161937968Y-102009000D01*
X161937700Y-102008000D01*
X161937700Y-100738000D01*
X161938700Y-100736268D01*
X161939700Y-100736000D01*
X162160300Y-100736000D01*
X162162032Y-100737000D01*
G37*
G36*
X151662032Y-100737000D02*
G01*
X151662300Y-100738000D01*
X151662300Y-102008000D01*
X151661300Y-102009732D01*
X151660300Y-102010000D01*
X151439700Y-102010000D01*
X151437968Y-102009000D01*
X151437700Y-102008000D01*
X151437700Y-100738000D01*
X151438700Y-100736268D01*
X151439700Y-100736000D01*
X151660300Y-100736000D01*
X151662032Y-100737000D01*
G37*
G36*
X152162032Y-100737000D02*
G01*
X152162300Y-100738000D01*
X152162300Y-102008000D01*
X152161300Y-102009732D01*
X152160300Y-102010000D01*
X151939700Y-102010000D01*
X151937968Y-102009000D01*
X151937700Y-102008000D01*
X151937700Y-100738000D01*
X151938700Y-100736268D01*
X151939700Y-100736000D01*
X152160300Y-100736000D01*
X152162032Y-100737000D01*
G37*
G36*
X152662032Y-100737000D02*
G01*
X152662300Y-100738000D01*
X152662300Y-102008000D01*
X152661300Y-102009732D01*
X152660300Y-102010000D01*
X152439700Y-102010000D01*
X152437968Y-102009000D01*
X152437700Y-102008000D01*
X152437700Y-100738000D01*
X152438700Y-100736268D01*
X152439700Y-100736000D01*
X152660300Y-100736000D01*
X152662032Y-100737000D01*
G37*
G36*
X153162032Y-100737000D02*
G01*
X153162300Y-100738000D01*
X153162300Y-102008000D01*
X153161300Y-102009732D01*
X153160300Y-102010000D01*
X152939700Y-102010000D01*
X152937968Y-102009000D01*
X152937700Y-102008000D01*
X152937700Y-100738000D01*
X152938700Y-100736268D01*
X152939700Y-100736000D01*
X153160300Y-100736000D01*
X153162032Y-100737000D01*
G37*
G36*
X153662032Y-100737000D02*
G01*
X153662300Y-100738000D01*
X153662300Y-102008000D01*
X153661300Y-102009732D01*
X153660300Y-102010000D01*
X153439700Y-102010000D01*
X153437968Y-102009000D01*
X153437700Y-102008000D01*
X153437700Y-100738000D01*
X153438700Y-100736268D01*
X153439700Y-100736000D01*
X153660300Y-100736000D01*
X153662032Y-100737000D01*
G37*
G36*
X154162032Y-100737000D02*
G01*
X154162300Y-100738000D01*
X154162300Y-102008000D01*
X154161300Y-102009732D01*
X154160300Y-102010000D01*
X153939700Y-102010000D01*
X153937968Y-102009000D01*
X153937700Y-102008000D01*
X153937700Y-100738000D01*
X153938700Y-100736268D01*
X153939700Y-100736000D01*
X154160300Y-100736000D01*
X154162032Y-100737000D01*
G37*
G36*
X154662032Y-100737000D02*
G01*
X154662300Y-100738000D01*
X154662300Y-102008000D01*
X154661300Y-102009732D01*
X154660300Y-102010000D01*
X154439700Y-102010000D01*
X154437968Y-102009000D01*
X154437700Y-102008000D01*
X154437700Y-100738000D01*
X154438700Y-100736268D01*
X154439700Y-100736000D01*
X154660300Y-100736000D01*
X154662032Y-100737000D01*
G37*
G36*
X155162032Y-100737000D02*
G01*
X155162300Y-100738000D01*
X155162300Y-102008000D01*
X155161300Y-102009732D01*
X155160300Y-102010000D01*
X154939700Y-102010000D01*
X154937968Y-102009000D01*
X154937700Y-102008000D01*
X154937700Y-100738000D01*
X154938700Y-100736268D01*
X154939700Y-100736000D01*
X155160300Y-100736000D01*
X155162032Y-100737000D01*
G37*
G36*
X155662032Y-100737000D02*
G01*
X155662300Y-100738000D01*
X155662300Y-102008000D01*
X155661300Y-102009732D01*
X155660300Y-102010000D01*
X155439700Y-102010000D01*
X155437968Y-102009000D01*
X155437700Y-102008000D01*
X155437700Y-100738000D01*
X155438700Y-100736268D01*
X155439700Y-100736000D01*
X155660300Y-100736000D01*
X155662032Y-100737000D01*
G37*
G36*
X161662032Y-100737000D02*
G01*
X161662300Y-100738000D01*
X161662300Y-102008000D01*
X161661300Y-102009732D01*
X161660300Y-102010000D01*
X161439700Y-102010000D01*
X161437968Y-102009000D01*
X161437700Y-102008000D01*
X161437700Y-100738000D01*
X161438700Y-100736268D01*
X161439700Y-100736000D01*
X161660300Y-100736000D01*
X161662032Y-100737000D01*
G37*
G36*
X161162032Y-100737000D02*
G01*
X161162300Y-100738000D01*
X161162300Y-102008000D01*
X161161300Y-102009732D01*
X161160300Y-102010000D01*
X160939700Y-102010000D01*
X160937968Y-102009000D01*
X160937700Y-102008000D01*
X160937700Y-100738000D01*
X160938700Y-100736268D01*
X160939700Y-100736000D01*
X161160300Y-100736000D01*
X161162032Y-100737000D01*
G37*
G36*
X160662032Y-100737000D02*
G01*
X160662300Y-100738000D01*
X160662300Y-102008000D01*
X160661300Y-102009732D01*
X160660300Y-102010000D01*
X160439700Y-102010000D01*
X160437968Y-102009000D01*
X160437700Y-102008000D01*
X160437700Y-100738000D01*
X160438700Y-100736268D01*
X160439700Y-100736000D01*
X160660300Y-100736000D01*
X160662032Y-100737000D01*
G37*
G36*
X160162032Y-100737000D02*
G01*
X160162300Y-100738000D01*
X160162300Y-102008000D01*
X160161300Y-102009732D01*
X160160300Y-102010000D01*
X159939700Y-102010000D01*
X159937968Y-102009000D01*
X159937700Y-102008000D01*
X159937700Y-100738000D01*
X159938700Y-100736268D01*
X159939700Y-100736000D01*
X160160300Y-100736000D01*
X160162032Y-100737000D01*
G37*
G36*
X159662032Y-100737000D02*
G01*
X159662300Y-100738000D01*
X159662300Y-102008000D01*
X159661300Y-102009732D01*
X159660300Y-102010000D01*
X159439700Y-102010000D01*
X159437968Y-102009000D01*
X159437700Y-102008000D01*
X159437700Y-100738000D01*
X159438700Y-100736268D01*
X159439700Y-100736000D01*
X159660300Y-100736000D01*
X159662032Y-100737000D01*
G37*
G36*
X159162032Y-100737000D02*
G01*
X159162300Y-100738000D01*
X159162300Y-102008000D01*
X159161300Y-102009732D01*
X159160300Y-102010000D01*
X158939700Y-102010000D01*
X158937968Y-102009000D01*
X158937700Y-102008000D01*
X158937700Y-100738000D01*
X158938700Y-100736268D01*
X158939700Y-100736000D01*
X159160300Y-100736000D01*
X159162032Y-100737000D01*
G37*
G36*
X158662032Y-100737000D02*
G01*
X158662300Y-100738000D01*
X158662300Y-102008000D01*
X158661300Y-102009732D01*
X158660300Y-102010000D01*
X158439700Y-102010000D01*
X158437968Y-102009000D01*
X158437700Y-102008000D01*
X158437700Y-100738000D01*
X158438700Y-100736268D01*
X158439700Y-100736000D01*
X158660300Y-100736000D01*
X158662032Y-100737000D01*
G37*
G36*
X158162032Y-100737000D02*
G01*
X158162300Y-100738000D01*
X158162300Y-102008000D01*
X158161300Y-102009732D01*
X158160300Y-102010000D01*
X157939700Y-102010000D01*
X157937968Y-102009000D01*
X157937700Y-102008000D01*
X157937700Y-100738000D01*
X157938700Y-100736268D01*
X157939700Y-100736000D01*
X158160300Y-100736000D01*
X158162032Y-100737000D01*
G37*
G36*
X157662032Y-100737000D02*
G01*
X157662300Y-100738000D01*
X157662300Y-102008000D01*
X157661300Y-102009732D01*
X157660300Y-102010000D01*
X157439700Y-102010000D01*
X157437968Y-102009000D01*
X157437700Y-102008000D01*
X157437700Y-100738000D01*
X157438700Y-100736268D01*
X157439700Y-100736000D01*
X157660300Y-100736000D01*
X157662032Y-100737000D01*
G37*
G36*
X156662032Y-100737000D02*
G01*
X156662300Y-100738000D01*
X156662300Y-102008000D01*
X156661300Y-102009732D01*
X156660300Y-102010000D01*
X156439700Y-102010000D01*
X156437968Y-102009000D01*
X156437700Y-102008000D01*
X156437700Y-100738000D01*
X156438700Y-100736268D01*
X156439700Y-100736000D01*
X156660300Y-100736000D01*
X156662032Y-100737000D01*
G37*
G36*
X157162032Y-100737000D02*
G01*
X157162300Y-100738000D01*
X157162300Y-102008000D01*
X157161300Y-102009732D01*
X157160300Y-102010000D01*
X156939700Y-102010000D01*
X156937968Y-102009000D01*
X156937700Y-102008000D01*
X156937700Y-100738000D01*
X156938700Y-100736268D01*
X156939700Y-100736000D01*
X157160300Y-100736000D01*
X157162032Y-100737000D01*
G37*
G36*
X156162032Y-100737000D02*
G01*
X156162300Y-100738000D01*
X156162300Y-102008000D01*
X156161300Y-102009732D01*
X156160300Y-102010000D01*
X155939700Y-102010000D01*
X155937968Y-102009000D01*
X155937700Y-102008000D01*
X155937700Y-100738000D01*
X155938700Y-100736268D01*
X155939700Y-100736000D01*
X156160300Y-100736000D01*
X156162032Y-100737000D01*
G37*
G36*
X149976732Y-85669000D02*
G01*
X149977000Y-85670000D01*
X149977000Y-85880000D01*
X149976000Y-85881732D01*
X149975000Y-85882000D01*
X149125000Y-85882000D01*
X149123268Y-85881000D01*
X149123000Y-85880000D01*
X149123000Y-85670000D01*
X149124000Y-85668268D01*
X149125000Y-85668000D01*
X149975000Y-85668000D01*
X149976732Y-85669000D01*
G37*
G36*
X151426732Y-85669000D02*
G01*
X151427000Y-85670000D01*
X151427000Y-85880000D01*
X151426000Y-85881732D01*
X151425000Y-85882000D01*
X150575000Y-85882000D01*
X150573268Y-85881000D01*
X150573000Y-85880000D01*
X150573000Y-85670000D01*
X150574000Y-85668268D01*
X150575000Y-85668000D01*
X151425000Y-85668000D01*
X151426732Y-85669000D01*
G37*
M02*
