M48
; DRILL file {KiCad 5.1.9} date Sat Feb 13 19:55:48 2021
; FORMAT={-:-/ absolute / inch / decimal}
; #@! TF.CreationDate,2021-02-13T19:55:48+01:00
; #@! TF.GenerationSoftware,Kicad,Pcbnew,5.1.9
; #@! TF.FileFunction,NonPlated,1,2,NPTH
FMAT,2
INCH
T1C0.0354
T2C0.0886
T3C0.2756
%
G90
G05
T1
X4.9144Y-4.1585
X5.1506Y-4.1585
T2
X5.8307Y-4.1339
T3
X5.8307Y-5.1181
T0
M30
