M48
; DRILL file {KiCad 5.1.9} date Sat Feb 13 19:55:48 2021
; FORMAT={-:-/ absolute / inch / decimal}
; #@! TF.CreationDate,2021-02-13T19:55:48+01:00
; #@! TF.GenerationSoftware,Kicad,Pcbnew,5.1.9
; #@! TF.FileFunction,Plated,1,2,PTH
FMAT,2
INCH
T1C0.0120
T2C0.0240
T3C0.0256
%
G90
G05
T1
X4.8583Y-4.622
X4.8583Y-4.6772
X4.9016Y-4.9685
X4.9016Y-5.1811
X4.9064Y-4.5682
X4.9114Y-3.8972
X4.9173Y-4.4882
X4.928Y-4.8919
X4.9409Y-5.0394
X4.9409Y-5.1142
X4.9414Y-3.9222
X4.9464Y-3.9672
X4.9508Y-4.3386
X4.9528Y-5.3819
X4.9528Y-5.4331
X4.9616Y-3.3494
X4.976Y-4.5682
X4.9902Y-4.9488
X5.0Y-4.3386
X5.0Y-4.3878
X5.0039Y-5.3819
X5.0039Y-5.4331
X5.0157Y-5.0945
X5.0157Y-5.1339
X5.0295Y-4.9488
X5.0295Y-4.9882
X5.0472Y-5.0945
X5.0472Y-5.1339
X5.0551Y-5.3819
X5.0807Y-4.9803
X5.0936Y-4.9034
X5.0993Y-4.8647
X5.103Y-4.4285
X5.1063Y-4.6142
X5.1201Y-5.2333
X5.1444Y-4.938
X5.1673Y-5.126
X5.1673Y-5.1752
X5.1673Y-5.2244
X5.1732Y-5.2992
X5.1894Y-4.7638
X5.2165Y-5.126
X5.2165Y-5.1752
X5.2165Y-5.2244
X5.2229Y-4.9912
X5.2264Y-4.5256
X5.2264Y-4.5846
X5.2264Y-4.6437
X5.2303Y-4.1909
X5.2323Y-5.0866
X5.2323Y-5.2992
X5.2343Y-5.4104
X5.2657Y-5.126
X5.2657Y-5.1752
X5.2657Y-5.2244
X5.2694Y-4.191
X5.2704Y-4.9052
X5.2744Y-4.987
X5.2854Y-4.5256
X5.2854Y-4.5846
X5.2854Y-4.6437
X5.3074Y-4.1899
X5.3111Y-4.2445
X5.3112Y-4.9026
X5.3179Y-4.8652
X5.3445Y-4.5256
X5.3445Y-4.5846
X5.3445Y-4.6437
X5.3452Y-4.1935
X5.3484Y-4.4065
X5.3504Y-5.0866
X5.3504Y-5.2992
X5.3834Y-4.1946
X5.4114Y-4.8706
X5.4131Y-3.8937
X5.4131Y-3.972
X5.4141Y-3.3937
X5.4141Y-3.4724
X5.4141Y-3.5512
X5.4488Y-5.0866
X5.4488Y-5.2992
X5.4743Y-4.8148
X5.4918Y-3.8937
X5.4918Y-3.972
X5.4928Y-3.3937
X5.4928Y-3.4724
X5.4928Y-3.5512
X5.5027Y-4.7807
X5.5264Y-4.3922
X5.5528Y-4.2762
X5.5669Y-5.0866
X5.5669Y-5.2992
X5.5706Y-3.8937
X5.5706Y-3.972
X5.5716Y-3.3937
X5.5716Y-3.4724
X5.5716Y-3.5512
X5.5732Y-4.773
X5.5881Y-4.6352
X5.5894Y-4.2392
X5.613Y-4.7793
X5.626Y-5.2992
X5.6586Y-4.6773
X5.6604Y-4.6309
X5.6877Y-4.6027
X5.6914Y-4.4222
X5.7145Y-4.5749
X5.7181Y-4.8881
X5.7409Y-4.5449
X5.7698Y-4.5187
X5.77Y-4.8773
X5.8071Y-5.3327
X5.8228Y-4.4154
X5.8238Y-4.5073
X5.8445Y-4.4724
X5.8504Y-3.3543
X5.8524Y-4.3878
X5.8563Y-5.3327
X5.8819Y-3.5758
X5.8925Y-4.7444
X5.9052Y-4.7824
X5.9249Y-4.8149
X5.9488Y-3.5748
X5.9538Y-4.8395
X5.9636Y-4.7081
X5.9789Y-4.8087
X5.9897Y-4.852
X6.0157Y-3.5748
X6.0315Y-5.3071
X6.0526Y-4.6795
X6.0801Y-4.0603
X6.086Y-4.8819
X6.0906Y-5.0945
X6.0906Y-5.3071
X6.0966Y-4.4803
X6.1083Y-4.662
X6.1116Y-4.0391
X6.123Y-3.3996
X6.127Y-4.9733
X6.1496Y-4.0404
X6.158Y-4.6505
X6.1598Y-5.0029
X6.186Y-5.438
X6.189Y-5.3071
X6.1963Y-4.6473
X6.2042Y-3.9438
X6.2087Y-5.0945
X6.2303Y-3.872
X6.2344Y-4.6473
X6.243Y-3.9433
X6.2447Y-4.0823
X6.248Y-5.3022
X6.2709Y-4.658
X6.2934Y-4.8711
X6.3021Y-4.6795
X6.3071Y-5.0945
X6.3071Y-5.3071
X6.3183Y-4.082
X6.3307Y-4.0404
X6.3377Y-4.1707
X6.3381Y-4.6921
X6.3465Y-3.8996
X6.3701Y-4.8071
X6.3743Y-4.7075
X6.3917Y-3.9409
X6.4126Y-4.7063
X6.4151Y-4.518
X6.4203Y-3.9911
X6.4252Y-5.0945
X6.4252Y-5.3071
X6.4409Y-4.4902
X6.4473Y-4.125
X6.453Y-4.408
X6.4744Y-3.9429
X6.4789Y-3.8569
X6.4852Y-5.0
X6.4872Y-4.435
X6.499Y-3.6398
X6.5089Y-5.3927
X6.5207Y-4.6874
X6.5359Y-5.3581
X6.5512Y-4.998
X6.5551Y-3.3543
X6.5551Y-3.3937
X6.5551Y-3.4331
X6.5591Y-5.438
X6.5896Y-4.4419
X6.5945Y-3.3543
X6.5945Y-3.3937
X6.5945Y-3.4331
X6.595Y-4.5597
X6.6102Y-5.1486
X6.6171Y-4.4144
X6.6339Y-3.3543
X6.6339Y-3.3937
X6.6339Y-3.4331
X6.6481Y-5.1228
X6.6535Y-5.2441
X6.6535Y-5.2933
X6.6535Y-5.3425
X6.6535Y-5.3917
X6.6762Y-3.8105
X6.6824Y-3.4942
X6.7028Y-5.2441
X6.7028Y-5.2933
X6.7028Y-5.3425
X6.7028Y-5.3917
X6.7028Y-5.4409
X6.7234Y-4.6772
X6.7275Y-3.7838
X6.749Y-3.6398
X6.752Y-5.2441
X6.752Y-5.2933
X6.752Y-5.3425
X6.752Y-5.3917
X6.752Y-5.4409
T2
X4.9825Y-4.135
X4.9825Y-4.185
X5.0325Y-4.135
X5.0325Y-4.185
X5.0825Y-4.135
X5.0825Y-4.185
T3
X5.6714Y-4.1972
X5.7214Y-4.1972
T0
M30
