EESchema Schematic File Version 4
EELAYER 30 0
EELAYER END
$Descr A4 11693 8268
encoding utf-8
Sheet 1 1
Title "ALTERNATI-BOY"
Date "2021-02-13"
Rev "B"
Comp "doragasu & 1985alternativo"
Comment1 "License: CERN-OHL-S"
Comment2 ""
Comment3 ""
Comment4 ""
$EndDescr
$Comp
L doragasu:GB-CART J3
U 1 1 54DE73A3
P 800 4500
F 0 "J3" H 700 6200 60  0000 C CNN
F 1 "GB-CART" H 800 2800 60  0000 C CNN
F 2 "doragasu:GB_CART_FINGERS" H 800 4500 60  0001 C CNN
F 3 "" H 800 4500 60  0000 C CNN
	1    800  4500
	1    0    0    -1  
$EndComp
$Comp
L doragasu:74LVC162245 U5
U 2 1 54DE7595
P 3200 5150
F 0 "U5" H 3000 5800 60  0000 C CNN
F 1 "74LVC162245" H 3150 4500 60  0000 C CNN
F 2 "Package_SO:TSSOP-48_6.1x12.5mm_P0.5mm" H 3200 5150 60  0001 C CNN
F 3 "http://www.nxp.com/documents/data_sheet/74LVC_LVCH162245A.pdf" H 3200 5150 60  0001 C CNN
F 4 "568-3003-5-ND" H 3200 5150 60  0001 C CNN "REF DIGIKEY"
	2    3200 5150
	1    0    0    1   
$EndComp
$Comp
L doragasu:74LVC162245 U5
U 1 1 54DE7541
P 3200 6550
F 0 "U5" H 3000 7200 60  0000 C CNN
F 1 "74LVC162245" H 3150 5900 60  0000 C CNN
F 2 "Package_SO:TSSOP-48_6.1x12.5mm_P0.5mm" H 3200 6550 60  0001 C CNN
F 3 "http://www.nxp.com/documents/data_sheet/74LVC_LVCH162245A.pdf" H 3200 6550 60  0001 C CNN
F 4 "568-3003-5-ND" H 3200 6550 60  0001 C CNN "REF DIGIKEY"
	1    3200 6550
	1    0    0    1   
$EndComp
$Comp
L doragasu:74LVC162245 U2
U 2 1 54DE74AE
P 3200 2350
F 0 "U2" H 3000 3000 60  0000 C CNN
F 1 "74LVC162245" H 3150 1700 60  0000 C CNN
F 2 "Package_SO:TSSOP-48_6.1x12.5mm_P0.5mm" H 3200 2350 60  0001 C CNN
F 3 "http://www.nxp.com/documents/data_sheet/74LVC_LVCH162245A.pdf" H 3200 2350 60  0001 C CNN
F 4 "568-3003-5-ND" H 3200 2350 60  0001 C CNN "REF DIGIKEY"
	2    3200 2350
	1    0    0    1   
$EndComp
$Comp
L doragasu:74LVC162245 U2
U 1 1 54DE7400
P 3200 3750
F 0 "U2" H 3000 4400 60  0000 C CNN
F 1 "74LVC162245" H 3150 3100 60  0000 C CNN
F 2 "Package_SO:TSSOP-48_6.1x12.5mm_P0.5mm" H 3200 3750 60  0001 C CNN
F 3 "http://www.nxp.com/documents/data_sheet/74LVC_LVCH162245A.pdf" H 3200 3750 60  0001 C CNN
F 4 "568-3003-5-ND" H 3200 3750 60  0001 C CNN "REF DIGIKEY"
	1    3200 3750
	1    0    0    1   
$EndComp
$Comp
L power:GND #PWR036
U 1 1 54DE9046
P 1100 6150
F 0 "#PWR036" H 1100 6150 30  0001 C CNN
F 1 "GND" H 1100 6080 30  0001 C CNN
F 2 "" H 1100 6150 60  0000 C CNN
F 3 "" H 1100 6150 60  0000 C CNN
	1    1100 6150
	1    0    0    -1  
$EndComp
$Comp
L power:GND #PWR026
U 1 1 54DEB8DB
P 2400 4750
F 0 "#PWR026" H 2400 4750 30  0001 C CNN
F 1 "GND" H 2400 4680 30  0001 C CNN
F 2 "" H 2400 4750 60  0000 C CNN
F 3 "" H 2400 4750 60  0000 C CNN
	1    2400 4750
	1    0    0    -1  
$EndComp
$Comp
L power:GND #PWR020
U 1 1 54DEB9B5
P 2400 3350
F 0 "#PWR020" H 2400 3350 30  0001 C CNN
F 1 "GND" H 2400 3280 30  0001 C CNN
F 2 "" H 2400 3350 60  0000 C CNN
F 3 "" H 2400 3350 60  0000 C CNN
	1    2400 3350
	1    0    0    -1  
$EndComp
$Comp
L power:GND #PWR016
U 1 1 54DEBC99
P 2400 2100
F 0 "#PWR016" H 2400 2100 30  0001 C CNN
F 1 "GND" H 2400 2030 30  0001 C CNN
F 2 "" H 2400 2100 60  0000 C CNN
F 3 "" H 2400 2100 60  0000 C CNN
	1    2400 2100
	1    0    0    -1  
$EndComp
NoConn ~ 3700 5350
NoConn ~ 3700 5450
$Comp
L power:GND #PWR032
U 1 1 54DEE752
P 2400 5550
F 0 "#PWR032" H 2400 5550 30  0001 C CNN
F 1 "GND" H 2400 5480 30  0001 C CNN
F 2 "" H 2400 5550 60  0000 C CNN
F 3 "" H 2400 5550 60  0000 C CNN
	1    2400 5550
	1    0    0    -1  
$EndComp
$Comp
L doragasu:S29GL064N90TFI040 U4
U 1 1 54DFCCC7
P 5000 3350
F 0 "U4" H 4600 4700 60  0000 C CNN
F 1 "S29GL064N90TFI040" H 5000 1900 60  0000 C CNN
F 2 "doragasu:TSOP48SP" H 5150 3850 60  0001 C CNN
F 3 "http://www.spansion.com/Support/Datasheets/S29GL-N_01.pdf" H 5150 3850 60  0001 C CNN
F 4 "1274-1026-ND" H 5000 3350 60  0001 C CNN "REF DIGIKEY"
	1    5000 3350
	1    0    0    -1  
$EndComp
$Comp
L Device:C C3
U 1 1 54E21284
P 3250 1350
F 0 "C3" V 3100 1300 40  0000 L CNN
F 1 "470p" V 3400 1300 40  0000 L CNN
F 2 "Capacitor_SMD:C_0603_1608Metric" H 3288 1200 30  0001 C CNN
F 3 "" H 3250 1350 60  0000 C CNN
	1    3250 1350
	0    1    1    0   
$EndComp
$Comp
L Device:C C7
U 1 1 54E21A5A
P 900 1850
F 0 "C7" H 900 1950 40  0000 L CNN
F 1 "1u" H 906 1765 40  0000 L CNN
F 2 "Capacitor_SMD:C_0603_1608Metric" H 938 1700 30  0001 C CNN
F 3 "" H 900 1850 60  0000 C CNN
	1    900  1850
	1    0    0    -1  
$EndComp
$Comp
L power:GND #PWR015
U 1 1 54E21D43
P 900 2050
F 0 "#PWR015" H 900 2050 30  0001 C CNN
F 1 "GND" H 900 1980 30  0001 C CNN
F 2 "" H 900 2050 60  0000 C CNN
F 3 "" H 900 2050 60  0000 C CNN
	1    900  2050
	1    0    0    -1  
$EndComp
$Comp
L Device:C C1
U 1 1 54E21D59
P 3450 1150
F 0 "C1" H 3450 1250 40  0000 L CNN
F 1 "100n" H 3456 1065 40  0000 L CNN
F 2 "Capacitor_SMD:C_0603_1608Metric" H 3488 1000 30  0001 C CNN
F 3 "" H 3450 1150 60  0000 C CNN
	1    3450 1150
	1    0    0    -1  
$EndComp
$Comp
L power:VCC #PWR02
U 1 1 54E2202D
P 3450 900
F 0 "#PWR02" H 3450 1000 30  0001 C CNN
F 1 "VCC" H 3350 1000 30  0000 C CNN
F 2 "" H 3450 900 60  0000 C CNN
F 3 "" H 3450 900 60  0000 C CNN
	1    3450 900 
	1    0    0    -1  
$EndComp
$Comp
L power:VCC #PWR013
U 1 1 54E22232
P 2700 1950
F 0 "#PWR013" H 2700 2050 30  0001 C CNN
F 1 "VCC" V 2700 2100 30  0000 C CNN
F 2 "" H 2700 1950 60  0000 C CNN
F 3 "" H 2700 1950 60  0000 C CNN
	1    2700 1950
	0    -1   -1   0   
$EndComp
$Comp
L power:VCC #PWR021
U 1 1 54E22327
P 2700 3350
F 0 "#PWR021" H 2700 3450 30  0001 C CNN
F 1 "VCC" V 2700 3500 30  0000 C CNN
F 2 "" H 2700 3350 60  0000 C CNN
F 3 "" H 2700 3350 60  0000 C CNN
	1    2700 3350
	0    -1   -1   0   
$EndComp
$Comp
L power:VCC #PWR027
U 1 1 54E22386
P 2700 4750
F 0 "#PWR027" H 2700 4850 30  0001 C CNN
F 1 "VCC" V 2700 4900 30  0000 C CNN
F 2 "" H 2700 4750 60  0000 C CNN
F 3 "" H 2700 4750 60  0000 C CNN
	1    2700 4750
	0    -1   -1   0   
$EndComp
$Comp
L Device:Battery_Cell BT1
U 1 1 54E22761
P 6650 7400
F 0 "BT1" H 6750 7600 50  0000 C CNN
F 1 "CR2032" H 6800 7350 50  0000 C CNN
F 2 "doragasu:CR2032-BK883" H 6650 7400 60  0001 C CNN
F 3 "http://cdn.harwin.com/pdfs/S8411R.pdf" H 6650 7400 60  0001 C CNN
F 4 "952-1745-2-ND" H 6650 7400 60  0001 C CNN "REF DIGIKEY"
	1    6650 7400
	1    0    0    -1  
$EndComp
$Comp
L Device:D_Schottky_x2_KCom_AKA D3
U 1 1 54E229E4
P 6650 6250
F 0 "D3" V 6800 6125 60  0000 C CNN
F 1 "RB715Z" H 6650 6400 60  0000 C CNN
F 2 "doragasu:SOT-723_132" H 6650 6250 60  0001 C CNN
F 3 "http://rohmfs.rohm.com/en/products/databook/datasheet/discrete/diode/schottky_barrier/rb715z.pdf" H 6650 6250 60  0001 C CNN
	1    6650 6250
	0    1    1    0   
$EndComp
$Comp
L power:GND #PWR040
U 1 1 54E23475
P 6650 7550
F 0 "#PWR040" H 6650 7550 30  0001 C CNN
F 1 "GND" H 6650 7480 30  0001 C CNN
F 2 "" H 6650 7550 60  0000 C CNN
F 3 "" H 6650 7550 60  0000 C CNN
	1    6650 7550
	1    0    0    -1  
$EndComp
$Comp
L power:VCC #PWR033
U 1 1 54E23A8C
P 6650 5900
F 0 "#PWR033" H 6650 6000 30  0001 C CNN
F 1 "VCC" H 6650 6050 30  0000 C CNN
F 2 "" H 6650 5900 60  0000 C CNN
F 3 "" H 6650 5900 60  0000 C CNN
	1    6650 5900
	1    0    0    -1  
$EndComp
Text Label 3700 2250 0    60   ~ 0
~WR
Text Label 3700 2350 0    60   ~ 0
~RD
Text Label 3700 2450 0    60   ~ 0
~CS
Text Label 3700 2550 0    60   ~ 0
A0
Text Label 3700 2650 0    60   ~ 0
A1
Text Label 3700 2750 0    60   ~ 0
A2
Text Label 3700 2850 0    60   ~ 0
A3
Text Label 3700 3550 0    60   ~ 0
A4
Text Label 3700 3650 0    60   ~ 0
A5
Text Label 3700 3750 0    60   ~ 0
A6
Text Label 3700 3850 0    60   ~ 0
A7
Text Label 3700 3950 0    60   ~ 0
A8
Text Label 3700 4050 0    60   ~ 0
A9
Text Label 3700 4150 0    60   ~ 0
A10
Text Label 3700 4250 0    60   ~ 0
A11
Text Label 3700 4950 0    60   ~ 0
A12
Text Label 3700 5050 0    60   ~ 0
A13
Text Label 3700 5150 0    60   ~ 0
A14
Text Label 3700 5250 0    60   ~ 0
A15
Text Label 3700 5550 0    60   ~ 0
~RST
Text Label 3700 6350 0    60   ~ 0
D0
Text Label 3700 6450 0    60   ~ 0
D1
Text Label 3700 6550 0    60   ~ 0
D2
Text Label 3700 6650 0    60   ~ 0
D3
Text Label 3700 6750 0    60   ~ 0
D4
Text Label 3700 6850 0    60   ~ 0
D5
Text Label 3700 6950 0    60   ~ 0
D6
Text Label 3700 7050 0    60   ~ 0
D7
Entry Wire Line
	3850 2250 3950 2350
Entry Wire Line
	3850 2350 3950 2450
Entry Wire Line
	3850 2450 3950 2550
Entry Wire Line
	3850 2550 3950 2650
Entry Wire Line
	3850 2650 3950 2750
Entry Wire Line
	3850 2750 3950 2850
Entry Wire Line
	3850 2850 3950 2950
Entry Wire Line
	3850 3550 3950 3650
Entry Wire Line
	3850 3650 3950 3750
Entry Wire Line
	3850 3750 3950 3850
Entry Wire Line
	3850 3850 3950 3950
Entry Wire Line
	3850 3950 3950 4050
Entry Wire Line
	3850 4050 3950 4150
Entry Wire Line
	3850 4150 3950 4250
Entry Wire Line
	3850 4250 3950 4350
Entry Wire Line
	3850 4950 3950 5050
Entry Wire Line
	3850 5050 3950 5150
Entry Wire Line
	3850 5150 3950 5250
Entry Wire Line
	3850 5250 3950 5350
Entry Wire Line
	3850 5550 3950 5650
Entry Wire Line
	3850 6350 3950 6450
Entry Wire Line
	3850 6450 3950 6550
Entry Wire Line
	3850 6550 3950 6650
Entry Wire Line
	3850 6650 3950 6750
Entry Wire Line
	3850 6750 3950 6850
Entry Wire Line
	3850 6850 3950 6950
Entry Wire Line
	3850 6950 3950 7050
Entry Wire Line
	3850 7050 3950 7150
NoConn ~ 5700 2250
NoConn ~ 5700 2350
NoConn ~ 5700 2450
NoConn ~ 5700 2550
NoConn ~ 5700 2650
NoConn ~ 5700 2750
NoConn ~ 5700 2850
$Comp
L power:GND #PWR024
U 1 1 54E2556E
P 5700 4550
F 0 "#PWR024" H 5700 4550 30  0001 C CNN
F 1 "GND" H 5700 4480 30  0001 C CNN
F 2 "" H 5700 4550 60  0000 C CNN
F 3 "" H 5700 4550 60  0000 C CNN
	1    5700 4550
	1    0    0    -1  
$EndComp
Entry Wire Line
	5900 2150 6000 2250
Entry Wire Line
	5900 2950 6000 3050
Entry Wire Line
	5900 3050 6000 3150
Entry Wire Line
	5900 3150 6000 3250
Entry Wire Line
	5900 3250 6000 3350
Entry Wire Line
	5900 3350 6000 3450
Entry Wire Line
	5900 3450 6000 3550
Entry Wire Line
	5900 3550 6000 3650
Entry Wire Line
	5900 3650 6000 3750
Entry Wire Line
	3950 2250 4050 2150
Entry Wire Line
	3950 2350 4050 2250
Entry Wire Line
	3950 2450 4050 2350
Entry Wire Line
	3950 2550 4050 2450
Entry Wire Line
	3950 2650 4050 2550
Entry Wire Line
	3950 2750 4050 2650
Entry Wire Line
	3950 2850 4050 2750
Entry Wire Line
	3950 2950 4050 2850
Entry Wire Line
	3950 3050 4050 2950
Entry Wire Line
	3950 3150 4050 3050
Entry Wire Line
	3950 3250 4050 3150
Entry Wire Line
	3950 3350 4050 3250
Entry Wire Line
	3950 3450 4050 3350
Entry Wire Line
	3950 3550 4050 3450
Entry Wire Line
	3950 3650 4050 3550
Entry Wire Line
	3950 3750 4050 3650
Entry Wire Line
	3950 3850 4050 3750
Entry Wire Line
	3950 3950 4050 3850
Entry Wire Line
	3950 4050 4050 3950
Entry Wire Line
	3950 4150 4050 4050
Entry Wire Line
	3950 4250 4050 4150
Entry Wire Line
	3950 4350 4050 4250
Entry Wire Line
	3950 4550 4050 4450
Entry Wire Line
	3950 4650 4050 4550
Entry Wire Line
	3950 4750 4050 4650
Text Label 5700 2150 0    60   ~ 0
A0
Text Label 4050 4250 0    60   ~ 0
A1
Text Label 4050 4150 0    60   ~ 0
A2
Text Label 4050 4050 0    60   ~ 0
A3
Text Label 4050 3950 0    60   ~ 0
A4
Text Label 4050 3850 0    60   ~ 0
A5
Text Label 4050 3750 0    60   ~ 0
A6
Text Label 4050 3650 0    60   ~ 0
A7
Text Label 4050 3550 0    60   ~ 0
A8
Text Label 4050 3450 0    60   ~ 0
A9
Text Label 4050 3350 0    60   ~ 0
A10
Text Label 4050 3250 0    60   ~ 0
A11
Text Label 4050 3150 0    60   ~ 0
A12
Text Label 4050 3050 0    60   ~ 0
A13
Text Label 4050 2950 0    60   ~ 0
OA14
Text Label 4050 2850 0    60   ~ 0
OA15
Text Label 4050 2750 0    60   ~ 0
OA16
Text Label 4050 2650 0    60   ~ 0
OA17
Text Label 4050 2550 0    60   ~ 0
OA18
Text Label 4050 2450 0    60   ~ 0
OA19
Text Label 4050 2350 0    60   ~ 0
OA20
Text Label 4050 2250 0    60   ~ 0
OA21
Text Label 4050 2150 0    60   ~ 0
OA22
Text Label 5700 2950 0    60   ~ 0
D7
Text Label 5700 3050 0    60   ~ 0
D6
Text Label 5700 3150 0    60   ~ 0
D5
Text Label 5700 3250 0    60   ~ 0
D4
Text Label 5700 3350 0    60   ~ 0
D3
Text Label 5700 3450 0    60   ~ 0
D2
Text Label 5700 3550 0    60   ~ 0
D1
Text Label 5700 3650 0    60   ~ 0
D0
Entry Wire Line
	3950 5200 4050 5100
Entry Wire Line
	3950 5300 4050 5200
Entry Wire Line
	3950 5400 4050 5300
Entry Wire Line
	3950 5500 4050 5400
Entry Wire Line
	3950 5600 4050 5500
Entry Wire Line
	3950 5700 4050 5600
Entry Wire Line
	3950 5800 4050 5700
Entry Wire Line
	3950 5900 4050 5800
Entry Wire Line
	3950 6000 4050 5900
Entry Wire Line
	3950 6100 4050 6000
Entry Wire Line
	3950 6200 4050 6100
Entry Wire Line
	3950 6300 4050 6200
Entry Wire Line
	3950 6400 4050 6300
Entry Wire Line
	3950 6500 4050 6400
Entry Wire Line
	3950 6600 4050 6500
Entry Wire Line
	3950 6700 4050 6600
Entry Wire Line
	3950 6800 4050 6700
Entry Wire Line
	5900 5100 6000 5200
Entry Wire Line
	5900 5200 6000 5300
Entry Wire Line
	5900 5300 6000 5400
Entry Wire Line
	5900 5400 6000 5500
Entry Wire Line
	5900 5500 6000 5600
Entry Wire Line
	5900 5600 6000 5700
Entry Wire Line
	5900 5700 6000 5800
Entry Wire Line
	5900 5800 6000 5900
Text Label 4050 6700 0    60   ~ 0
A0
Text Label 4050 6600 0    60   ~ 0
A1
Text Label 4050 6500 0    60   ~ 0
A2
Text Label 4050 6400 0    60   ~ 0
A3
Text Label 4050 6300 0    60   ~ 0
A4
Text Label 4050 6200 0    60   ~ 0
A5
Text Label 4050 6100 0    60   ~ 0
A6
Text Label 4050 6000 0    60   ~ 0
A7
Text Label 4050 5900 0    60   ~ 0
A8
Text Label 4050 5800 0    60   ~ 0
A9
Text Label 4050 5700 0    60   ~ 0
A10
Text Label 4050 5600 0    60   ~ 0
A11
Text Label 4050 5500 0    60   ~ 0
A12
Text Label 4050 5400 0    60   ~ 0
OA14
Text Label 4050 5300 0    60   ~ 0
OA15
Text Label 4050 5200 0    60   ~ 0
OA16
Text Label 4050 5100 0    60   ~ 0
OA17
Text Label 5650 5100 0    60   ~ 0
D7
Text Label 5650 5200 0    60   ~ 0
D6
Text Label 5650 5300 0    60   ~ 0
D5
Text Label 5650 5400 0    60   ~ 0
D4
Text Label 5650 5500 0    60   ~ 0
D3
Text Label 5650 5600 0    60   ~ 0
D2
Text Label 5650 5700 0    60   ~ 0
D1
Text Label 5650 5800 0    60   ~ 0
D0
Entry Wire Line
	5900 4250 6000 4350
Text Label 5700 4250 0    60   ~ 0
~RST
$Comp
L power:GND #PWR025
U 1 1 54E27DC4
P 7250 4650
F 0 "#PWR025" H 7250 4650 30  0001 C CNN
F 1 "GND" H 7250 4580 30  0001 C CNN
F 2 "" H 7250 4650 60  0000 C CNN
F 3 "" H 7250 4650 60  0000 C CNN
	1    7250 4650
	1    0    0    -1  
$EndComp
Text Label 4050 4450 0    60   ~ 0
A15
Text Label 4050 4550 0    60   ~ 0
~RD
Entry Wire Line
	3950 7000 4050 6900
Text Label 4050 6900 0    60   ~ 0
~ACE
Entry Wire Line
	3950 7200 4050 7100
Entry Wire Line
	3950 7300 4050 7200
Text Label 4050 7100 0    60   ~ 0
~RD
Text Label 4050 7200 0    60   ~ 0
~WR
$Comp
L Device:C C8
U 1 1 386D556B
P 7300 5700
F 0 "C8" H 7300 5800 40  0000 L CNN
F 1 "100n" H 7306 5615 40  0000 L CNN
F 2 "Capacitor_SMD:C_0603_1608Metric" H 7338 5550 30  0001 C CNN
F 3 "" H 7300 5700 60  0000 C CNN
	1    7300 5700
	1    0    0    -1  
$EndComp
$Comp
L Device:C C9
U 1 1 386D5716
P 7550 5700
F 0 "C9" H 7550 5800 40  0000 L CNN
F 1 "100n" H 7556 5615 40  0000 L CNN
F 2 "Capacitor_SMD:C_0603_1608Metric" H 7588 5550 30  0001 C CNN
F 3 "" H 7550 5700 60  0000 C CNN
	1    7550 5700
	1    0    0    -1  
$EndComp
$Comp
L Device:C C10
U 1 1 386D5744
P 7800 5700
F 0 "C10" H 7800 5800 40  0000 L CNN
F 1 "100n" H 7806 5615 40  0000 L CNN
F 2 "Capacitor_SMD:C_0603_1608Metric" H 7838 5550 30  0001 C CNN
F 3 "" H 7800 5700 60  0000 C CNN
	1    7800 5700
	1    0    0    -1  
$EndComp
$Comp
L power:GND #PWR034
U 1 1 386D5B3B
P 7550 5950
F 0 "#PWR034" H 7550 5950 30  0001 C CNN
F 1 "GND" H 7550 5880 30  0001 C CNN
F 2 "" H 7550 5950 60  0000 C CNN
F 3 "" H 7550 5950 60  0000 C CNN
	1    7550 5950
	1    0    0    -1  
$EndComp
$Comp
L power:VCC #PWR029
U 1 1 386D5C46
P 7550 5500
F 0 "#PWR029" H 7550 5600 30  0001 C CNN
F 1 "VCC" H 7550 5650 30  0000 C CNN
F 2 "" H 7550 5500 60  0000 C CNN
F 3 "" H 7550 5500 60  0000 C CNN
	1    7550 5500
	1    0    0    -1  
$EndComp
Entry Wire Line
	6000 2250 6100 2150
$Comp
L Device:C C16
U 1 1 386D6B34
P 1700 7450
F 0 "C16" H 1700 7550 40  0000 L CNN
F 1 "100n" H 1706 7365 40  0000 L CNN
F 2 "Capacitor_SMD:C_0603_1608Metric" H 1738 7300 30  0001 C CNN
F 3 "" H 1700 7450 60  0000 C CNN
	1    1700 7450
	1    0    0    -1  
$EndComp
$Comp
L Device:C C17
U 1 1 386D6BEE
P 1950 7450
F 0 "C17" H 1950 7550 40  0000 L CNN
F 1 "100n" H 1956 7365 40  0000 L CNN
F 2 "Capacitor_SMD:C_0603_1608Metric" H 1988 7300 30  0001 C CNN
F 3 "" H 1950 7450 60  0000 C CNN
	1    1950 7450
	1    0    0    -1  
$EndComp
$Comp
L Device:C C18
U 1 1 386D6C1F
P 2250 7450
F 0 "C18" H 2250 7550 40  0000 L CNN
F 1 "100n" H 2256 7365 40  0000 L CNN
F 2 "Capacitor_SMD:C_0603_1608Metric" H 2288 7300 30  0001 C CNN
F 3 "" H 2250 7450 60  0000 C CNN
	1    2250 7450
	1    0    0    -1  
$EndComp
$Comp
L Device:C C19
U 1 1 386D6C4D
P 2500 7450
F 0 "C19" H 2500 7550 40  0000 L CNN
F 1 "100n" H 2506 7365 40  0000 L CNN
F 2 "Capacitor_SMD:C_0603_1608Metric" H 2538 7300 30  0001 C CNN
F 3 "" H 2500 7450 60  0000 C CNN
	1    2500 7450
	1    0    0    -1  
$EndComp
$Comp
L Device:C C14
U 1 1 386D6E83
P 5700 6900
F 0 "C14" H 5700 7000 40  0000 L CNN
F 1 "100n" H 5706 6815 40  0000 L CNN
F 2 "Capacitor_SMD:C_0603_1608Metric" H 5738 6750 30  0001 C CNN
F 3 "" H 5700 6900 60  0000 C CNN
	1    5700 6900
	1    0    0    -1  
$EndComp
$Comp
L Device:C C15
U 1 1 386D6EB7
P 6000 6900
F 0 "C15" H 6000 7000 40  0000 L CNN
F 1 "1u" H 6006 6815 40  0000 L CNN
F 2 "Capacitor_SMD:C_0603_1608Metric" H 6038 6750 30  0001 C CNN
F 3 "" H 6000 6900 60  0000 C CNN
	1    6000 6900
	1    0    0    -1  
$EndComp
$Comp
L Device:C C12
U 1 1 386D715F
P 8550 5700
F 0 "C12" H 8550 5800 40  0000 L CNN
F 1 "100n" H 8556 5615 40  0000 L CNN
F 2 "Capacitor_SMD:C_0603_1608Metric" H 8588 5550 30  0001 C CNN
F 3 "" H 8550 5700 60  0000 C CNN
	1    8550 5700
	1    0    0    -1  
$EndComp
$Comp
L Device:C C13
U 1 1 386D7199
P 8850 5700
F 0 "C13" H 8850 5800 40  0000 L CNN
F 1 "NP" H 8856 5615 40  0000 L CNN
F 2 "Capacitor_SMD:C_0603_1608Metric" H 8888 5550 30  0001 C CNN
F 3 "" H 8850 5700 60  0000 C CNN
	1    8850 5700
	1    0    0    -1  
$EndComp
$Comp
L power:GND #PWR041
U 1 1 386D7BEE
P 2100 7650
F 0 "#PWR041" H 2100 7650 30  0001 C CNN
F 1 "GND" H 2100 7580 30  0001 C CNN
F 2 "" H 2100 7650 60  0000 C CNN
F 3 "" H 2100 7650 60  0000 C CNN
	1    2100 7650
	1    0    0    -1  
$EndComp
$Comp
L power:GND #PWR037
U 1 1 386D7C12
P 5700 7200
F 0 "#PWR037" H 5700 7200 30  0001 C CNN
F 1 "GND" H 5700 7130 30  0001 C CNN
F 2 "" H 5700 7200 60  0000 C CNN
F 3 "" H 5700 7200 60  0000 C CNN
	1    5700 7200
	1    0    0    -1  
$EndComp
$Comp
L power:GND #PWR035
U 1 1 386D7C68
P 8700 5950
F 0 "#PWR035" H 8700 5950 30  0001 C CNN
F 1 "GND" H 8700 5880 30  0001 C CNN
F 2 "" H 8700 5950 60  0000 C CNN
F 3 "" H 8700 5950 60  0000 C CNN
	1    8700 5950
	1    0    0    -1  
$EndComp
$Comp
L power:VCC #PWR038
U 1 1 386D86B2
P 2100 7250
F 0 "#PWR038" H 2100 7350 30  0001 C CNN
F 1 "VCC" H 2100 7400 30  0000 C CNN
F 2 "" H 2100 7250 60  0000 C CNN
F 3 "" H 2100 7250 60  0000 C CNN
	1    2100 7250
	1    0    0    -1  
$EndComp
$Comp
L power:VCC #PWR031
U 1 1 386D86FA
P 8700 5500
F 0 "#PWR031" H 8700 5600 30  0001 C CNN
F 1 "VCC" H 8700 5650 30  0000 C CNN
F 2 "" H 8700 5500 60  0000 C CNN
F 3 "" H 8700 5500 60  0000 C CNN
	1    8700 5500
	1    0    0    -1  
$EndComp
Entry Wire Line
	6000 2550 6100 2450
Entry Wire Line
	6000 2650 6100 2550
Entry Wire Line
	6000 2350 6100 2250
Entry Wire Line
	6000 2450 6100 2350
Entry Wire Line
	6000 2750 6100 2650
Entry Wire Line
	6000 2850 6100 2750
Entry Wire Line
	6000 2950 6100 2850
Entry Wire Line
	6000 3050 6100 2950
Entry Wire Line
	6000 3150 6100 3050
Entry Wire Line
	6000 3250 6100 3150
Entry Wire Line
	6000 3350 6100 3250
Entry Wire Line
	6000 3450 6100 3350
Entry Wire Line
	6000 3550 6100 3450
Entry Wire Line
	6000 3650 6100 3550
Entry Wire Line
	6000 3750 6100 3650
Entry Wire Line
	8400 2250 8500 2350
Entry Wire Line
	8400 2350 8500 2450
Entry Wire Line
	8400 2550 8500 2650
Entry Wire Line
	8400 2650 8500 2750
Entry Wire Line
	8400 2850 8500 2950
Entry Wire Line
	8400 2950 8500 3050
Entry Wire Line
	8400 3050 8500 3150
Entry Wire Line
	8400 3150 8500 3250
Entry Wire Line
	8400 3250 8500 3350
Entry Wire Line
	8400 3350 8500 3450
Entry Wire Line
	8400 3450 8500 3550
Entry Wire Line
	8400 3550 8500 3650
Entry Wire Line
	8400 3650 8500 3750
$Comp
L Connector_Generic:Conn_01x06 J2
U 1 1 386DBB13
P 9050 4050
F 0 "J2" H 9200 4050 60  0000 C CNN
F 1 "JTAG" H 9250 3950 60  0000 C CNN
F 2 "doragasu:CON_3x2P_2MM_SMD" H 9050 4050 60  0001 C CNN
F 3 "http://www.molex.com/pdm_docs/sd/873400624_sd.pdf" H 9050 4050 60  0001 C CNN
F 4 "WM18689-ND" H 9050 4050 60  0001 C CNN "REF DIGIKEY"
	1    9050 4050
	1    0    0    -1  
$EndComp
$Comp
L power:VCC #PWR022
U 1 1 386DC49C
P 8250 3850
F 0 "#PWR022" H 8250 3950 30  0001 C CNN
F 1 "VCC" H 8250 4000 30  0000 C CNN
F 2 "" H 8250 3850 60  0000 C CNN
F 3 "" H 8250 3850 60  0000 C CNN
	1    8250 3850
	1    0    0    -1  
$EndComp
$Comp
L power:GND #PWR023
U 1 1 386DC4F5
P 8750 4450
F 0 "#PWR023" H 8750 4450 30  0001 C CNN
F 1 "GND" H 8750 4380 30  0001 C CNN
F 2 "" H 8750 4450 60  0000 C CNN
F 3 "" H 8750 4450 60  0000 C CNN
	1    8750 4450
	1    0    0    -1  
$EndComp
NoConn ~ 5700 3850
NoConn ~ 5700 4050
Text Label 4050 4650 0    60   ~ 0
~FWE
Entry Wire Line
	8400 2150 8500 2250
Entry Wire Line
	8400 2750 8500 2850
$Comp
L doragasu:XC2C32A-VQ44 U3
U 1 1 386D560E
P 7250 3150
F 0 "U3" H 7050 4300 60  0000 C CNN
F 1 "XC2C32A-VQ44" H 6750 1900 60  0000 C CNN
F 2 "Package_QFP:LQFP-44_10x10mm_P0.8mm" H 7750 2400 60  0001 C CNN
F 3 "http://www.xilinx.com/support/documentation/data_sheets/ds310.pdf" H 7750 2400 60  0001 C CNN
	1    7250 3150
	-1   0    0    -1  
$EndComp
Entry Wire Line
	8400 2450 8500 2550
Entry Wire Line
	6000 3850 6100 3750
Text Label 6100 2950 0    60   ~ 0
A12
Text Label 6100 3050 0    60   ~ 0
A13
Text Label 6100 3150 0    60   ~ 0
A14
Text Label 6100 3250 0    60   ~ 0
A15
Text Label 6100 2650 0    60   ~ 0
D0
Text Label 6100 2550 0    60   ~ 0
D1
Text Label 6100 2450 0    60   ~ 0
D2
Text Label 6100 2350 0    60   ~ 0
D3
Text Label 6100 2250 0    60   ~ 0
D4
Text Label 6100 2150 0    60   ~ 0
D5
Text Label 8150 2150 0    60   ~ 0
D6
Text Label 8150 2250 0    60   ~ 0
D7
Text Label 6100 2750 0    60   ~ 0
~CS
Text Label 6100 2850 0    60   ~ 0
~RST
Text Label 6100 3350 0    60   ~ 0
~WR
Text Label 6100 3450 0    60   ~ 0
~ACE
Text Label 8150 3350 0    60   ~ 0
OA14
Text Label 8150 2550 0    60   ~ 0
OA15
Text Label 8150 2450 0    60   ~ 0
OA16
Text Label 8150 2350 0    60   ~ 0
OA17
Text Label 8150 2850 0    60   ~ 0
OA18
Text Label 8150 2950 0    60   ~ 0
OA19
Text Label 8150 3250 0    60   ~ 0
OA20
Text Label 8150 3150 0    60   ~ 0
OA21
Text Label 8150 3050 0    60   ~ 0
OA22
$Comp
L power:VCC #PWR011
U 1 1 386D8180
P 7150 1850
F 0 "#PWR011" H 7150 1950 30  0001 C CNN
F 1 "VCC" H 7150 2000 30  0000 C CNN
F 2 "" H 7150 1850 60  0000 C CNN
F 3 "" H 7150 1850 60  0000 C CNN
	1    7150 1850
	1    0    0    -1  
$EndComp
$Comp
L power:VCC #PWR012
U 1 1 386D81F3
P 7350 1850
F 0 "#PWR012" H 7350 1950 30  0001 C CNN
F 1 "VCC" H 7350 2000 30  0000 C CNN
F 2 "" H 7350 1850 60  0000 C CNN
F 3 "" H 7350 1850 60  0000 C CNN
	1    7350 1850
	1    0    0    -1  
$EndComp
Text Label 2500 2350 0    60   ~ 0
~IRD
Text Label 2500 6050 0    60   ~ 0
~TCS
$Comp
L power:+1V8 #PWR010
U 1 1 386D9107
P 7250 1800
F 0 "#PWR010" H 7250 1940 20  0001 C CNN
F 1 "+1V8" H 7250 1950 30  0000 C CNN
F 2 "" H 7250 1800 60  0000 C CNN
F 3 "" H 7250 1800 60  0000 C CNN
	1    7250 1800
	1    0    0    -1  
$EndComp
$Comp
L Device:C C4
U 1 1 386DA2EF
P 1550 1550
F 0 "C4" V 1400 1500 40  0000 L CNN
F 1 "NP" V 1700 1500 40  0000 L CNN
F 2 "Capacitor_SMD:C_0603_1608Metric" H 1588 1400 30  0001 C CNN
F 3 "" H 1550 1550 60  0000 C CNN
	1    1550 1550
	1    0    0    -1  
$EndComp
$Comp
L power:GND #PWR05
U 1 1 386DA2F5
P 3600 1450
F 0 "#PWR05" H 3600 1450 30  0001 C CNN
F 1 "GND" H 3600 1380 30  0001 C CNN
F 2 "" H 3600 1450 60  0000 C CNN
F 3 "" H 3600 1450 60  0000 C CNN
	1    3600 1450
	1    0    0    -1  
$EndComp
$Comp
L Device:C C2
U 1 1 386DA2FB
P 3750 1150
F 0 "C2" H 3750 1250 40  0000 L CNN
F 1 "100n" H 3756 1065 40  0000 L CNN
F 2 "Capacitor_SMD:C_0603_1608Metric" H 3788 1000 30  0001 C CNN
F 3 "" H 3750 1150 60  0000 C CNN
	1    3750 1150
	1    0    0    -1  
$EndComp
$Comp
L power:+1V8 #PWR01
U 1 1 386DA379
P 3750 700
F 0 "#PWR01" H 3750 840 20  0001 C CNN
F 1 "+1V8" H 3750 810 30  0000 C CNN
F 2 "" H 3750 700 60  0000 C CNN
F 3 "" H 3750 700 60  0000 C CNN
	1    3750 700 
	1    0    0    -1  
$EndComp
$Comp
L power:GND #PWR08
U 1 1 54E215E9
P 2300 1750
F 0 "#PWR08" H 2300 1750 30  0001 C CNN
F 1 "GND" H 2300 1680 30  0001 C CNN
F 2 "" H 2300 1750 60  0000 C CNN
F 3 "" H 2300 1750 60  0000 C CNN
	1    2300 1750
	1    0    0    -1  
$EndComp
$Comp
L Device:CP C6
U 1 1 386DAEAA
P 600 1850
F 0 "C6" H 650 1950 40  0000 L CNN
F 1 "100u" H 650 1750 40  0000 L CNN
F 2 "Capacitors_Tantalum_SMD:TantalC_SizeA_EIA-3216_Reflow" H 700 1700 30  0001 C CNN
F 3 "" H 600 1850 300 0000 C CNN
	1    600  1850
	1    0    0    -1  
$EndComp
$Comp
L power:GND #PWR014
U 1 1 386DAF35
P 600 2050
F 0 "#PWR014" H 600 2050 30  0001 C CNN
F 1 "GND" H 600 1980 30  0001 C CNN
F 2 "" H 600 2050 60  0000 C CNN
F 3 "" H 600 2050 60  0000 C CNN
	1    600  2050
	1    0    0    -1  
$EndComp
Text Label 8150 2650 0    60   ~ 0
CCLK
Text Label 2500 6150 0    60   ~ 0
~IRD
Text Label 6100 3550 0    60   ~ 0
~TCS
Entry Wire Line
	8500 2450 8600 2350
Entry Wire Line
	8500 2650 8600 2550
$Comp
L power:GND #PWR018
U 1 1 386DA2EE
P 8900 2600
F 0 "#PWR018" H 8900 2600 30  0001 C CNN
F 1 "GND" H 8900 2530 30  0001 C CNN
F 2 "" H 8900 2600 60  0000 C CNN
F 3 "" H 8900 2600 60  0000 C CNN
	1    8900 2600
	1    0    0    -1  
$EndComp
Text Label 8600 2550 0    60   ~ 0
CCLK
$Comp
L doragasu:CY62128EV30LL-45Z-PWPIN U6
U 1 1 54E23965
P 5000 6150
F 0 "U6" H 4600 7350 60  0000 C CNN
F 1 "CY62128EV30LL-45Z" H 5000 4950 60  0000 C CNN
F 2 "Package_SO:TSOP-I-32_18.4x8mm_P0.5mm" H 5000 6200 60  0001 C CNN
F 3 "http://www.cypress.com/?docID=50857" H 5000 6200 60  0001 C CNN
F 4 "428-2067-ND" H 5000 6150 60  0001 C CNN "REF DIGIKEY"
	1    5000 6150
	1    0    0    -1  
$EndComp
$Comp
L Device:C C11
U 1 1 54E76385
P 8050 5700
F 0 "C11" H 8050 5800 40  0000 L CNN
F 1 "100n" H 8056 5615 40  0000 L CNN
F 2 "Capacitor_SMD:C_0603_1608Metric" H 8088 5550 30  0001 C CNN
F 3 "" H 8050 5700 60  0000 C CNN
	1    8050 5700
	1    0    0    -1  
$EndComp
$Comp
L Device:R R7
U 1 1 54E85CC0
P 6350 6800
F 0 "R7" V 6430 6800 40  0000 C CNN
F 1 "1K" V 6350 6800 40  0000 C CNN
F 2 "Resistor_SMD:R_0603_1608Metric" V 6280 6800 30  0001 C CNN
F 3 "" H 6350 6800 30  0000 C CNN
	1    6350 6800
	-1   0    0    1   
$EndComp
$Comp
L doragasu:LP3996 U1
U 1 1 54E9E5D0
P 2300 1050
F 0 "U1" H 1850 1500 60  0000 C CNN
F 1 "LP3996SD-1833" H 2450 1500 60  0000 C CNN
F 2 "doragasu:DFN-10-1EP_2x2.8mm_Pitch0.5mm" H 2300 850 60  0001 C CNN
F 3 "http://www.ti.com/lit/ds/symlink/lp3996.pdf" H 2300 850 60  0001 C CNN
F 4 "LP3996SD-1833/NOPBCT-ND" H 2300 1050 60  0001 C CNN "REF DIGIKEY"
	1    2300 1050
	1    0    0    -1  
$EndComp
$Comp
L power:GND #PWR07
U 1 1 54EA2696
P 1550 1750
F 0 "#PWR07" H 1550 1750 30  0001 C CNN
F 1 "GND" H 1550 1680 30  0001 C CNN
F 2 "" H 1550 1750 60  0000 C CNN
F 3 "" H 1550 1750 60  0000 C CNN
	1    1550 1750
	1    0    0    -1  
$EndComp
$Comp
L power:+1V8 #PWR03
U 1 1 54EA3AEE
P 1550 1150
F 0 "#PWR03" H 1550 1290 20  0001 C CNN
F 1 "+1V8" H 1550 1300 30  0000 C CNN
F 2 "" H 1550 1150 60  0000 C CNN
F 3 "" H 1550 1150 60  0000 C CNN
	1    1550 1150
	1    0    0    -1  
$EndComp
Text Label 2150 5850 0    60   ~ 0
IRST
Text Label 3250 1150 2    60   ~ 0
IRST
$Comp
L power:+1V8 #PWR030
U 1 1 54EB7F75
P 8050 5500
F 0 "#PWR030" H 8050 5640 20  0001 C CNN
F 1 "+1V8" H 8050 5650 30  0000 C CNN
F 2 "" H 8050 5500 60  0000 C CNN
F 3 "" H 8050 5500 60  0000 C CNN
	1    8050 5500
	1    0    0    -1  
$EndComp
Entry Wire Line
	3850 5650 3950 5750
Text Label 3700 5650 0    60   ~ 0
~FWE
Text Label 6100 3650 0    60   ~ 0
GND
Text Label 6100 3750 0    60   ~ 0
GND
Text Label 8150 3450 0    60   ~ 0
LEDR
Text Label 8150 3550 0    60   ~ 0
LEDG
Text Label 8150 3650 0    60   ~ 0
LEDB
$Comp
L Device:R R5
U 1 1 54F9A3E1
P 9100 3350
F 0 "R5" V 9180 3350 40  0000 C CNN
F 1 "150" V 9100 3350 40  0000 C CNN
F 2 "Resistor_SMD:R_0603_1608Metric" V 9030 3350 30  0001 C CNN
F 3 "" H 9100 3350 30  0000 C CNN
	1    9100 3350
	0    -1   -1   0   
$EndComp
$Comp
L Device:R R4
U 1 1 54F9A619
P 9100 3200
F 0 "R4" V 9180 3200 40  0000 C CNN
F 1 "47" V 9100 3200 40  0000 C CNN
F 2 "Resistor_SMD:R_0603_1608Metric" V 9030 3200 30  0001 C CNN
F 3 "" H 9100 3200 30  0000 C CNN
	1    9100 3200
	0    -1   -1   0   
$EndComp
$Comp
L Device:R R3
U 1 1 54F9A65B
P 9100 3050
F 0 "R3" V 9180 3050 40  0000 C CNN
F 1 "47" V 9100 3050 40  0000 C CNN
F 2 "Resistor_SMD:R_0603_1608Metric" V 9030 3050 30  0001 C CNN
F 3 "" H 9100 3050 30  0000 C CNN
	1    9100 3050
	0    -1   -1   0   
$EndComp
Entry Wire Line
	8500 3150 8600 3050
Entry Wire Line
	8500 3300 8600 3200
Entry Wire Line
	8500 3450 8600 3350
Text Label 8600 3050 0    60   ~ 0
LEDR
$Comp
L doragasu:RGB_LED D2
U 1 1 54F9C188
P 9600 3200
F 0 "D2" H 9600 3500 60  0000 C CNN
F 1 "RGB LED" H 9600 2900 60  0000 C CNN
F 2 "doragasu:SMD_0606_4PAD" H 9600 3200 60  0001 C CNN
F 3 "" H 9600 3200 60  0000 C CNN
	1    9600 3200
	-1   0    0    -1  
$EndComp
$Comp
L power:VCC #PWR019
U 1 1 54F9C612
P 9950 3150
F 0 "#PWR019" H 9950 3250 30  0001 C CNN
F 1 "VCC" H 9950 3300 30  0000 C CNN
F 2 "" H 9950 3150 60  0000 C CNN
F 3 "" H 9950 3150 60  0000 C CNN
	1    9950 3150
	1    0    0    -1  
$EndComp
Text Label 8600 3200 0    60   ~ 0
LEDG
Text Label 8600 3350 0    60   ~ 0
LEDB
$Comp
L Device:R R8
U 1 1 550938CD
P 6650 6800
F 0 "R8" V 6730 6800 40  0000 C CNN
F 1 "47R" V 6650 6800 40  0000 C CNN
F 2 "Resistor_SMD:R_0603_1608Metric" V 6580 6800 30  0001 C CNN
F 3 "" H 6650 6800 30  0000 C CNN
	1    6650 6800
	-1   0    0    1   
$EndComp
$Comp
L Device:R R9
U 1 1 550C5DB9
P 6350 7300
F 0 "R9" V 6430 7300 40  0000 C CNN
F 1 "10K" V 6350 7300 40  0000 C CNN
F 2 "Resistor_SMD:R_0603_1608Metric" V 6280 7300 30  0001 C CNN
F 3 "" H 6350 7300 30  0000 C CNN
	1    6350 7300
	-1   0    0    1   
$EndComp
$Comp
L power:GND #PWR039
U 1 1 550C6180
P 6350 7550
F 0 "#PWR039" H 6350 7550 30  0001 C CNN
F 1 "GND" H 6350 7480 30  0001 C CNN
F 2 "" H 6350 7550 60  0000 C CNN
F 3 "" H 6350 7550 60  0000 C CNN
	1    6350 7550
	1    0    0    -1  
$EndComp
$Comp
L Device:R R6
U 1 1 550CB220
P 6600 4800
F 0 "R6" V 6680 4800 40  0000 C CNN
F 1 "10K" V 6600 4800 40  0000 C CNN
F 2 "Resistor_SMD:R_0603_1608Metric" V 6530 4800 30  0001 C CNN
F 3 "" H 6600 4800 30  0000 C CNN
	1    6600 4800
	0    -1   -1   0   
$EndComp
Entry Wire Line
	6000 4900 6100 4800
Text Label 6100 4800 0    60   ~ 0
~ACE
$Comp
L power:GND #PWR028
U 1 1 550CC44E
P 6950 4900
F 0 "#PWR028" H 6950 4900 30  0001 C CNN
F 1 "GND" H 6950 4830 30  0001 C CNN
F 2 "" H 6950 4900 60  0000 C CNN
F 3 "" H 6950 4900 60  0000 C CNN
	1    6950 4900
	1    0    0    -1  
$EndComp
$Comp
L Connector_Generic:Conn_01x06 J4
U 1 1 552F785B
P 8450 4900
F 0 "J4" V 8550 5100 60  0000 C CNN
F 1 "JTAG" V 8550 4650 60  0000 C CNN
F 2 "doragasu:CONN_2x3_50MIL" H 8450 4900 60  0001 C CNN
F 3 "http://www.molex.com/pdm_docs/sd/873400624_sd.pdf" H 8450 4900 60  0001 C CNN
F 4 "WM18689-ND" H 8450 4900 60  0001 C CNN "REF DIGIKEY"
	1    8450 4900
	0    -1   1    0   
$EndComp
Wire Wire Line
	1100 6050 1100 6150
Wire Wire Line
	2700 2250 1300 2250
Wire Wire Line
	1300 2250 1300 3150
Wire Wire Line
	1300 3150 1100 3150
Wire Wire Line
	1100 3250 1400 3250
Wire Wire Line
	1400 3250 1400 2350
Wire Wire Line
	1400 2350 2700 2350
Wire Wire Line
	2700 2450 1500 2450
Wire Wire Line
	1500 2450 1500 3350
Wire Wire Line
	1500 3350 1100 3350
Wire Wire Line
	2700 2550 1600 2550
Wire Wire Line
	1600 2550 1600 3450
Wire Wire Line
	1600 3450 1100 3450
Wire Wire Line
	2700 2650 1700 2650
Wire Wire Line
	1700 2650 1700 3550
Wire Wire Line
	1700 3550 1100 3550
Wire Wire Line
	2700 2750 1800 2750
Wire Wire Line
	1800 2750 1800 3650
Wire Wire Line
	1800 3650 1100 3650
Wire Wire Line
	2700 2850 1900 2850
Wire Wire Line
	1900 2850 1900 3750
Wire Wire Line
	1900 3750 1100 3750
Wire Wire Line
	2000 3550 2700 3550
Wire Wire Line
	2000 3550 2000 3850
Wire Wire Line
	2000 3850 1100 3850
Wire Wire Line
	2700 3650 2100 3650
Wire Wire Line
	2100 3650 2100 3950
Wire Wire Line
	2100 3950 1100 3950
Wire Wire Line
	1100 4050 2200 4050
Wire Wire Line
	2200 4050 2200 3750
Wire Wire Line
	2200 3750 2700 3750
Wire Wire Line
	2700 3850 2300 3850
Wire Wire Line
	2300 3850 2300 4150
Wire Wire Line
	2300 4150 1100 4150
Wire Wire Line
	1100 4250 2400 4250
Wire Wire Line
	2400 4250 2400 3950
Wire Wire Line
	2400 3950 2700 3950
Wire Wire Line
	2700 4050 2500 4050
Wire Wire Line
	2500 4050 2500 4350
Wire Wire Line
	2500 4350 1100 4350
Wire Wire Line
	1100 4450 2600 4450
Wire Wire Line
	2600 4450 2600 4150
Wire Wire Line
	2600 4150 2700 4150
Wire Wire Line
	2700 4250 2700 4550
Wire Wire Line
	2700 4550 1100 4550
Wire Wire Line
	2700 4950 2300 4950
Wire Wire Line
	2300 4950 2300 4650
Wire Wire Line
	2300 4650 1100 4650
Wire Wire Line
	1100 4750 2200 4750
Wire Wire Line
	2200 4750 2200 5050
Wire Wire Line
	2200 5050 2700 5050
Wire Wire Line
	2700 5150 2100 5150
Wire Wire Line
	2100 5150 2100 4850
Wire Wire Line
	2100 4850 1100 4850
Wire Wire Line
	1100 4950 2000 4950
Wire Wire Line
	2000 4950 2000 5250
Wire Wire Line
	2000 5250 2700 5250
Wire Wire Line
	1100 5750 1200 5750
Wire Wire Line
	1200 5750 1200 7050
Wire Wire Line
	1200 7050 2700 7050
Wire Wire Line
	1100 5650 1300 5650
Wire Wire Line
	1300 5650 1300 6950
Wire Wire Line
	1300 6950 2700 6950
Wire Wire Line
	2700 6850 1400 6850
Wire Wire Line
	1400 6850 1400 5550
Wire Wire Line
	1400 5550 1100 5550
Wire Wire Line
	1100 5450 1500 5450
Wire Wire Line
	1500 5450 1500 6750
Wire Wire Line
	1500 6750 2700 6750
Wire Wire Line
	2700 6650 1600 6650
Wire Wire Line
	1600 6650 1600 5350
Wire Wire Line
	1600 5350 1100 5350
Wire Wire Line
	1100 5250 1700 5250
Wire Wire Line
	1700 5250 1700 6550
Wire Wire Line
	1700 6550 2700 6550
Wire Wire Line
	2700 6450 1800 6450
Wire Wire Line
	1800 6450 1800 5150
Wire Wire Line
	1800 5150 1100 5150
Wire Wire Line
	1100 5050 1900 5050
Wire Wire Line
	1900 5050 1900 6350
Wire Wire Line
	1900 6350 2700 6350
Wire Wire Line
	2500 6150 2700 6150
Wire Wire Line
	2400 4750 2400 4650
Wire Wire Line
	2400 4650 2700 4650
Wire Wire Line
	2400 3350 2400 3250
Wire Wire Line
	2400 3250 2700 3250
Wire Wire Line
	2400 1850 2400 2050
Wire Wire Line
	2400 1850 2700 1850
Wire Wire Line
	3700 2250 3850 2250
Wire Wire Line
	3700 2350 3850 2350
Wire Wire Line
	3700 2450 3850 2450
Wire Wire Line
	3700 2550 3850 2550
Wire Wire Line
	3700 2650 3850 2650
Wire Wire Line
	3700 2750 3850 2750
Wire Wire Line
	3700 2850 3850 2850
Wire Wire Line
	3700 3550 3850 3550
Wire Wire Line
	3700 3650 3850 3650
Wire Wire Line
	3700 3750 3850 3750
Wire Wire Line
	3700 3850 3850 3850
Wire Wire Line
	3700 3950 3850 3950
Wire Wire Line
	3700 4050 3850 4050
Wire Wire Line
	3700 4150 3850 4150
Wire Wire Line
	3700 4250 3850 4250
Wire Wire Line
	3700 4950 3850 4950
Wire Wire Line
	3700 5050 3850 5050
Wire Wire Line
	3700 5150 3850 5150
Wire Wire Line
	3700 5250 3850 5250
Wire Wire Line
	1100 5850 2500 5850
Wire Wire Line
	2400 5350 2400 5450
Wire Wire Line
	2400 5350 2700 5350
Wire Wire Line
	2400 5450 2700 5450
Connection ~ 2400 5450
Wire Wire Line
	1100 550  1100 750 
Wire Wire Line
	5650 6650 5700 6650
Wire Wire Line
	6000 6250 6000 6650
Wire Wire Line
	3700 6350 3850 6350
Wire Wire Line
	3700 6450 3850 6450
Wire Wire Line
	3700 6550 3850 6550
Wire Wire Line
	3700 6650 3850 6650
Wire Wire Line
	3700 6750 3850 6750
Wire Wire Line
	3700 6850 3850 6850
Wire Wire Line
	3700 6950 3850 6950
Wire Wire Line
	3700 7050 3850 7050
Wire Wire Line
	4350 5100 4050 5100
Wire Wire Line
	4350 5200 4050 5200
Wire Wire Line
	4350 5300 4050 5300
Wire Wire Line
	4350 5400 4050 5400
Wire Wire Line
	4350 5500 4050 5500
Wire Wire Line
	4350 5600 4050 5600
Wire Wire Line
	4350 5700 4050 5700
Wire Wire Line
	4350 5800 4050 5800
Wire Wire Line
	4350 5900 4050 5900
Wire Wire Line
	4350 6000 4050 6000
Wire Wire Line
	4350 6100 4050 6100
Wire Wire Line
	4350 6200 4050 6200
Wire Wire Line
	4350 6300 4050 6300
Wire Wire Line
	4350 6400 4050 6400
Wire Wire Line
	4350 6500 4050 6500
Wire Wire Line
	4350 6600 4050 6600
Wire Wire Line
	4350 6700 4050 6700
Wire Wire Line
	5650 5100 5900 5100
Wire Wire Line
	5650 5200 5900 5200
Wire Wire Line
	5650 5300 5900 5300
Wire Wire Line
	5650 5400 5900 5400
Wire Wire Line
	5650 5500 5900 5500
Wire Wire Line
	5650 5600 5900 5600
Wire Wire Line
	5650 5700 5900 5700
Wire Wire Line
	5650 5800 5900 5800
Wire Wire Line
	4300 2150 4050 2150
Wire Wire Line
	4300 2250 4050 2250
Wire Wire Line
	4300 2350 4050 2350
Wire Wire Line
	4300 2450 4050 2450
Wire Wire Line
	4300 2550 4050 2550
Wire Wire Line
	4300 2650 4050 2650
Wire Wire Line
	4300 2750 4050 2750
Wire Wire Line
	4300 2850 4050 2850
Wire Wire Line
	4300 2950 4050 2950
Wire Wire Line
	4300 3050 4050 3050
Wire Wire Line
	4300 3150 4050 3150
Wire Wire Line
	4300 3250 4050 3250
Wire Wire Line
	4300 3350 4050 3350
Wire Wire Line
	4300 3450 4050 3450
Wire Wire Line
	4300 3550 4050 3550
Wire Wire Line
	4300 3650 4050 3650
Wire Wire Line
	4300 3750 4050 3750
Wire Wire Line
	4300 3850 4050 3850
Wire Wire Line
	4300 3950 4050 3950
Wire Wire Line
	4300 4050 4050 4050
Wire Wire Line
	4300 4150 4050 4150
Wire Wire Line
	4300 4250 4050 4250
Wire Wire Line
	4300 4450 4050 4450
Wire Wire Line
	4300 4550 4050 4550
Wire Wire Line
	4300 4650 4050 4650
Wire Wire Line
	5700 2150 5900 2150
Wire Wire Line
	5700 2950 5900 2950
Wire Wire Line
	5700 3050 5900 3050
Wire Wire Line
	5700 3150 5900 3150
Wire Wire Line
	5700 3250 5900 3250
Wire Wire Line
	5700 3350 5900 3350
Wire Wire Line
	5700 3450 5900 3450
Wire Wire Line
	5700 3550 5900 3550
Wire Wire Line
	5700 3650 5900 3650
Wire Wire Line
	5700 4550 5700 4450
Wire Wire Line
	5700 4250 5900 4250
Wire Wire Line
	7150 4550 7250 4550
Connection ~ 7250 4550
Wire Wire Line
	7250 4550 7250 4650
Wire Wire Line
	4350 6900 4050 6900
Wire Wire Line
	4350 7100 4050 7100
Wire Wire Line
	4050 7200 4350 7200
Wire Bus Line
	3950 1600 8500 1600
Connection ~ 7550 5550
Connection ~ 7550 5850
Wire Wire Line
	7550 5850 7550 5950
Wire Wire Line
	7550 5550 7550 5500
Wire Wire Line
	6350 2150 6100 2150
Wire Wire Line
	6350 2250 6100 2250
Wire Wire Line
	6350 2350 6100 2350
Wire Wire Line
	1700 7300 1950 7300
Connection ~ 1950 7300
Connection ~ 2250 7300
Wire Wire Line
	1700 7600 1950 7600
Connection ~ 1950 7600
Connection ~ 2250 7600
Wire Wire Line
	5650 7100 5700 7100
Wire Wire Line
	8550 5850 8700 5850
Wire Wire Line
	2100 7600 2100 7650
Connection ~ 2100 7600
Wire Wire Line
	8700 5850 8700 5950
Connection ~ 8700 5850
Wire Wire Line
	8550 5550 8700 5550
Wire Wire Line
	8700 5500 8700 5550
Connection ~ 8700 5550
Wire Wire Line
	2100 7250 2100 7300
Connection ~ 2100 7300
Wire Wire Line
	6350 2450 6100 2450
Wire Wire Line
	6350 2550 6100 2550
Wire Wire Line
	6350 2650 6100 2650
Wire Wire Line
	6100 2750 6350 2750
Wire Wire Line
	6350 2850 6100 2850
Wire Wire Line
	6100 2950 6350 2950
Wire Wire Line
	6350 3050 6100 3050
Wire Wire Line
	6100 3150 6350 3150
Wire Wire Line
	6350 3250 6100 3250
Wire Wire Line
	6100 3350 6350 3350
Wire Wire Line
	6350 3450 6100 3450
Wire Wire Line
	6100 3550 6350 3550
Wire Wire Line
	6350 3650 6100 3650
Wire Wire Line
	8150 2250 8400 2250
Wire Wire Line
	8400 2350 8150 2350
Wire Wire Line
	8400 2550 8150 2550
Wire Wire Line
	8150 2650 8400 2650
Wire Wire Line
	8150 2850 8400 2850
Wire Wire Line
	8400 2950 8150 2950
Wire Wire Line
	8150 3050 8400 3050
Wire Wire Line
	8400 3150 8150 3150
Wire Wire Line
	8150 3250 8400 3250
Wire Wire Line
	8400 3350 8150 3350
Wire Wire Line
	8150 3450 8400 3450
Wire Wire Line
	8400 3550 8150 3550
Wire Wire Line
	8150 3650 8400 3650
Wire Wire Line
	8150 3850 8250 3850
Wire Wire Line
	8150 2750 8400 2750
Wire Wire Line
	8150 2150 8400 2150
Wire Wire Line
	4350 7000 4250 7000
Wire Wire Line
	4250 7000 4250 7400
Wire Wire Line
	4250 7400 6200 7400
Wire Wire Line
	8150 2450 8400 2450
Wire Wire Line
	6100 3750 6350 3750
Wire Wire Line
	2500 6050 2700 6050
Wire Wire Line
	7250 1850 7250 1800
Wire Wire Line
	3750 700  3750 750 
Wire Wire Line
	8900 2550 8600 2550
Wire Wire Line
	8900 2550 8900 2600
Connection ~ 5700 7100
Wire Wire Line
	5700 6650 5700 6750
Connection ~ 5700 6650
Connection ~ 6000 6650
Wire Wire Line
	5700 7050 5700 7100
Connection ~ 7800 5850
Wire Wire Line
	6650 5900 6650 5950
Wire Wire Line
	6350 6650 6350 5950
Wire Wire Line
	6350 5950 6650 5950
Connection ~ 6650 5950
Wire Wire Line
	1100 750  1550 750 
Connection ~ 1100 1650
Wire Wire Line
	2300 1750 2300 1650
Wire Wire Line
	600  1650 900  1650
Connection ~ 900  1650
Wire Wire Line
	3400 1350 3450 1350
Wire Wire Line
	3600 1450 3600 1350
Connection ~ 3600 1350
Wire Wire Line
	3450 950  3050 950 
Wire Wire Line
	3050 750  3750 750 
Connection ~ 3750 750 
Wire Wire Line
	3450 900  3450 950 
Connection ~ 3450 950 
Wire Wire Line
	3050 1150 3250 1150
Wire Wire Line
	1550 750  1550 950 
Connection ~ 1550 750 
Connection ~ 2300 1650
Wire Wire Line
	2200 1650 2300 1650
Wire Wire Line
	7300 5550 7550 5550
Wire Wire Line
	7300 5850 7550 5850
Wire Wire Line
	8050 5500 8050 5550
Wire Wire Line
	2500 5850 2500 5550
Wire Wire Line
	2500 5550 2700 5550
Wire Wire Line
	2600 5950 1100 5950
Wire Wire Line
	3700 5550 3850 5550
Wire Wire Line
	3700 5650 3850 5650
Wire Wire Line
	2600 5950 2600 5650
Wire Wire Line
	2600 5650 2700 5650
Wire Wire Line
	8150 4150 8350 4150
Wire Wire Line
	8600 3050 8950 3050
Wire Wire Line
	8600 3200 8950 3200
Wire Wire Line
	8600 3350 8950 3350
Wire Wire Line
	9950 3150 9950 3200
Wire Wire Line
	9950 3200 9900 3200
Wire Wire Line
	6000 6250 6450 6250
Wire Wire Line
	6200 7400 6200 7050
Wire Wire Line
	6200 7050 6350 7050
Connection ~ 6350 7050
Wire Wire Line
	6350 7450 6350 7550
Wire Wire Line
	6100 4800 6450 4800
Wire Wire Line
	6750 4800 6950 4800
Wire Wire Line
	6950 4800 6950 4900
Wire Wire Line
	8450 3950 8150 3950
Wire Wire Line
	10200 550  10200 4500
Connection ~ 1100 750 
Wire Wire Line
	10200 4500 8850 4500
Wire Wire Line
	8850 4350 8850 4500
Wire Wire Line
	8850 4150 8650 4150
Wire Wire Line
	8650 4250 8650 4150
Wire Wire Line
	8150 4250 8550 4250
Wire Wire Line
	8550 4150 8550 3950
Wire Wire Line
	8550 3950 8850 3950
Wire Wire Line
	8150 4050 8250 4050
Wire Wire Line
	8350 4050 8350 3850
Wire Wire Line
	8450 3950 8450 4050
Wire Wire Line
	8450 4050 8850 4050
Wire Wire Line
	8850 4250 8750 4250
Wire Wire Line
	8750 4250 8750 4350
Wire Wire Line
	8350 3850 8850 3850
Wire Wire Line
	8850 4700 8750 4700
Connection ~ 8850 4500
Wire Wire Line
	8750 4350 8650 4350
Wire Wire Line
	8650 4350 8650 4700
Connection ~ 8750 4350
Wire Wire Line
	8550 4700 8550 4250
Connection ~ 8550 4250
Connection ~ 8450 4050
Wire Wire Line
	8350 4700 8350 4150
Connection ~ 8350 4150
Wire Wire Line
	8250 4700 8250 4050
Connection ~ 8250 4050
Wire Wire Line
	6350 6950 6350 7050
Wire Wire Line
	6650 7200 6650 6950
Wire Wire Line
	6650 7500 6650 7550
Wire Wire Line
	6650 6550 6650 6650
Wire Wire Line
	6000 7100 6000 7050
Wire Wire Line
	9350 3050 9250 3050
Wire Wire Line
	9250 3200 9350 3200
Wire Wire Line
	9350 3350 9250 3350
Wire Wire Line
	3750 1350 3750 1300
Wire Wire Line
	3450 1300 3450 1350
Connection ~ 3450 1350
Wire Wire Line
	3050 1350 3100 1350
Wire Wire Line
	1550 1400 1550 1350
Wire Wire Line
	1550 1700 1550 1750
Wire Wire Line
	900  1700 900  1650
Wire Wire Line
	900  2000 900  2050
Wire Wire Line
	600  1700 600  1650
Wire Wire Line
	600  2000 600  2050
NoConn ~ 3700 2150
NoConn ~ 1100 3050
Wire Wire Line
	2700 2150 2650 2150
Wire Wire Line
	2650 2150 2650 2050
Wire Wire Line
	2650 2050 2400 2050
Connection ~ 2400 2050
Wire Wire Line
	1100 550  10200 550 
Text Label 8400 2750 2    60   ~ 0
RUMB
Wire Wire Line
	8600 2350 8900 2350
Text Label 8600 2350 0    60   ~ 0
RUMB
$Comp
L Connector_Generic:Conn_01x02 J1
U 1 1 5742BC67
P 9900 1950
F 0 "J1" H 9950 2200 50  0000 R CNN
F 1 "CONN_01X02" V 9774 1812 50  0001 R CNN
F 2 "Connector_PinHeader_1.27mm:PinHeader_1x02_P1.27mm_Vertical" H 9900 1950 50  0001 C CNN
F 3 "" H 9900 1950 50  0000 C CNN
F 4 "RUMBLE" H 10100 2100 50  0000 R CNN "Function"
	1    9900 1950
	1    0    0    -1  
$EndComp
$Comp
L Device:D_Schottky_x2_KCom_AKA D1
U 1 1 5742C5AF
P 9500 1850
F 0 "D1" V 9650 1725 60  0000 C CNN
F 1 "RB715Z" H 9500 2000 60  0000 C CNN
F 2 "doragasu:SOT-723_132" H 9500 1850 60  0001 C CNN
F 3 "http://rohmfs.rohm.com/en/products/databook/datasheet/discrete/diode/schottky_barrier/rb715z.pdf" H 9500 1850 60  0001 C CNN
	1    9500 1850
	0    -1   -1   0   
$EndComp
Wire Wire Line
	9700 1850 9700 1950
Wire Wire Line
	9700 2050 9700 2150
Wire Wire Line
	9700 2150 9500 2150
$Comp
L Device:R R2
U 1 1 5742D1E4
P 9050 2350
F 0 "R2" V 9130 2350 40  0000 C CNN
F 1 "100" V 9050 2350 40  0000 C CNN
F 2 "Resistor_SMD:R_0603_1608Metric" V 8980 2350 30  0001 C CNN
F 3 "" H 9050 2350 30  0000 C CNN
	1    9050 2350
	0    -1   -1   0   
$EndComp
$Comp
L Device:Q_NMOS_DGS Q1
U 1 1 5742D5AE
P 9400 2350
F 0 "Q1" H 9591 2396 50  0000 L CNN
F 1 "2N7002" H 9591 2305 50  0000 L CNN
F 2 "Package_TO_SOT_SMD:SOT-23" H 9600 2450 50  0001 C CNN
F 3 "" H 9400 2350 50  0000 C CNN
	1    9400 2350
	1    0    0    -1  
$EndComp
$Comp
L power:GND #PWR017
U 1 1 5742D914
P 9500 2550
F 0 "#PWR017" H 9500 2550 30  0001 C CNN
F 1 "GND" H 9500 2480 30  0001 C CNN
F 2 "" H 9500 2550 60  0000 C CNN
F 3 "" H 9500 2550 60  0000 C CNN
	1    9500 2550
	1    0    0    -1  
$EndComp
Connection ~ 9500 2150
$Comp
L Device:R R1
U 1 1 5742E59A
P 9500 1400
F 0 "R1" V 9580 1400 40  0000 C CNN
F 1 "10" V 9500 1400 40  0000 C CNN
F 2 "Resistor_SMD:R_0603_1608Metric" V 9430 1400 30  0001 C CNN
F 3 "" H 9500 1400 30  0000 C CNN
	1    9500 1400
	1    0    0    -1  
$EndComp
$Comp
L power:VCC #PWR04
U 1 1 5742E748
P 9500 1250
F 0 "#PWR04" H 9500 1350 30  0001 C CNN
F 1 "VCC" H 9500 1400 30  0000 C CNN
F 2 "" H 9500 1250 60  0000 C CNN
F 3 "" H 9500 1250 60  0000 C CNN
	1    9500 1250
	1    0    0    -1  
$EndComp
$Comp
L Device:C C5
U 1 1 5742FEC7
P 9000 1600
F 0 "C5" H 9000 1700 40  0000 L CNN
F 1 "4.7u" H 9006 1515 40  0000 L CNN
F 2 "Capacitor_SMD:C_0603_1608Metric" H 9038 1450 30  0001 C CNN
F 3 "" H 9000 1600 60  0000 C CNN
	1    9000 1600
	1    0    0    -1  
$EndComp
$Comp
L power:GND #PWR09
U 1 1 574300F5
P 9000 1750
F 0 "#PWR09" H 9000 1750 30  0001 C CNN
F 1 "GND" H 9000 1680 30  0001 C CNN
F 2 "" H 9000 1750 60  0000 C CNN
F 3 "" H 9000 1750 60  0000 C CNN
	1    9000 1750
	1    0    0    -1  
$EndComp
$Comp
L power:VCC #PWR06
U 1 1 57430187
P 9000 1450
F 0 "#PWR06" H 9000 1550 30  0001 C CNN
F 1 "VCC" H 9000 1600 30  0000 C CNN
F 2 "" H 9000 1450 60  0000 C CNN
F 3 "" H 9000 1450 60  0000 C CNN
	1    9000 1450
	1    0    0    -1  
$EndComp
Wire Wire Line
	2400 5450 2400 5550
Wire Wire Line
	7250 4550 7350 4550
Wire Wire Line
	7550 5550 7800 5550
Wire Wire Line
	7550 5850 7800 5850
Wire Wire Line
	1950 7300 2100 7300
Wire Wire Line
	2250 7300 2500 7300
Wire Wire Line
	1950 7600 2100 7600
Wire Wire Line
	2250 7600 2500 7600
Wire Wire Line
	2100 7600 2250 7600
Wire Wire Line
	8700 5850 8850 5850
Wire Wire Line
	8700 5550 8850 5550
Wire Wire Line
	2100 7300 2250 7300
Wire Wire Line
	5700 7100 6000 7100
Wire Wire Line
	5700 7100 5700 7200
Wire Wire Line
	5700 6650 6000 6650
Wire Wire Line
	6000 6650 6000 6750
Wire Wire Line
	7800 5850 8050 5850
Wire Wire Line
	1100 1650 1100 2950
Wire Wire Line
	900  1650 1100 1650
Wire Wire Line
	3600 1350 3750 1350
Wire Wire Line
	3750 750  3750 1000
Wire Wire Line
	3450 950  3450 1000
Wire Wire Line
	2300 1650 2400 1650
Wire Wire Line
	6350 7050 6350 7150
Wire Wire Line
	1100 750  1100 1650
Wire Wire Line
	8850 4500 8850 4700
Wire Wire Line
	8750 4350 8750 4450
Wire Wire Line
	8550 4250 8650 4250
Wire Wire Line
	8450 4050 8450 4700
Wire Wire Line
	8350 4150 8550 4150
Wire Wire Line
	8250 4050 8350 4050
Wire Wire Line
	3450 1350 3600 1350
Wire Wire Line
	2400 2050 2400 2100
Text Label 8850 4150 2    50   ~ 0
TDO
Text Label 8850 4050 2    50   ~ 0
TDI
Text Label 8850 3950 2    50   ~ 0
TCK
Text Label 8850 3850 2    50   ~ 0
TMS
Wire Bus Line
	8500 1600 8500 3750
Wire Bus Line
	6000 1600 6000 5900
Wire Bus Line
	3950 1600 3950 7300
$EndSCHEMATC
