#VRML V2.0 utf8
#Exported from Wings 3D 1.5.4
DEF cube16_copy24 Transform {
  children [
    Shape {
      appearance Appearance {
        material DEF body Material {
          diffuseColor 0.1 0.1 0.1
          emissiveColor 0.0 0.0 0.0
          specularColor 0.1 0.1 0.1
          ambientIntensity 0.10000000000000002
          transparency 0.0
          shininess 0.5
        }
      }
      geometry IndexedFaceSet {
        normalPerVertex TRUE
        coord Coordinate { point [
          0.3 -0.5103000000000001 1.155,
          0.3 0.5103000000000001 1.155,
          0.7 0.5103000000000001 1.155,
          0.7 -0.5103000000000001 1.155,
          0.3 -0.5103000000000001 0.16500000000000004,
          0.3 0.5103000000000001 0.16500000000000004,
          0.7 0.5103000000000001 0.16500000000000004,
          0.7 -0.5103000000000001 0.16500000000000004,
          0.25 -0.2646 1.01,
          0.25 0.2646 1.01,
          0.3 0.2646 1.15,
          0.3 -0.2646 1.15,
          0.25 -0.2646 0.31000000000000005,
          0.25 0.2646 0.31000000000000005,
          0.3 0.2646 0.17000000000000004,
          0.3 -0.2646 0.17000000000000004,
          0.75 -0.2646 1.01,
          0.75 0.2646 1.01,
          0.7 0.2646 1.15,
          0.7 -0.2646 1.15,
          0.75 -0.2646 0.31000000000000005,
          0.75 0.2646 0.31000000000000005,
          0.7 0.2646 0.17000000000000004,
          0.7 -0.2646 0.17000000000000004,
          0.3 0.5103000000000001 0.9068,
          0.3 0.45738 0.9068,
          0.3 0.45738 0.4132000000000002,
          0.3 0.5103000000000001 0.4132000000000001,
          0.7 0.5103000000000001 0.9068,
          0.7 0.45738 0.9068,
          0.7 0.45738 0.4132000000000002,
          0.7 0.5103000000000001 0.4132000000000001,
          0.3 -0.5103000000000001 0.9068,
          0.3 -0.45738 0.9068,
          0.3 -0.45738 0.4132000000000002,
          0.3 -0.5103000000000001 0.4132000000000001,
          0.7 -0.5103000000000001 0.9068,
          0.7 -0.45738 0.9068,
          0.7 -0.45738 0.4132000000000002,
          0.7 -0.5103000000000001 0.4132000000000001,
          0.3 2.4626765273503468e-18 1.155,
          0.7 2.4626765273503468e-18 1.155,
          0.3 2.4626765273503468e-18 0.16500000000000004,
          0.7 2.4626765273503468e-18 0.16500000000000004 ] }
        coordIndex [
          0, 3, 41, 2, 1, 40, -1,
          0, 32, 36, 3, -1,
          0, 40, 32, -1,
          1, 2, 28, 24, -1,
          1, 24, 40, -1,
          2, 41, 28, -1,
          3, 36, 41, -1,
          4, 7, 39, 35, -1,
          4, 35, 42, -1,
          4, 42, 5, 6, 43, 7, -1,
          5, 27, 31, 6, -1,
          5, 42, 27, -1,
          6, 31, 43, -1,
          7, 43, 39, -1,
          8, 9, 13, 12, -1,
          8, 11, 10, 9, -1,
          8, 12, 15, 11, -1,
          9, 10, 14, 13, -1,
          10, 11, 15, 14, -1,
          12, 13, 14, 15, -1,
          16, 17, 18, 19, -1,
          16, 19, 23, 20, -1,
          16, 20, 21, 17, -1,
          17, 21, 22, 18, -1,
          18, 22, 23, 19, -1,
          20, 23, 22, 21, -1,
          24, 25, 40, -1,
          24, 28, 29, 25, -1,
          25, 26, 42, 34, 33, 40, -1,
          25, 29, 30, 26, -1,
          26, 27, 42, -1,
          26, 30, 31, 27, -1,
          28, 41, 29, -1,
          29, 41, 37, 38, 43, 30, -1,
          30, 43, 31, -1,
          32, 33, 37, 36, -1,
          32, 40, 33, -1,
          33, 34, 38, 37, -1,
          34, 35, 39, 38, -1,
          34, 42, 35, -1,
          36, 37, 41, -1,
          38, 39, 43, -1 ]
        normal Normal { vector [
          0.0 0.0 1.0,
          0.0 -1.0 0.0,
          -1.0 0.0 0.0,
          0.0 0.0 1.0,
          0.0 1.0 0.0,
          -1.0 0.0 0.0,
          0.0 0.0 1.0,
          0.0 1.0 0.0,
          1.0 0.0 0.0,
          0.0 0.0 1.0,
          0.0 -1.0 0.0,
          1.0 0.0 0.0,
          0.0 0.0 -1.0,
          0.0 -1.0 0.0,
          -1.0 0.0 0.0,
          0.0 0.0 -1.0,
          0.0 1.0 0.0,
          -1.0 0.0 0.0,
          0.0 0.0 -1.0,
          0.0 1.0 0.0,
          1.0 0.0 0.0,
          0.0 0.0 -1.0,
          0.0 -1.0 0.0,
          1.0 0.0 0.0,
          -0.9417419115948373 0.0 0.3363363969981564,
          0.0 -1.0 0.0,
          -1.0 0.0 0.0,
          -0.9417419115948373 0.0 0.3363363969981564,
          0.0 1.0 0.0,
          -1.0 0.0 0.0,
          -0.9417419115948373 0.0 0.3363363969981564,
          1.0 0.0 0.0,
          0.0 1.0 0.0,
          -0.9417419115948373 0.0 0.3363363969981564,
          1.0 0.0 0.0,
          0.0 -1.0 0.0,
          0.0 -1.0 0.0,
          -0.9417419115948376 0.0 -0.3363363969981562,
          -1.0 0.0 0.0,
          0.0 1.0 0.0,
          -0.9417419115948376 0.0 -0.3363363969981562,
          -1.0 0.0 0.0,
          1.0 0.0 0.0,
          0.0 1.0 0.0,
          -0.9417419115948376 0.0 -0.3363363969981562,
          1.0 0.0 0.0,
          0.0 -1.0 0.0,
          -0.9417419115948376 0.0 -0.3363363969981562,
          0.9417419115948372 0.0 0.3363363969981567,
          0.0 -1.0 0.0,
          1.0 0.0 0.0,
          0.9417419115948372 0.0 0.3363363969981567,
          0.0 1.0 0.0,
          1.0 0.0 0.0,
          0.9417419115948372 0.0 0.3363363969981567,
          -1.0 0.0 0.0,
          0.0 1.0 0.0,
          0.9417419115948372 0.0 0.3363363969981567,
          -1.0 0.0 0.0,
          0.0 -1.0 0.0,
          0.0 -1.0 0.0,
          0.9417419115948374 0.0 -0.33633639699815654,
          1.0 0.0 0.0,
          0.0 1.0 0.0,
          0.9417419115948374 0.0 -0.33633639699815654,
          1.0 0.0 0.0,
          -1.0 0.0 0.0,
          0.0 1.0 0.0,
          0.9417419115948374 0.0 -0.33633639699815654,
          -1.0 0.0 0.0,
          0.0 -1.0 0.0,
          0.9417419115948374 0.0 -0.33633639699815654,
          0.0 1.0 0.0,
          0.0 0.0 -1.0,
          -1.0 0.0 0.0,
          -1.0 0.0 0.0,
          -1.0 -4.090310185777449e-17 0.0,
          0.0 0.0 -1.0,
          0.0 1.0 0.0,
          -1.0 0.0 0.0,
          -1.0 -4.090310185777449e-17 0.0,
          0.0 1.0 0.0,
          0.0 1.0489635531227843e-15 1.0,
          -1.0 4.226283453355293e-16 0.0,
          0.0 1.0489635531227843e-15 1.0,
          0.0 1.0 0.0,
          -1.0 0.0 0.0,
          -1.0 4.226283453355293e-16 0.0,
          0.0 1.0 0.0,
          0.0 0.0 -1.0,
          1.0 0.0 0.0,
          1.0 0.0 0.0,
          1.0 -8.180620371554896e-17 0.0,
          0.0 0.0 -1.0,
          0.0 1.0 0.0,
          1.0 0.0 0.0,
          1.0 -8.180620371554896e-17 0.0,
          0.0 1.0 0.0,
          0.0 1.0489635531227843e-15 1.0,
          1.0 -1.6905133813421172e-15 0.0,
          0.0 1.0489635531227843e-15 1.0,
          0.0 1.0 0.0,
          1.0 0.0 0.0,
          1.0 -1.6905133813421172e-15 0.0,
          0.0 -1.0 0.0,
          0.0 0.0 -1.0,
          -1.0 0.0 0.0,
          -1.0 0.0 0.0,
          -1.0 -4.090310185777449e-17 0.0,
          0.0 0.0 -1.0,
          0.0 -1.0 0.0,
          -1.0 0.0 0.0,
          -1.0 -4.090310185777449e-17 0.0,
          0.0 -1.0 0.0,
          0.0 -1.0489635531227843e-15 1.0,
          -1.0 -4.226283453355293e-16 0.0,
          0.0 -1.0489635531227843e-15 1.0,
          0.0 -1.0 0.0,
          -1.0 0.0 0.0,
          -1.0 -4.226283453355293e-16 0.0,
          0.0 -1.0 0.0,
          0.0 0.0 -1.0,
          1.0 0.0 0.0,
          1.0 0.0 0.0,
          1.0 -8.180620371554896e-17 0.0,
          0.0 0.0 -1.0,
          0.0 -1.0 0.0,
          1.0 0.0 0.0,
          1.0 -8.180620371554896e-17 0.0,
          0.0 -1.0 0.0,
          0.0 -1.0489635531227843e-15 1.0,
          1.0 1.6905133813421172e-15 0.0,
          0.0 -1.0489635531227843e-15 1.0,
          0.0 -1.0 0.0,
          1.0 0.0 0.0,
          1.0 1.6905133813421172e-15 0.0,
          0.0 0.0 1.0,
          -1.0 -4.090310185777449e-17 0.0,
          -1.0 0.0 0.0,
          -1.0 0.0 0.0,
          -1.0 0.0 0.0,
          -1.0 0.0 0.0,
          0.0 0.0 1.0,
          1.0 -8.180620371554896e-17 0.0,
          1.0 0.0 0.0,
          1.0 0.0 0.0,
          1.0 0.0 0.0,
          1.0 0.0 0.0,
          0.0 0.0 -1.0,
          -1.0 -4.090310185777449e-17 0.0,
          -1.0 0.0 0.0,
          -1.0 -4.226283453355293e-16 0.0,
          -1.0 0.0 0.0,
          -1.0 4.226283453355293e-16 0.0,
          1.0 -8.180620371554896e-17 0.0,
          0.0 0.0 -1.0,
          1.0 0.0 0.0,
          1.0 -1.6905133813421172e-15 0.0,
          1.0 0.0 0.0,
          1.0 1.6905133813421172e-15 0.0 ] }
        normalIndex [
          0, 9, 142, 6, 3, 136, -1,
          1, 104, 120, 10, -1,
          2, 140, 106, -1,
          4, 7, 88, 72, -1,
          5, 74, 138, -1,
          8, 146, 90, -1,
          11, 122, 144, -1,
          13, 22, 133, 117, -1,
          14, 118, 150, -1,
          12, 148, 15, 18, 155, 21, -1,
          16, 85, 101, 19, -1,
          17, 152, 86, -1,
          20, 102, 156, -1,
          23, 158, 134, -1,
          26, 29, 41, 38, -1,
          24, 33, 30, 27, -1,
          25, 36, 46, 35, -1,
          28, 32, 43, 39, -1,
          31, 34, 45, 42, -1,
          37, 40, 44, 47, -1,
          48, 51, 54, 57, -1,
          49, 59, 70, 60, -1,
          50, 62, 65, 53, -1,
          52, 63, 67, 56, -1,
          55, 66, 69, 58, -1,
          61, 71, 68, 64, -1,
          75, 79, 139, -1,
          73, 89, 93, 77, -1,
          76, 80, 149, 112, 108, 137, -1,
          78, 94, 97, 81, -1,
          83, 87, 153, -1,
          82, 98, 100, 84, -1,
          91, 147, 95, -1,
          92, 143, 124, 128, 154, 96, -1,
          99, 157, 103, -1,
          105, 109, 125, 121, -1,
          107, 141, 111, -1,
          110, 113, 129, 126, -1,
          114, 116, 132, 130, -1,
          115, 151, 119, -1,
          123, 127, 145, -1,
          131, 135, 159, -1 ]
      }
    }
  ]
}

DEF cube16_copy21 Transform {
  children [
    Shape {
      appearance Appearance {
        material USE body
      }
      geometry IndexedFaceSet {
        normalPerVertex TRUE
        coord Coordinate { point [
          0.8 -0.5103000000000001 1.155,
          0.8 0.5103000000000001 1.155,
          1.25 0.5103000000000001 1.155,
          1.25 -0.5103000000000001 1.155,
          0.8 -0.5103000000000001 0.16500000000000004,
          0.8 0.5103000000000001 0.16500000000000004,
          1.25 0.5103000000000001 0.16500000000000004,
          1.25 -0.5103000000000001 0.16500000000000004,
          0.75 -0.2646 1.01,
          0.75 0.2646 1.01,
          0.8 0.2646 1.15,
          0.8 -0.2646 1.15,
          0.75 -0.2646 0.31000000000000005,
          0.75 0.2646 0.31000000000000005,
          0.8 0.2646 0.17000000000000004,
          0.8 -0.2646 0.17000000000000004,
          1.25 0.11718000000000002 1.155,
          1.2 0.10206000000000001 1.155,
          1.2 -0.10206000000000001 1.155,
          1.25 -0.11718000000000002 1.155,
          1.25 0.11718000000000002 0.16500000000000004,
          1.2 0.10206000000000001 0.16500000000000004,
          1.2 -0.10206000000000001 0.16500000000000004,
          1.25 -0.11718000000000002 0.16500000000000004,
          0.8 0.5103000000000001 0.9068,
          0.8 0.45738 0.9068,
          0.8 0.45738 0.4132000000000002,
          0.8 0.5103000000000001 0.4132000000000001,
          1.25 0.5103000000000001 0.9068,
          1.25 0.45738 0.9068,
          1.25 0.45738 0.4132000000000002,
          1.25 0.5103000000000001 0.4132000000000001,
          0.8 -0.5103000000000001 0.9068,
          0.8 -0.45738 0.9068,
          0.8 -0.45738 0.4132000000000002,
          0.8 -0.5103000000000001 0.4132000000000001,
          1.25 -0.5103000000000001 0.9068,
          1.25 -0.45738 0.9068,
          1.25 -0.45738 0.4132000000000002,
          1.25 -0.5103000000000001 0.4132000000000001,
          0.8 2.5799468381765543e-18 1.155,
          0.8 2.5799468381765543e-18 0.16500000000000004 ] }
        coordIndex [
          0, 3, 19, -1,
          0, 18, 17, 1, 40, -1,
          0, 19, 18, -1,
          0, 32, 36, 3, -1,
          0, 40, 32, -1,
          1, 2, 28, 24, -1,
          1, 16, 2, -1,
          1, 17, 16, -1,
          1, 24, 40, -1,
          2, 16, 28, -1,
          3, 36, 19, -1,
          4, 7, 39, 35, -1,
          4, 22, 23, -1,
          4, 23, 7, -1,
          4, 35, 41, -1,
          4, 41, 5, 21, 22, -1,
          5, 6, 20, -1,
          5, 20, 21, -1,
          5, 27, 31, 6, -1,
          5, 41, 27, -1,
          6, 31, 20, -1,
          7, 23, 39, -1,
          8, 9, 13, 12, -1,
          8, 11, 10, 9, -1,
          8, 12, 15, 11, -1,
          9, 10, 14, 13, -1,
          10, 11, 15, 14, -1,
          12, 13, 14, 15, -1,
          16, 17, 21, 20, -1,
          16, 20, 30, 29, -1,
          16, 29, 28, -1,
          17, 18, 22, 21, -1,
          18, 19, 23, 22, -1,
          19, 36, 37, -1,
          19, 37, 38, 23, -1,
          20, 31, 30, -1,
          23, 38, 39, -1,
          24, 25, 40, -1,
          24, 28, 29, 25, -1,
          25, 26, 41, 34, 33, 40, -1,
          25, 29, 30, 26, -1,
          26, 27, 41, -1,
          26, 30, 31, 27, -1,
          32, 33, 37, 36, -1,
          32, 40, 33, -1,
          33, 34, 38, 37, -1,
          34, 35, 39, 38, -1,
          34, 41, 35, -1 ]
        normal Normal { vector [
          0.0 0.0 1.0,
          0.0 -1.0 0.0,
          -1.0 0.0 0.0,
          0.0 0.0 1.0,
          -3.1468906593683512e-15 0.0 1.0,
          0.0 0.0 1.0,
          0.0 1.0 0.0,
          0.0 0.0 1.0,
          -3.1468906593683512e-15 0.0 1.0,
          -1.0 0.0 0.0,
          1.0 0.0 0.0,
          0.0 1.0 0.0,
          0.0 0.0 1.0,
          0.0 -1.0 0.0,
          1.0 0.0 0.0,
          0.0 0.0 1.0,
          -1.1331396407190587e-16 0.0 -1.0,
          0.0 0.0 -1.0,
          7.867226648420878e-16 0.0 -1.0,
          0.0 -1.0 0.0,
          -1.0 0.0 0.0,
          -1.1331396407190587e-16 0.0 -1.0,
          0.0 0.0 -1.0,
          7.867226648420878e-16 0.0 -1.0,
          0.0 1.0 0.0,
          -1.0 0.0 0.0,
          0.0 0.0 -1.0,
          0.0 1.0 0.0,
          1.0 0.0 0.0,
          0.0 0.0 -1.0,
          0.0 -1.0 0.0,
          1.0 0.0 0.0,
          -0.9417419115948372 0.0 0.3363363969981567,
          0.0 -1.0 0.0,
          -1.0 0.0 0.0,
          -0.9417419115948372 0.0 0.3363363969981567,
          0.0 1.0 0.0,
          -1.0 0.0 0.0,
          -0.9417419115948372 0.0 0.3363363969981567,
          1.0 0.0 0.0,
          0.0 1.0 0.0,
          -0.9417419115948372 0.0 0.3363363969981567,
          1.0 0.0 0.0,
          0.0 -1.0 0.0,
          0.0 -1.0 0.0,
          -0.9417419115948374 0.0 -0.33633639699815654,
          -1.0 0.0 0.0,
          0.0 1.0 0.0,
          -0.9417419115948374 0.0 -0.33633639699815654,
          -1.0 0.0 0.0,
          1.0 0.0 0.0,
          0.0 1.0 0.0,
          -0.9417419115948374 0.0 -0.33633639699815654,
          1.0 0.0 0.0,
          0.0 -1.0 0.0,
          -0.9417419115948374 0.0 -0.33633639699815654,
          1.0 0.0 0.0,
          0.28945476798565634 -0.9571916930742607 0.0,
          0.0 0.0 1.0,
          -3.1468906593683512e-15 0.0 1.0,
          1.0 0.0 0.0,
          1.0 0.0 0.0,
          0.0 0.0 1.0,
          0.28945476798565634 -0.9571916930742607 0.0,
          1.0 0.0 0.0,
          -3.1468906593683512e-15 0.0 1.0,
          0.0 0.0 1.0,
          1.0 0.0 0.0,
          0.28945476798565634 0.9571916930742607 0.0,
          -3.1468906593683512e-15 0.0 1.0,
          0.28945476798565634 0.9571916930742607 0.0,
          1.0 0.0 0.0,
          0.0 0.0 1.0,
          -3.1468906593683512e-15 0.0 1.0,
          1.0 0.0 0.0,
          1.0 0.0 0.0,
          0.28945476798565634 -0.9571916930742607 0.0,
          0.0 0.0 -1.0,
          7.867226648420878e-16 0.0 -1.0,
          1.0 0.0 0.0,
          1.0 0.0 0.0,
          1.0 -2.113141726677638e-15 0.0,
          -1.1331396407190587e-16 0.0 -1.0,
          0.28945476798565634 -0.9571916930742607 0.0,
          1.0 0.0 0.0,
          7.867226648420878e-16 0.0 -1.0,
          -1.1331396407190587e-16 0.0 -1.0,
          1.0 0.0 0.0,
          0.28945476798565634 0.9571916930742607 0.0,
          7.867226648420878e-16 0.0 -1.0,
          0.28945476798565634 0.9571916930742607 0.0,
          0.0 0.0 -1.0,
          7.867226648420878e-16 0.0 -1.0,
          1.0 0.0 0.0,
          1.0 0.0 0.0,
          1.0 2.113141726677638e-15 0.0,
          0.0 1.0 0.0,
          0.0 0.0 -1.0,
          -1.0 0.0 0.0,
          -1.0 0.0 0.0,
          0.0 0.0 -1.0,
          0.0 1.0 0.0,
          -1.0 0.0 0.0,
          -1.0 0.0 0.0,
          0.0 1.0 0.0,
          0.0 1.0489635531227843e-15 1.0,
          -1.0 0.0 0.0,
          -1.0 -1.6905133813421172e-15 0.0,
          0.0 1.0489635531227843e-15 1.0,
          0.0 1.0 0.0,
          -1.0 0.0 0.0,
          -1.0 -1.6905133813421172e-15 0.0,
          1.0 0.0 0.0,
          0.0 1.0 0.0,
          0.0 0.0 -1.0,
          1.0 0.0 0.0,
          0.0 0.0 -1.0,
          0.0 1.0 0.0,
          1.0 0.0 0.0,
          1.0 0.0 0.0,
          0.0 1.0 0.0,
          0.0 1.0489635531227843e-15 1.0,
          1.0 0.0 0.0,
          1.0 -2.113141726677638e-15 0.0,
          0.0 1.0489635531227843e-15 1.0,
          0.0 1.0 0.0,
          1.0 0.0 0.0,
          1.0 -2.113141726677638e-15 0.0,
          0.0 -1.0 0.0,
          -1.0 0.0 0.0,
          0.0 0.0 -1.0,
          -1.0 0.0 0.0,
          0.0 0.0 -1.0,
          0.0 -1.0 0.0,
          -1.0 0.0 0.0,
          -1.0 0.0 0.0,
          0.0 -1.0 0.0,
          0.0 -1.0489635531227843e-15 1.0,
          -1.0 0.0 0.0,
          -1.0 1.6905133813421172e-15 0.0,
          0.0 -1.0489635531227843e-15 1.0,
          0.0 -1.0 0.0,
          -1.0 0.0 0.0,
          -1.0 1.6905133813421172e-15 0.0,
          0.0 -1.0 0.0,
          1.0 0.0 0.0,
          0.0 0.0 -1.0,
          1.0 0.0 0.0,
          0.0 0.0 -1.0,
          0.0 -1.0 0.0,
          1.0 0.0 0.0,
          1.0 0.0 0.0,
          0.0 -1.0 0.0,
          0.0 -1.0489635531227843e-15 1.0,
          1.0 0.0 0.0,
          1.0 2.113141726677638e-15 0.0,
          0.0 -1.0489635531227843e-15 1.0,
          0.0 -1.0 0.0,
          1.0 0.0 0.0,
          1.0 2.113141726677638e-15 0.0,
          0.0 0.0 1.0,
          -1.0 0.0 0.0,
          -1.0 0.0 0.0,
          -1.0 0.0 0.0,
          -1.0 0.0 0.0,
          -1.0 0.0 0.0,
          -1.1331396407190587e-16 0.0 -1.0,
          -1.0 0.0 0.0,
          -1.0 0.0 0.0,
          -1.0 1.6905133813421172e-15 0.0,
          -1.0 0.0 0.0,
          -1.0 -1.6905133813421172e-15 0.0 ] }
        normalIndex [
          3, 15, 72, -1,
          0, 66, 62, 5, 160, -1,
          4, 73, 69, -1,
          1, 128, 144, 13, -1,
          2, 161, 129, -1,
          6, 11, 113, 96, -1,
          7, 58, 12, -1,
          8, 65, 59, -1,
          9, 98, 164, -1,
          10, 56, 112, -1,
          14, 145, 71, -1,
          19, 30, 157, 141, -1,
          18, 89, 92, -1,
          17, 91, 29, -1,
          20, 142, 168, -1,
          16, 166, 21, 82, 86, -1,
          22, 26, 77, -1,
          23, 78, 85, -1,
          24, 109, 125, 27, -1,
          25, 170, 110, -1,
          28, 126, 80, -1,
          31, 94, 158, -1,
          34, 37, 49, 46, -1,
          32, 41, 38, 35, -1,
          33, 44, 54, 43, -1,
          36, 40, 51, 47, -1,
          39, 42, 53, 50, -1,
          45, 48, 52, 55, -1,
          57, 63, 83, 76, -1,
          60, 79, 122, 118, -1,
          61, 119, 115, -1,
          64, 67, 87, 84, -1,
          68, 70, 90, 88, -1,
          75, 147, 151, -1,
          74, 150, 154, 93, -1,
          81, 127, 123, -1,
          95, 155, 159, -1,
          99, 103, 165, -1,
          97, 114, 116, 100, -1,
          102, 106, 167, 138, 134, 162, -1,
          101, 117, 120, 104, -1,
          107, 111, 171, -1,
          105, 121, 124, 108, -1,
          130, 132, 148, 146, -1,
          131, 163, 135, -1,
          133, 136, 152, 149, -1,
          137, 140, 156, 153, -1,
          139, 169, 143, -1 ]
      }
    }
  ]
}

DEF cube16 Transform {
  children [
    Shape {
      appearance Appearance {
        material USE body
      }
      geometry IndexedFaceSet {
        normalPerVertex TRUE
        coord Coordinate { point [
          -0.2 -0.5103000000000001 1.155,
          -0.2 0.5103000000000001 1.155,
          0.19999999999999996 0.5103000000000001 1.155,
          0.19999999999999996 -0.5103000000000001 1.155,
          -0.2 -0.5103000000000001 0.16500000000000004,
          -0.2 0.5103000000000001 0.16500000000000004,
          0.19999999999999996 0.5103000000000001 0.16500000000000004,
          0.19999999999999996 -0.5103000000000001 0.16500000000000004,
          -0.25 -0.2646 1.01,
          -0.25 0.2646 1.01,
          -0.2 0.2646 1.15,
          -0.2 -0.2646 1.15,
          -0.25 -0.2646 0.31000000000000005,
          -0.25 0.2646 0.31000000000000005,
          -0.2 0.2646 0.17000000000000004,
          -0.2 -0.2646 0.17000000000000004,
          0.25 -0.2646 1.01,
          0.25 0.2646 1.01,
          0.2 0.2646 1.15,
          0.2 -0.2646 1.15,
          0.25 -0.2646 0.31000000000000005,
          0.25 0.2646 0.31000000000000005,
          0.2 0.2646 0.17000000000000004,
          0.2 -0.2646 0.17000000000000004,
          -0.2 0.5103000000000001 0.9068,
          -0.2 0.45738 0.9068,
          -0.2 0.45738 0.4132000000000002,
          -0.2 0.5103000000000001 0.4132000000000001,
          0.19999999999999996 0.5103000000000001 0.9068,
          0.19999999999999996 0.45738 0.9068,
          0.19999999999999996 0.45738 0.4132000000000002,
          0.19999999999999996 0.5103000000000001 0.4132000000000001,
          -0.2 -0.5103000000000001 0.9068,
          -0.2 -0.45738 0.9068,
          -0.2 -0.45738 0.4132000000000002,
          -0.2 -0.5103000000000001 0.4132000000000001,
          0.19999999999999996 -0.5103000000000001 0.9068,
          0.19999999999999996 -0.45738 0.9068,
          0.19999999999999996 -0.45738 0.4132000000000002,
          0.19999999999999996 -0.5103000000000001 0.4132000000000001,
          -0.2 2.4626765273503468e-18 1.155,
          0.19999999999999996 2.4626765273503468e-18 1.155,
          -0.2 2.4626765273503468e-18 0.16500000000000004,
          0.19999999999999996 2.4626765273503468e-18 0.16500000000000004 ] }
        coordIndex [
          0, 3, 41, 2, 1, 40, -1,
          0, 32, 36, 3, -1,
          0, 40, 32, -1,
          1, 2, 28, 24, -1,
          1, 24, 40, -1,
          2, 41, 28, -1,
          3, 36, 41, -1,
          4, 7, 39, 35, -1,
          4, 35, 42, -1,
          4, 42, 5, 6, 43, 7, -1,
          5, 27, 31, 6, -1,
          5, 42, 27, -1,
          6, 31, 43, -1,
          7, 43, 39, -1,
          8, 9, 13, 12, -1,
          8, 11, 10, 9, -1,
          8, 12, 15, 11, -1,
          9, 10, 14, 13, -1,
          10, 11, 15, 14, -1,
          12, 13, 14, 15, -1,
          16, 17, 18, 19, -1,
          16, 19, 23, 20, -1,
          16, 20, 21, 17, -1,
          17, 21, 22, 18, -1,
          18, 22, 23, 19, -1,
          20, 23, 22, 21, -1,
          24, 25, 40, -1,
          24, 28, 29, 25, -1,
          25, 26, 42, 34, 33, 40, -1,
          25, 29, 30, 26, -1,
          26, 27, 42, -1,
          26, 30, 31, 27, -1,
          28, 41, 29, -1,
          29, 41, 37, 38, 43, 30, -1,
          30, 43, 31, -1,
          32, 33, 37, 36, -1,
          32, 40, 33, -1,
          33, 34, 38, 37, -1,
          34, 35, 39, 38, -1,
          34, 42, 35, -1,
          36, 37, 41, -1,
          38, 39, 43, -1 ]
        normal Normal { vector [
          0.0 0.0 1.0,
          0.0 -1.0 0.0,
          -1.0 0.0 0.0,
          0.0 0.0 1.0,
          0.0 1.0 0.0,
          -1.0 0.0 0.0,
          0.0 0.0 1.0,
          0.0 1.0 0.0,
          1.0 0.0 0.0,
          0.0 0.0 1.0,
          0.0 -1.0 0.0,
          1.0 0.0 0.0,
          0.0 0.0 -1.0,
          0.0 -1.0 0.0,
          -1.0 0.0 0.0,
          0.0 0.0 -1.0,
          0.0 1.0 0.0,
          -1.0 0.0 0.0,
          0.0 0.0 -1.0,
          0.0 1.0 0.0,
          1.0 0.0 0.0,
          0.0 0.0 -1.0,
          0.0 -1.0 0.0,
          1.0 0.0 0.0,
          -0.9417419115948373 0.0 0.3363363969981564,
          0.0 -1.0 0.0,
          -1.0 0.0 0.0,
          -0.9417419115948373 0.0 0.3363363969981564,
          0.0 1.0 0.0,
          -1.0 0.0 0.0,
          -0.9417419115948373 0.0 0.3363363969981564,
          1.0 0.0 0.0,
          0.0 1.0 0.0,
          -0.9417419115948373 0.0 0.3363363969981564,
          1.0 0.0 0.0,
          0.0 -1.0 0.0,
          0.0 -1.0 0.0,
          -0.9417419115948376 0.0 -0.3363363969981562,
          -1.0 0.0 0.0,
          0.0 1.0 0.0,
          -0.9417419115948376 0.0 -0.3363363969981562,
          -1.0 0.0 0.0,
          1.0 0.0 0.0,
          0.0 1.0 0.0,
          -0.9417419115948376 0.0 -0.3363363969981562,
          1.0 0.0 0.0,
          0.0 -1.0 0.0,
          -0.9417419115948376 0.0 -0.3363363969981562,
          0.9417419115948373 0.0 0.3363363969981564,
          0.0 -1.0 0.0,
          1.0 0.0 0.0,
          0.9417419115948373 0.0 0.3363363969981564,
          0.0 1.0 0.0,
          1.0 0.0 0.0,
          0.9417419115948373 0.0 0.3363363969981564,
          -1.0 0.0 0.0,
          0.0 1.0 0.0,
          0.9417419115948373 0.0 0.3363363969981564,
          -1.0 0.0 0.0,
          0.0 -1.0 0.0,
          0.0 -1.0 0.0,
          0.9417419115948376 0.0 -0.3363363969981562,
          1.0 0.0 0.0,
          0.0 1.0 0.0,
          0.9417419115948376 0.0 -0.3363363969981562,
          1.0 0.0 0.0,
          -1.0 0.0 0.0,
          0.0 1.0 0.0,
          0.9417419115948376 0.0 -0.3363363969981562,
          -1.0 0.0 0.0,
          0.0 -1.0 0.0,
          0.9417419115948376 0.0 -0.3363363969981562,
          0.0 1.0 0.0,
          0.0 0.0 -1.0,
          -1.0 0.0 0.0,
          -1.0 0.0 0.0,
          -1.0 0.0 0.0,
          0.0 0.0 -1.0,
          0.0 1.0 0.0,
          -1.0 0.0 0.0,
          -1.0 0.0 0.0,
          0.0 1.0 0.0,
          0.0 1.0489635531227843e-15 1.0,
          -1.0 4.226283453355293e-16 0.0,
          0.0 1.0489635531227843e-15 1.0,
          0.0 1.0 0.0,
          -1.0 0.0 0.0,
          -1.0 4.226283453355293e-16 0.0,
          0.0 1.0 0.0,
          0.0 0.0 -1.0,
          1.0 0.0 0.0,
          1.0 0.0 0.0,
          1.0 0.0 0.0,
          0.0 0.0 -1.0,
          0.0 1.0 0.0,
          1.0 0.0 0.0,
          1.0 0.0 0.0,
          0.0 1.0 0.0,
          0.0 1.0489635531227843e-15 1.0,
          1.0 4.2262834533552974e-16 0.0,
          0.0 1.0489635531227843e-15 1.0,
          0.0 1.0 0.0,
          1.0 0.0 0.0,
          1.0 4.2262834533552974e-16 0.0,
          0.0 -1.0 0.0,
          0.0 0.0 -1.0,
          -1.0 0.0 0.0,
          -1.0 0.0 0.0,
          -1.0 0.0 0.0,
          0.0 0.0 -1.0,
          0.0 -1.0 0.0,
          -1.0 0.0 0.0,
          -1.0 0.0 0.0,
          0.0 -1.0 0.0,
          0.0 -1.0489635531227843e-15 1.0,
          -1.0 -4.226283453355293e-16 0.0,
          0.0 -1.0489635531227843e-15 1.0,
          0.0 -1.0 0.0,
          -1.0 0.0 0.0,
          -1.0 -4.226283453355293e-16 0.0,
          0.0 -1.0 0.0,
          0.0 0.0 -1.0,
          1.0 0.0 0.0,
          1.0 0.0 0.0,
          1.0 0.0 0.0,
          0.0 0.0 -1.0,
          0.0 -1.0 0.0,
          1.0 0.0 0.0,
          1.0 0.0 0.0,
          0.0 -1.0 0.0,
          0.0 -1.0489635531227843e-15 1.0,
          1.0 -4.2262834533552974e-16 0.0,
          0.0 -1.0489635531227843e-15 1.0,
          0.0 -1.0 0.0,
          1.0 0.0 0.0,
          1.0 -4.2262834533552974e-16 0.0,
          0.0 0.0 1.0,
          -1.0 0.0 0.0,
          -1.0 0.0 0.0,
          -1.0 0.0 0.0,
          -1.0 0.0 0.0,
          -1.0 0.0 0.0,
          0.0 0.0 1.0,
          1.0 0.0 0.0,
          1.0 0.0 0.0,
          1.0 0.0 0.0,
          1.0 0.0 0.0,
          1.0 0.0 0.0,
          0.0 0.0 -1.0,
          -1.0 0.0 0.0,
          -1.0 0.0 0.0,
          -1.0 -4.226283453355293e-16 0.0,
          -1.0 0.0 0.0,
          -1.0 4.226283453355293e-16 0.0,
          1.0 0.0 0.0,
          0.0 0.0 -1.0,
          1.0 0.0 0.0,
          1.0 4.2262834533552974e-16 0.0,
          1.0 0.0 0.0,
          1.0 -4.2262834533552974e-16 0.0 ] }
        normalIndex [
          0, 9, 142, 6, 3, 136, -1,
          1, 104, 120, 10, -1,
          2, 140, 106, -1,
          4, 7, 88, 72, -1,
          5, 74, 138, -1,
          8, 146, 90, -1,
          11, 122, 144, -1,
          13, 22, 133, 117, -1,
          14, 118, 150, -1,
          12, 148, 15, 18, 155, 21, -1,
          16, 85, 101, 19, -1,
          17, 152, 86, -1,
          20, 102, 156, -1,
          23, 158, 134, -1,
          26, 29, 41, 38, -1,
          24, 33, 30, 27, -1,
          25, 36, 46, 35, -1,
          28, 32, 43, 39, -1,
          31, 34, 45, 42, -1,
          37, 40, 44, 47, -1,
          48, 51, 54, 57, -1,
          49, 59, 70, 60, -1,
          50, 62, 65, 53, -1,
          52, 63, 67, 56, -1,
          55, 66, 69, 58, -1,
          61, 71, 68, 64, -1,
          75, 79, 139, -1,
          73, 89, 93, 77, -1,
          76, 80, 149, 112, 108, 137, -1,
          78, 94, 97, 81, -1,
          83, 87, 153, -1,
          82, 98, 100, 84, -1,
          91, 147, 95, -1,
          92, 143, 124, 128, 154, 96, -1,
          99, 157, 103, -1,
          105, 109, 125, 121, -1,
          107, 141, 111, -1,
          110, 113, 129, 126, -1,
          114, 116, 132, 130, -1,
          115, 151, 119, -1,
          123, 127, 145, -1,
          131, 135, 159, -1 ]
      }
    }
  ]
}

DEF cube6_copy11 Transform {
  children [
    Shape {
      appearance Appearance {
        material DEF gold Material {
          diffuseColor 1.0 1.0 0.0
          emissiveColor 0.0 0.0 0.0
          specularColor 1.0 1.0 0.0
          ambientIntensity 0.6666666666666666
          transparency 0.0
          shininess 0.5
        }
      }
      geometry IndexedFaceSet {
        normalPerVertex TRUE
        coord Coordinate { point [
          0.9199999999999999 0.3300004808571373 2.205,
          0.9199999999999999 0.1700004808571373 2.205,
          1.08 0.1700004808571373 2.205,
          1.08 0.3300004808571373 2.205,
          0.9199999999999999 0.3300004808571373 0.21393600000000002,
          0.9199999999999999 0.1700004808571373 0.21393600000000002,
          1.08 0.1700004808571373 0.21393600000000002,
          1.08 0.3300004808571373 0.21393600000000002,
          0.976 0.22600048085713728 2.355,
          0.976 0.2740004808571373 2.355,
          1.024 0.2740004808571373 2.355,
          1.024 0.22600048085713728 2.355 ] }
        coordIndex [
          0, 1, 8, 9, -1,
          0, 3, 7, 4, -1,
          0, 4, 5, 1, -1,
          0, 9, 10, 3, -1,
          1, 2, 11, 8, -1,
          1, 5, 6, 2, -1,
          2, 3, 10, 11, -1,
          2, 6, 7, 3, -1,
          8, 11, 10, 9, -1 ]
        normal Normal { vector [
          0.0 1.0 0.0,
          -1.0 0.0 0.0,
          -0.9368415147273567 0.0 0.34975416549821364,
          0.0 0.9368415147273569 0.34975416549821337,
          0.0 -1.0 0.0,
          -1.0 0.0 0.0,
          -0.9368415147273567 0.0 0.34975416549821364,
          0.0 -0.9368415147273569 0.34975416549821337,
          1.0 0.0 0.0,
          0.0 -1.0 0.0,
          0.9368415147273567 0.0 0.34975416549821364,
          0.0 -0.9368415147273569 0.34975416549821337,
          1.0 0.0 0.0,
          0.0 1.0 0.0,
          0.0 0.9368415147273569 0.34975416549821337,
          0.9368415147273567 0.0 0.34975416549821364,
          0.0 0.9898437788601074 -0.14215939452580273,
          -1.0 0.0 0.0,
          0.0 -0.9996394476979253 -0.02685097030252297,
          -1.0 0.0 0.0,
          1.0 0.0 0.0,
          0.0 -0.9996394476979253 -0.02685097030252297,
          1.0 0.0 0.0,
          0.0 0.9898437788601074 -0.14215939452580273,
          0.0 0.0 1.0,
          -0.9368415147273567 0.0 0.34975416549821364,
          0.0 -0.9368415147273569 0.34975416549821337,
          0.0 0.0 1.0,
          -0.9368415147273567 0.0 0.34975416549821364,
          0.0 0.9368415147273569 0.34975416549821337,
          0.0 0.0 1.0,
          0.0 0.9368415147273569 0.34975416549821337,
          0.9368415147273567 0.0 0.34975416549821364,
          0.0 0.0 1.0,
          0.9368415147273567 0.0 0.34975416549821364,
          0.0 -0.9368415147273569 0.34975416549821337 ] }
        normalIndex [
          2, 6, 25, 28, -1,
          0, 13, 23, 16, -1,
          1, 17, 19, 5, -1,
          3, 29, 31, 14, -1,
          7, 11, 35, 26, -1,
          4, 18, 21, 9, -1,
          10, 15, 32, 34, -1,
          8, 20, 22, 12, -1,
          24, 33, 30, 27, -1 ]
      }
    },
    Shape {
      appearance Appearance {
        material DEF tin Material {
          diffuseColor 0.85 0.85 0.85
          emissiveColor 0.0 0.0 0.0
          specularColor 0.85 0.85 0.85
          ambientIntensity 0.85
          transparency 0.0
          shininess 0.5
        }
      }
      geometry IndexedFaceSet {
        normalPerVertex TRUE
        coord Coordinate { point [
          0.9199999999999999 0.3300004808571373 0.21393600000000002,
          0.9199999999999999 0.1700004808571373 0.21393600000000002,
          1.08 0.1700004808571373 0.21393600000000002,
          1.08 0.3300004808571373 0.21393600000000002,
          0.9199999999999999 0.32727454696026276 0.20464152360820165,
          0.9199999999999999 0.17272641475401182 0.16323047639179833,
          1.08 0.17272641475401182 0.16323047639179833,
          1.08 0.32727454696026276 0.20464152360820165,
          0.9199999999999999 0.327047084512968 0.194958225211328,
          0.9199999999999999 0.18848301990745783 0.11495822521132804,
          1.08 0.18848301990745783 0.11495822521132804,
          1.08 0.327047084512968 0.194958225211328,
          0.9199999999999999 0.32933359470513673 0.18554600559271872,
          0.9199999999999999 0.21619650971528911 0.07240892060287107,
          1.08 0.21619650971528911 0.07240892060287107,
          1.08 0.32933359470513673 0.18554600559271872,
          0.9199999999999999 0.3339782556458094 0.17704629196495358,
          0.9199999999999999 0.2539782556458093 0.03848222735944339,
          1.08 0.2539782556458093 0.03848222735944339,
          1.08 0.3339782556458094 0.17704629196495358,
          0.9199999999999999 0.3406645413675442 0.17003832576532396,
          0.9199999999999999 0.2992534941511408 0.015490193559072992,
          1.08 0.2992534941511408 0.015490193559072992,
          1.08 0.3406645413675442 0.17003832576532396,
          0.9199999999999999 0.3489367925480146 0.16499968830912293,
          0.9199999999999999 0.34893679254801446 0.004999688309122781,
          1.08 0.34893679254801446 0.004999688309122781,
          1.08 0.3489367925480146 0.16499968830912293,
          0.9199999999999999 0.8499997925480145 0.1649996883091226,
          0.9199999999999999 0.8499997925480145 0.004999688309122448,
          1.08 0.8499997925480145 0.004999688309122448,
          1.08 0.8499997925480145 0.1649996883091226 ] }
        coordIndex [
          0, 3, 7, 4, -1,
          0, 4, 5, 1, -1,
          1, 5, 6, 2, -1,
          2, 6, 7, 3, -1,
          4, 7, 11, 8, -1,
          4, 8, 9, 5, -1,
          5, 9, 10, 6, -1,
          6, 10, 11, 7, -1,
          8, 11, 15, 12, -1,
          8, 12, 13, 9, -1,
          9, 13, 14, 10, -1,
          10, 14, 15, 11, -1,
          12, 15, 19, 16, -1,
          12, 16, 17, 13, -1,
          13, 17, 18, 14, -1,
          14, 18, 19, 15, -1,
          16, 19, 23, 20, -1,
          16, 20, 21, 17, -1,
          17, 21, 22, 18, -1,
          18, 22, 23, 19, -1,
          20, 23, 27, 24, -1,
          20, 24, 25, 21, -1,
          21, 25, 26, 22, -1,
          22, 26, 27, 23, -1,
          24, 27, 31, 28, -1,
          24, 28, 29, 25, -1,
          25, 29, 30, 26, -1,
          26, 30, 31, 27, -1,
          28, 31, 30, 29, -1 ]
        normal Normal { vector [
          -1.0 0.0 0.0,
          0.0 0.9898437788601074 -0.14215939452580273,
          -1.0 0.0 0.0,
          0.0 -0.9996394476979253 -0.02685097030252297,
          0.0 -0.9996394476979253 -0.02685097030252297,
          1.0 0.0 0.0,
          1.0 0.0 0.0,
          0.0 0.9898437788601074 -0.14215939452580273,
          -1.0 0.0 0.0,
          0.0 0.9881062019760052 -0.15377299378159306,
          -1.0 0.0 0.0,
          0.0 0.9881062019760052 -0.15377299378159306,
          -1.0 0.0 0.0,
          0.0 -0.9830082657097389 -0.183561296428009,
          -1.0 0.0 0.0,
          0.0 -0.9830082657097389 -0.183561296428009,
          0.0 -0.9830082657097389 -0.183561296428009,
          1.0 0.0 0.0,
          0.0 -0.9830082657097389 -0.183561296428009,
          1.0 0.0 0.0,
          1.0 0.0 0.0,
          0.0 0.9881062019760052 -0.15377299378159306,
          1.0 0.0 0.0,
          0.0 0.9881062019760052 -0.15377299378159306,
          -1.0 0.0 0.0,
          0.0 0.9942366790181334 0.10720739757588126,
          -1.0 0.0 0.0,
          0.0 0.9942366790181334 0.10720739757588126,
          -1.0 0.0 0.0,
          0.0 -0.9020039118453855 -0.43172785758579685,
          -1.0 0.0 0.0,
          0.0 -0.9020039118453855 -0.43172785758579685,
          0.0 -0.9020039118453855 -0.43172785758579685,
          1.0 0.0 0.0,
          0.0 -0.9020039118453855 -0.43172785758579685,
          1.0 0.0 0.0,
          1.0 0.0 0.0,
          0.0 0.9942366790181334 0.10720739757588126,
          1.0 0.0 0.0,
          0.0 0.9942366790181334 0.10720739757588126,
          -1.0 0.0 0.0,
          0.0 0.9326115694389726 0.3608817819571616,
          -1.0 0.0 0.0,
          0.0 0.9326115694389726 0.3608817819571616,
          -1.0 0.0 0.0,
          0.0 -0.7595294820207132 -0.6504728787131305,
          -1.0 0.0 0.0,
          0.0 -0.7595294820207132 -0.6504728787131305,
          0.0 -0.7595294820207132 -0.6504728787131305,
          1.0 0.0 0.0,
          0.0 -0.7595294820207132 -0.6504728787131305,
          1.0 0.0 0.0,
          1.0 0.0 0.0,
          0.0 0.9326115694389726 0.3608817819571616,
          1.0 0.0 0.0,
          0.0 0.9326115694389726 0.3608817819571616,
          -1.0 0.0 0.0,
          0.0 0.8074305226160378 0.5899626692833981,
          -1.0 0.0 0.0,
          0.0 0.8074305226160378 0.5899626692833981,
          -1.0 0.0 0.0,
          0.0 -0.5652943731781452 -0.8248892481134227,
          -1.0 0.0 0.0,
          0.0 -0.5652943731781452 -0.8248892481134227,
          0.0 -0.5652943731781452 -0.8248892481134227,
          1.0 0.0 0.0,
          0.0 -0.5652943731781452 -0.8248892481134227,
          1.0 0.0 0.0,
          1.0 0.0 0.0,
          0.0 0.8074305226160378 0.5899626692833981,
          1.0 0.0 0.0,
          0.0 0.8074305226160378 0.5899626692833981,
          -1.0 0.0 0.0,
          0.0 0.6272244200188475 0.7788385756573826,
          -1.0 0.0 0.0,
          0.0 0.6272244200188475 0.7788385756573826,
          -1.0 0.0 0.0,
          0.0 -0.332535386996609 -0.9430907784487215,
          -1.0 0.0 0.0,
          0.0 -0.332535386996609 -0.9430907784487215,
          0.0 -0.332535386996609 -0.9430907784487215,
          1.0 0.0 0.0,
          0.0 -0.332535386996609 -0.9430907784487215,
          1.0 0.0 0.0,
          1.0 0.0 0.0,
          0.0 0.6272244200188475 0.7788385756573826,
          1.0 0.0 0.0,
          0.0 0.6272244200188475 0.7788385756573826,
          -1.0 0.0 0.0,
          0.0 0.27014374054593515 0.962820003657927,
          -1.0 0.0 0.0,
          0.0 0.27014374054593515 0.962820003657927,
          -1.0 0.0 0.0,
          0.0 -0.10385787417162923 -0.9945921485576639,
          -1.0 0.0 0.0,
          0.0 -0.10385787417162923 -0.9945921485576639,
          0.0 -0.10385787417162923 -0.9945921485576639,
          1.0 0.0 0.0,
          0.0 -0.10385787417162923 -0.9945921485576639,
          1.0 0.0 0.0,
          1.0 0.0 0.0,
          0.0 0.27014374054593515 0.962820003657927,
          1.0 0.0 0.0,
          0.0 0.27014374054593515 0.962820003657927,
          0.0 1.0 0.0,
          -1.0 0.0 0.0,
          0.0 6.647206187396535e-16 1.0,
          0.0 1.0 0.0,
          -1.0 0.0 0.0,
          0.0 -6.647206187396534e-16 -1.0,
          0.0 1.0 0.0,
          0.0 -6.647206187396534e-16 -1.0,
          1.0 0.0 0.0,
          0.0 1.0 0.0,
          1.0 0.0 0.0,
          0.0 6.647206187396535e-16 1.0 ] }
        normalIndex [
          1, 7, 21, 9, -1,
          0, 8, 12, 2, -1,
          3, 13, 16, 4, -1,
          5, 17, 20, 6, -1,
          11, 23, 37, 25, -1,
          10, 24, 28, 14, -1,
          15, 29, 32, 18, -1,
          19, 33, 36, 22, -1,
          27, 39, 53, 41, -1,
          26, 40, 44, 30, -1,
          31, 45, 48, 34, -1,
          35, 49, 52, 38, -1,
          43, 55, 69, 57, -1,
          42, 56, 60, 46, -1,
          47, 61, 64, 50, -1,
          51, 65, 68, 54, -1,
          59, 71, 85, 73, -1,
          58, 72, 76, 62, -1,
          63, 77, 80, 66, -1,
          67, 81, 84, 70, -1,
          75, 87, 101, 89, -1,
          74, 88, 92, 78, -1,
          79, 93, 96, 82, -1,
          83, 97, 100, 86, -1,
          91, 103, 115, 106, -1,
          90, 105, 108, 94, -1,
          95, 109, 111, 98, -1,
          99, 112, 114, 102, -1,
          104, 113, 110, 107, -1 ]
      }
    }
  ]
}

DEF cube6_copy10 Transform {
  children [
    Shape {
      appearance Appearance {
        material USE gold
      }
      geometry IndexedFaceSet {
        normalPerVertex TRUE
        coord Coordinate { point [
          0.9199999999999999 -0.33 2.205,
          0.9199999999999999 -0.16999999999999998 2.205,
          1.08 -0.16999999999999998 2.205,
          1.08 -0.33 2.205,
          0.9199999999999999 -0.33 0.21393600000000002,
          0.9199999999999999 -0.16999999999999998 0.21393600000000002,
          1.08 -0.16999999999999998 0.21393600000000002,
          1.08 -0.33 0.21393600000000002,
          0.976 -0.22599999999999998 2.355,
          0.976 -0.274 2.355,
          1.024 -0.274 2.355,
          1.024 -0.22599999999999998 2.355 ] }
        coordIndex [
          0, 1, 5, 4, -1,
          0, 3, 10, 9, -1,
          0, 4, 7, 3, -1,
          0, 9, 8, 1, -1,
          1, 2, 6, 5, -1,
          1, 8, 11, 2, -1,
          2, 3, 7, 6, -1,
          2, 11, 10, 3, -1,
          8, 9, 10, 11, -1 ]
        normal Normal { vector [
          0.0 -1.0 0.0,
          -1.0 0.0 0.0,
          -0.9368415147273567 0.0 0.3497541654982137,
          0.0 -0.9368415147273569 0.34975416549821337,
          0.0 1.0 0.0,
          -1.0 0.0 0.0,
          -0.9368415147273567 0.0 0.3497541654982137,
          0.0 0.9368415147273569 0.34975416549821337,
          1.0 0.0 0.0,
          0.0 1.0 0.0,
          0.9368415147273567 0.0 0.3497541654982137,
          0.0 0.9368415147273569 0.34975416549821337,
          1.0 0.0 0.0,
          0.0 -1.0 0.0,
          0.0 -0.9368415147273569 0.34975416549821337,
          0.9368415147273567 0.0 0.3497541654982137,
          0.0 -0.9898437788601074 -0.14215939452580273,
          -1.0 0.0 0.0,
          0.0 0.9996394476979253 -0.02685097030252297,
          -1.0 0.0 0.0,
          1.0 0.0 0.0,
          0.0 0.9996394476979253 -0.02685097030252297,
          1.0 0.0 0.0,
          0.0 -0.9898437788601074 -0.14215939452580273,
          0.0 0.0 1.0,
          -0.9368415147273567 0.0 0.3497541654982137,
          0.0 0.9368415147273569 0.34975416549821337,
          0.0 0.0 1.0,
          -0.9368415147273567 0.0 0.3497541654982137,
          0.0 -0.9368415147273569 0.34975416549821337,
          0.0 0.0 1.0,
          0.0 -0.9368415147273569 0.34975416549821337,
          0.9368415147273567 0.0 0.3497541654982137,
          0.0 0.0 1.0,
          0.9368415147273567 0.0 0.3497541654982137,
          0.0 0.9368415147273569 0.34975416549821337 ] }
        normalIndex [
          1, 5, 19, 17, -1,
          3, 14, 31, 29, -1,
          0, 16, 23, 13, -1,
          2, 28, 25, 6, -1,
          4, 9, 21, 18, -1,
          7, 26, 35, 11, -1,
          8, 12, 22, 20, -1,
          10, 34, 32, 15, -1,
          24, 27, 30, 33, -1 ]
      }
    },
    Shape {
      appearance Appearance {
        material USE tin
      }
      geometry IndexedFaceSet {
        normalPerVertex TRUE
        coord Coordinate { point [
          0.9199999999999999 -0.33 0.21393600000000002,
          0.9199999999999999 -0.16999999999999998 0.21393600000000002,
          1.08 -0.16999999999999998 0.21393600000000002,
          1.08 -0.33 0.21393600000000002,
          0.9199999999999999 -0.3272740661031255 0.20464152360820165,
          0.9199999999999999 -0.17272593389687452 0.16323047639179833,
          1.08 -0.17272593389687452 0.16323047639179833,
          1.08 -0.3272740661031255 0.20464152360820165,
          0.9199999999999999 -0.3270466036558307 0.194958225211328,
          0.9199999999999999 -0.1884825390503205 0.11495822521132804,
          1.08 -0.1884825390503205 0.11495822521132804,
          1.08 -0.3270466036558307 0.194958225211328,
          0.9199999999999999 -0.32933311384799946 0.18554600559271872,
          0.9199999999999999 -0.21619602885815178 0.07240892060287107,
          1.08 -0.21619602885815178 0.07240892060287107,
          1.08 -0.32933311384799946 0.18554600559271872,
          0.9199999999999999 -0.33397777478867213 0.17704629196495358,
          0.9199999999999999 -0.253977774788672 0.03848222735944339,
          1.08 -0.253977774788672 0.03848222735944339,
          1.08 -0.33397777478867213 0.17704629196495358,
          0.9199999999999999 -0.34066406051040693 0.17003832576532396,
          0.9199999999999999 -0.2992530132940035 0.015490193559072992,
          1.08 -0.2992530132940035 0.015490193559072992,
          1.08 -0.34066406051040693 0.17003832576532396,
          0.9199999999999999 -0.3489363116908773 0.16499968830912293,
          0.9199999999999999 -0.3489363116908772 0.004999688309122781,
          1.08 -0.3489363116908772 0.004999688309122781,
          1.08 -0.3489363116908773 0.16499968830912293,
          0.9199999999999999 -0.8500003116908772 0.1649996883091226,
          0.9199999999999999 -0.8500003116908772 0.004999688309122448,
          1.08 -0.8500003116908772 0.004999688309122448,
          1.08 -0.8500003116908772 0.1649996883091226 ] }
        coordIndex [
          0, 1, 5, 4, -1,
          0, 4, 7, 3, -1,
          1, 2, 6, 5, -1,
          2, 3, 7, 6, -1,
          4, 5, 9, 8, -1,
          4, 8, 11, 7, -1,
          5, 6, 10, 9, -1,
          6, 7, 11, 10, -1,
          8, 9, 13, 12, -1,
          8, 12, 15, 11, -1,
          9, 10, 14, 13, -1,
          10, 11, 15, 14, -1,
          12, 13, 17, 16, -1,
          12, 16, 19, 15, -1,
          13, 14, 18, 17, -1,
          14, 15, 19, 18, -1,
          16, 17, 21, 20, -1,
          16, 20, 23, 19, -1,
          17, 18, 22, 21, -1,
          18, 19, 23, 22, -1,
          20, 21, 25, 24, -1,
          20, 24, 27, 23, -1,
          21, 22, 26, 25, -1,
          22, 23, 27, 26, -1,
          24, 25, 29, 28, -1,
          24, 28, 31, 27, -1,
          25, 26, 30, 29, -1,
          26, 27, 31, 30, -1,
          28, 29, 30, 31, -1 ]
        normal Normal { vector [
          -1.0 0.0 0.0,
          0.0 -0.9898437788601074 -0.14215939452580273,
          -1.0 0.0 0.0,
          0.0 0.9996394476979253 -0.02685097030252297,
          0.0 0.9996394476979253 -0.02685097030252297,
          1.0 0.0 0.0,
          1.0 0.0 0.0,
          0.0 -0.9898437788601074 -0.14215939452580273,
          -1.0 0.0 0.0,
          0.0 -0.9881062019760052 -0.15377299378159306,
          -1.0 0.0 0.0,
          0.0 -0.9881062019760052 -0.15377299378159306,
          -1.0 0.0 0.0,
          0.0 0.983008265709739 -0.18356129642800878,
          -1.0 0.0 0.0,
          0.0 0.983008265709739 -0.18356129642800878,
          0.0 0.983008265709739 -0.18356129642800878,
          1.0 0.0 0.0,
          0.0 0.983008265709739 -0.18356129642800878,
          1.0 0.0 0.0,
          1.0 0.0 0.0,
          0.0 -0.9881062019760052 -0.15377299378159306,
          1.0 0.0 0.0,
          0.0 -0.9881062019760052 -0.15377299378159306,
          -1.0 0.0 0.0,
          0.0 -0.9942366790181334 0.10720739757588126,
          -1.0 0.0 0.0,
          0.0 -0.9942366790181334 0.10720739757588126,
          -1.0 0.0 0.0,
          0.0 0.9020039118453856 -0.43172785758579657,
          -1.0 0.0 0.0,
          0.0 0.9020039118453856 -0.43172785758579657,
          0.0 0.9020039118453856 -0.43172785758579657,
          1.0 0.0 0.0,
          0.0 0.9020039118453856 -0.43172785758579657,
          1.0 0.0 0.0,
          1.0 0.0 0.0,
          0.0 -0.9942366790181334 0.10720739757588126,
          1.0 0.0 0.0,
          0.0 -0.9942366790181334 0.10720739757588126,
          -1.0 0.0 0.0,
          0.0 -0.9326115694389726 0.3608817819571616,
          -1.0 0.0 0.0,
          0.0 -0.9326115694389726 0.3608817819571616,
          -1.0 0.0 0.0,
          0.0 0.759529482020713 -0.6504728787131308,
          -1.0 0.0 0.0,
          0.0 0.759529482020713 -0.6504728787131308,
          0.0 0.759529482020713 -0.6504728787131308,
          1.0 0.0 0.0,
          0.0 0.759529482020713 -0.6504728787131308,
          1.0 0.0 0.0,
          1.0 0.0 0.0,
          0.0 -0.9326115694389726 0.3608817819571616,
          1.0 0.0 0.0,
          0.0 -0.9326115694389726 0.3608817819571616,
          -1.0 0.0 0.0,
          0.0 -0.8074305226160378 0.5899626692833981,
          -1.0 0.0 0.0,
          0.0 -0.8074305226160378 0.5899626692833981,
          -1.0 0.0 0.0,
          0.0 0.5652943731781451 -0.8248892481134228,
          -1.0 0.0 0.0,
          0.0 0.5652943731781451 -0.8248892481134228,
          0.0 0.5652943731781451 -0.8248892481134228,
          1.0 0.0 0.0,
          0.0 0.5652943731781451 -0.8248892481134228,
          1.0 0.0 0.0,
          1.0 0.0 0.0,
          0.0 -0.8074305226160378 0.5899626692833981,
          1.0 0.0 0.0,
          0.0 -0.8074305226160378 0.5899626692833981,
          -1.0 0.0 0.0,
          0.0 -0.6272244200188475 0.7788385756573826,
          -1.0 0.0 0.0,
          0.0 -0.6272244200188475 0.7788385756573826,
          -1.0 0.0 0.0,
          0.0 0.332535386996609 -0.9430907784487215,
          -1.0 0.0 0.0,
          0.0 0.332535386996609 -0.9430907784487215,
          0.0 0.332535386996609 -0.9430907784487215,
          1.0 0.0 0.0,
          0.0 0.332535386996609 -0.9430907784487215,
          1.0 0.0 0.0,
          1.0 0.0 0.0,
          0.0 -0.6272244200188475 0.7788385756573826,
          1.0 0.0 0.0,
          0.0 -0.6272244200188475 0.7788385756573826,
          -1.0 0.0 0.0,
          0.0 -0.27014374054593515 0.962820003657927,
          -1.0 0.0 0.0,
          0.0 -0.27014374054593515 0.962820003657927,
          -1.0 0.0 0.0,
          0.0 0.10385787417162923 -0.9945921485576639,
          -1.0 0.0 0.0,
          0.0 0.10385787417162923 -0.9945921485576639,
          0.0 0.10385787417162923 -0.9945921485576639,
          1.0 0.0 0.0,
          0.0 0.10385787417162923 -0.9945921485576639,
          1.0 0.0 0.0,
          1.0 0.0 0.0,
          0.0 -0.27014374054593515 0.962820003657927,
          1.0 0.0 0.0,
          0.0 -0.27014374054593515 0.962820003657927,
          0.0 -1.0 0.0,
          -1.0 0.0 0.0,
          0.0 -6.647192921214596e-16 1.0,
          0.0 -1.0 0.0,
          -1.0 0.0 0.0,
          0.0 6.647192921214596e-16 -1.0,
          0.0 -1.0 0.0,
          0.0 6.647192921214596e-16 -1.0,
          1.0 0.0 0.0,
          0.0 -1.0 0.0,
          1.0 0.0 0.0,
          0.0 -6.647192921214596e-16 1.0 ] }
        normalIndex [
          0, 2, 12, 8, -1,
          1, 9, 21, 7, -1,
          3, 4, 16, 13, -1,
          5, 6, 20, 17, -1,
          10, 14, 28, 24, -1,
          11, 25, 37, 23, -1,
          15, 18, 32, 29, -1,
          19, 22, 36, 33, -1,
          26, 30, 44, 40, -1,
          27, 41, 53, 39, -1,
          31, 34, 48, 45, -1,
          35, 38, 52, 49, -1,
          42, 46, 60, 56, -1,
          43, 57, 69, 55, -1,
          47, 50, 64, 61, -1,
          51, 54, 68, 65, -1,
          58, 62, 76, 72, -1,
          59, 73, 85, 71, -1,
          63, 66, 80, 77, -1,
          67, 70, 84, 81, -1,
          74, 78, 92, 88, -1,
          75, 89, 101, 87, -1,
          79, 82, 96, 93, -1,
          83, 86, 100, 97, -1,
          90, 94, 108, 105, -1,
          91, 106, 115, 103, -1,
          95, 98, 111, 109, -1,
          99, 102, 114, 112, -1,
          104, 107, 110, 113, -1 ]
      }
    }
  ]
}

DEF cube6_copy9 Transform {
  children [
    Shape {
      appearance Appearance {
        material USE gold
      }
      geometry IndexedFaceSet {
        normalPerVertex TRUE
        coord Coordinate { point [
          0.42 0.3300004808571373 2.205,
          0.42 0.1700004808571373 2.205,
          0.58 0.1700004808571373 2.205,
          0.58 0.3300004808571373 2.205,
          0.42 0.3300004808571373 0.21393600000000002,
          0.42 0.1700004808571373 0.21393600000000002,
          0.58 0.1700004808571373 0.21393600000000002,
          0.58 0.3300004808571373 0.21393600000000002,
          0.476 0.22600048085713728 2.355,
          0.476 0.2740004808571373 2.355,
          0.524 0.2740004808571373 2.355,
          0.524 0.22600048085713728 2.355 ] }
        coordIndex [
          0, 1, 8, 9, -1,
          0, 3, 7, 4, -1,
          0, 4, 5, 1, -1,
          0, 9, 10, 3, -1,
          1, 2, 11, 8, -1,
          1, 5, 6, 2, -1,
          2, 3, 10, 11, -1,
          2, 6, 7, 3, -1,
          8, 11, 10, 9, -1 ]
        normal Normal { vector [
          0.0 1.0 0.0,
          -1.0 0.0 0.0,
          -0.9368415147273569 0.0 0.3497541654982134,
          0.0 0.9368415147273569 0.34975416549821337,
          0.0 -1.0 0.0,
          -1.0 0.0 0.0,
          -0.9368415147273569 0.0 0.3497541654982134,
          0.0 -0.9368415147273569 0.34975416549821337,
          1.0 0.0 0.0,
          0.0 -1.0 0.0,
          0.9368415147273569 0.0 0.34975416549821303,
          0.0 -0.9368415147273569 0.34975416549821337,
          1.0 0.0 0.0,
          0.0 1.0 0.0,
          0.0 0.9368415147273569 0.34975416549821337,
          0.9368415147273569 0.0 0.34975416549821303,
          0.0 0.9898437788601074 -0.14215939452580273,
          -1.0 0.0 0.0,
          0.0 -0.9996394476979253 -0.02685097030252297,
          -1.0 0.0 0.0,
          1.0 0.0 0.0,
          0.0 -0.9996394476979253 -0.02685097030252297,
          1.0 0.0 0.0,
          0.0 0.9898437788601074 -0.14215939452580273,
          0.0 0.0 1.0,
          -0.9368415147273569 0.0 0.3497541654982134,
          0.0 -0.9368415147273569 0.34975416549821337,
          0.0 0.0 1.0,
          -0.9368415147273569 0.0 0.3497541654982134,
          0.0 0.9368415147273569 0.34975416549821337,
          0.0 0.0 1.0,
          0.0 0.9368415147273569 0.34975416549821337,
          0.9368415147273569 0.0 0.34975416549821303,
          0.0 0.0 1.0,
          0.9368415147273569 0.0 0.34975416549821303,
          0.0 -0.9368415147273569 0.34975416549821337 ] }
        normalIndex [
          2, 6, 25, 28, -1,
          0, 13, 23, 16, -1,
          1, 17, 19, 5, -1,
          3, 29, 31, 14, -1,
          7, 11, 35, 26, -1,
          4, 18, 21, 9, -1,
          10, 15, 32, 34, -1,
          8, 20, 22, 12, -1,
          24, 33, 30, 27, -1 ]
      }
    },
    Shape {
      appearance Appearance {
        material USE tin
      }
      geometry IndexedFaceSet {
        normalPerVertex TRUE
        coord Coordinate { point [
          0.42 0.3300004808571373 0.21393600000000002,
          0.42 0.1700004808571373 0.21393600000000002,
          0.58 0.1700004808571373 0.21393600000000002,
          0.58 0.3300004808571373 0.21393600000000002,
          0.42 0.32727454696026276 0.20464152360820165,
          0.42 0.17272641475401182 0.16323047639179833,
          0.58 0.17272641475401182 0.16323047639179833,
          0.58 0.32727454696026276 0.20464152360820165,
          0.42 0.327047084512968 0.194958225211328,
          0.42 0.18848301990745783 0.11495822521132804,
          0.58 0.18848301990745783 0.11495822521132804,
          0.58 0.327047084512968 0.194958225211328,
          0.42 0.32933359470513673 0.18554600559271872,
          0.42 0.21619650971528911 0.07240892060287107,
          0.58 0.21619650971528911 0.07240892060287107,
          0.58 0.32933359470513673 0.18554600559271872,
          0.42 0.3339782556458094 0.17704629196495358,
          0.42 0.2539782556458093 0.03848222735944339,
          0.58 0.2539782556458093 0.03848222735944339,
          0.58 0.3339782556458094 0.17704629196495358,
          0.42 0.3406645413675442 0.17003832576532396,
          0.42 0.2992534941511408 0.015490193559072992,
          0.58 0.2992534941511408 0.015490193559072992,
          0.58 0.3406645413675442 0.17003832576532396,
          0.42 0.3489367925480146 0.16499968830912293,
          0.42 0.34893679254801446 0.004999688309122781,
          0.58 0.34893679254801446 0.004999688309122781,
          0.58 0.3489367925480146 0.16499968830912293,
          0.42 0.8499997925480145 0.1649996883091226,
          0.42 0.8499997925480145 0.004999688309122448,
          0.58 0.8499997925480145 0.004999688309122448,
          0.58 0.8499997925480145 0.1649996883091226 ] }
        coordIndex [
          0, 3, 7, 4, -1,
          0, 4, 5, 1, -1,
          1, 5, 6, 2, -1,
          2, 6, 7, 3, -1,
          4, 7, 11, 8, -1,
          4, 8, 9, 5, -1,
          5, 9, 10, 6, -1,
          6, 10, 11, 7, -1,
          8, 11, 15, 12, -1,
          8, 12, 13, 9, -1,
          9, 13, 14, 10, -1,
          10, 14, 15, 11, -1,
          12, 15, 19, 16, -1,
          12, 16, 17, 13, -1,
          13, 17, 18, 14, -1,
          14, 18, 19, 15, -1,
          16, 19, 23, 20, -1,
          16, 20, 21, 17, -1,
          17, 21, 22, 18, -1,
          18, 22, 23, 19, -1,
          20, 23, 27, 24, -1,
          20, 24, 25, 21, -1,
          21, 25, 26, 22, -1,
          22, 26, 27, 23, -1,
          24, 27, 31, 28, -1,
          24, 28, 29, 25, -1,
          25, 29, 30, 26, -1,
          26, 30, 31, 27, -1,
          28, 31, 30, 29, -1 ]
        normal Normal { vector [
          -1.0 0.0 0.0,
          0.0 0.9898437788601074 -0.14215939452580273,
          -1.0 0.0 0.0,
          0.0 -0.9996394476979253 -0.02685097030252297,
          0.0 -0.9996394476979253 -0.02685097030252297,
          1.0 0.0 0.0,
          1.0 0.0 0.0,
          0.0 0.9898437788601074 -0.14215939452580273,
          -1.0 0.0 0.0,
          0.0 0.9881062019760052 -0.15377299378159306,
          -1.0 0.0 0.0,
          0.0 0.9881062019760052 -0.15377299378159306,
          -1.0 0.0 0.0,
          0.0 -0.9830082657097389 -0.18356129642800903,
          -1.0 0.0 0.0,
          0.0 -0.9830082657097389 -0.18356129642800903,
          0.0 -0.9830082657097389 -0.18356129642800903,
          1.0 0.0 0.0,
          0.0 -0.9830082657097389 -0.18356129642800903,
          1.0 0.0 0.0,
          1.0 0.0 0.0,
          0.0 0.9881062019760052 -0.15377299378159306,
          1.0 0.0 0.0,
          0.0 0.9881062019760052 -0.15377299378159306,
          -1.0 0.0 0.0,
          0.0 0.9942366790181334 0.10720739757588127,
          -1.0 0.0 0.0,
          0.0 0.9942366790181334 0.10720739757588127,
          -1.0 0.0 0.0,
          0.0 -0.9020039118453854 -0.4317278575857969,
          -1.0 0.0 0.0,
          0.0 -0.9020039118453854 -0.4317278575857969,
          0.0 -0.9020039118453854 -0.4317278575857969,
          1.0 0.0 0.0,
          0.0 -0.9020039118453854 -0.4317278575857969,
          1.0 0.0 0.0,
          1.0 0.0 0.0,
          0.0 0.9942366790181334 0.10720739757588127,
          1.0 0.0 0.0,
          0.0 0.9942366790181334 0.10720739757588127,
          -1.0 0.0 0.0,
          0.0 0.9326115694389726 0.36088178195716164,
          -1.0 0.0 0.0,
          0.0 0.9326115694389726 0.36088178195716164,
          -1.0 0.0 0.0,
          0.0 -0.7595294820207132 -0.6504728787131305,
          -1.0 0.0 0.0,
          0.0 -0.7595294820207132 -0.6504728787131305,
          0.0 -0.7595294820207132 -0.6504728787131305,
          1.0 0.0 0.0,
          0.0 -0.7595294820207132 -0.6504728787131305,
          1.0 0.0 0.0,
          1.0 0.0 0.0,
          0.0 0.9326115694389726 0.36088178195716164,
          1.0 0.0 0.0,
          0.0 0.9326115694389726 0.36088178195716164,
          -1.0 0.0 0.0,
          0.0 0.8074305226160378 0.5899626692833981,
          -1.0 0.0 0.0,
          0.0 0.8074305226160378 0.5899626692833981,
          -1.0 0.0 0.0,
          0.0 -0.5652943731781453 -0.8248892481134226,
          -1.0 0.0 0.0,
          0.0 -0.5652943731781453 -0.8248892481134226,
          0.0 -0.5652943731781453 -0.8248892481134226,
          1.0 0.0 0.0,
          0.0 -0.5652943731781453 -0.8248892481134226,
          1.0 0.0 0.0,
          1.0 0.0 0.0,
          0.0 0.8074305226160378 0.5899626692833981,
          1.0 0.0 0.0,
          0.0 0.8074305226160378 0.5899626692833981,
          -1.0 0.0 0.0,
          0.0 0.6272244200188476 0.7788385756573826,
          -1.0 0.0 0.0,
          0.0 0.6272244200188476 0.7788385756573826,
          -1.0 0.0 0.0,
          0.0 -0.332535386996609 -0.9430907784487215,
          -1.0 0.0 0.0,
          0.0 -0.332535386996609 -0.9430907784487215,
          0.0 -0.332535386996609 -0.9430907784487215,
          1.0 0.0 0.0,
          0.0 -0.332535386996609 -0.9430907784487215,
          1.0 0.0 0.0,
          1.0 0.0 0.0,
          0.0 0.6272244200188476 0.7788385756573826,
          1.0 0.0 0.0,
          0.0 0.6272244200188476 0.7788385756573826,
          -1.0 0.0 0.0,
          0.0 0.27014374054593515 0.962820003657927,
          -1.0 0.0 0.0,
          0.0 0.27014374054593515 0.962820003657927,
          -1.0 0.0 0.0,
          0.0 -0.1038578741716292 -0.9945921485576639,
          -1.0 0.0 0.0,
          0.0 -0.1038578741716292 -0.9945921485576639,
          0.0 -0.1038578741716292 -0.9945921485576639,
          1.0 0.0 0.0,
          0.0 -0.1038578741716292 -0.9945921485576639,
          1.0 0.0 0.0,
          1.0 0.0 0.0,
          0.0 0.27014374054593515 0.962820003657927,
          1.0 0.0 0.0,
          0.0 0.27014374054593515 0.962820003657927,
          0.0 1.0 0.0,
          -1.0 0.0 0.0,
          0.0 6.647206187396535e-16 1.0,
          0.0 1.0 0.0,
          -1.0 0.0 0.0,
          0.0 -6.647206187396534e-16 -1.0,
          0.0 1.0 0.0,
          0.0 -6.647206187396534e-16 -1.0,
          1.0 0.0 0.0,
          0.0 1.0 0.0,
          1.0 0.0 0.0,
          0.0 6.647206187396535e-16 1.0 ] }
        normalIndex [
          1, 7, 21, 9, -1,
          0, 8, 12, 2, -1,
          3, 13, 16, 4, -1,
          5, 17, 20, 6, -1,
          11, 23, 37, 25, -1,
          10, 24, 28, 14, -1,
          15, 29, 32, 18, -1,
          19, 33, 36, 22, -1,
          27, 39, 53, 41, -1,
          26, 40, 44, 30, -1,
          31, 45, 48, 34, -1,
          35, 49, 52, 38, -1,
          43, 55, 69, 57, -1,
          42, 56, 60, 46, -1,
          47, 61, 64, 50, -1,
          51, 65, 68, 54, -1,
          59, 71, 85, 73, -1,
          58, 72, 76, 62, -1,
          63, 77, 80, 66, -1,
          67, 81, 84, 70, -1,
          75, 87, 101, 89, -1,
          74, 88, 92, 78, -1,
          79, 93, 96, 82, -1,
          83, 97, 100, 86, -1,
          91, 103, 115, 106, -1,
          90, 105, 108, 94, -1,
          95, 109, 111, 98, -1,
          99, 112, 114, 102, -1,
          104, 113, 110, 107, -1 ]
      }
    }
  ]
}

DEF cube6_copy8 Transform {
  children [
    Shape {
      appearance Appearance {
        material USE gold
      }
      geometry IndexedFaceSet {
        normalPerVertex TRUE
        coord Coordinate { point [
          0.42 -0.33 2.205,
          0.42 -0.16999999999999998 2.205,
          0.58 -0.16999999999999998 2.205,
          0.58 -0.33 2.205,
          0.42 -0.33 0.21393600000000002,
          0.42 -0.16999999999999998 0.21393600000000002,
          0.58 -0.16999999999999998 0.21393600000000002,
          0.58 -0.33 0.21393600000000002,
          0.476 -0.22599999999999998 2.355,
          0.476 -0.274 2.355,
          0.524 -0.274 2.355,
          0.524 -0.22599999999999998 2.355 ] }
        coordIndex [
          0, 1, 5, 4, -1,
          0, 3, 10, 9, -1,
          0, 4, 7, 3, -1,
          0, 9, 8, 1, -1,
          1, 2, 6, 5, -1,
          1, 8, 11, 2, -1,
          2, 3, 7, 6, -1,
          2, 11, 10, 3, -1,
          8, 9, 10, 11, -1 ]
        normal Normal { vector [
          0.0 -1.0 0.0,
          -1.0 0.0 0.0,
          -0.9368415147273569 0.0 0.3497541654982134,
          0.0 -0.9368415147273569 0.34975416549821337,
          0.0 1.0 0.0,
          -1.0 0.0 0.0,
          -0.9368415147273569 0.0 0.3497541654982134,
          0.0 0.9368415147273569 0.34975416549821337,
          1.0 0.0 0.0,
          0.0 1.0 0.0,
          0.9368415147273569 0.0 0.3497541654982131,
          0.0 0.9368415147273569 0.34975416549821337,
          1.0 0.0 0.0,
          0.0 -1.0 0.0,
          0.0 -0.9368415147273569 0.34975416549821337,
          0.9368415147273569 0.0 0.3497541654982131,
          0.0 -0.9898437788601074 -0.14215939452580273,
          -1.0 0.0 0.0,
          0.0 0.9996394476979253 -0.02685097030252297,
          -1.0 0.0 0.0,
          1.0 0.0 0.0,
          0.0 0.9996394476979253 -0.02685097030252297,
          1.0 0.0 0.0,
          0.0 -0.9898437788601074 -0.14215939452580273,
          0.0 0.0 1.0,
          -0.9368415147273569 0.0 0.3497541654982134,
          0.0 0.9368415147273569 0.34975416549821337,
          0.0 0.0 1.0,
          -0.9368415147273569 0.0 0.3497541654982134,
          0.0 -0.9368415147273569 0.34975416549821337,
          0.0 0.0 1.0,
          0.0 -0.9368415147273569 0.34975416549821337,
          0.9368415147273569 0.0 0.3497541654982131,
          0.0 0.0 1.0,
          0.9368415147273569 0.0 0.3497541654982131,
          0.0 0.9368415147273569 0.34975416549821337 ] }
        normalIndex [
          1, 5, 19, 17, -1,
          3, 14, 31, 29, -1,
          0, 16, 23, 13, -1,
          2, 28, 25, 6, -1,
          4, 9, 21, 18, -1,
          7, 26, 35, 11, -1,
          8, 12, 22, 20, -1,
          10, 34, 32, 15, -1,
          24, 27, 30, 33, -1 ]
      }
    },
    Shape {
      appearance Appearance {
        material USE tin
      }
      geometry IndexedFaceSet {
        normalPerVertex TRUE
        coord Coordinate { point [
          0.42 -0.33 0.21393600000000002,
          0.42 -0.16999999999999998 0.21393600000000002,
          0.58 -0.16999999999999998 0.21393600000000002,
          0.58 -0.33 0.21393600000000002,
          0.42 -0.3272740661031255 0.20464152360820165,
          0.42 -0.17272593389687452 0.16323047639179833,
          0.58 -0.17272593389687452 0.16323047639179833,
          0.58 -0.3272740661031255 0.20464152360820165,
          0.42 -0.3270466036558307 0.194958225211328,
          0.42 -0.1884825390503205 0.11495822521132804,
          0.58 -0.1884825390503205 0.11495822521132804,
          0.58 -0.3270466036558307 0.194958225211328,
          0.42 -0.32933311384799946 0.18554600559271872,
          0.42 -0.21619602885815178 0.07240892060287107,
          0.58 -0.21619602885815178 0.07240892060287107,
          0.58 -0.32933311384799946 0.18554600559271872,
          0.42 -0.33397777478867213 0.17704629196495358,
          0.42 -0.253977774788672 0.03848222735944339,
          0.58 -0.253977774788672 0.03848222735944339,
          0.58 -0.33397777478867213 0.17704629196495358,
          0.42 -0.34066406051040693 0.17003832576532396,
          0.42 -0.2992530132940035 0.015490193559072992,
          0.58 -0.2992530132940035 0.015490193559072992,
          0.58 -0.34066406051040693 0.17003832576532396,
          0.42 -0.3489363116908773 0.16499968830912293,
          0.42 -0.3489363116908772 0.004999688309122781,
          0.58 -0.3489363116908772 0.004999688309122781,
          0.58 -0.3489363116908773 0.16499968830912293,
          0.42 -0.8500003116908772 0.1649996883091226,
          0.42 -0.8500003116908772 0.004999688309122448,
          0.58 -0.8500003116908772 0.004999688309122448,
          0.58 -0.8500003116908772 0.1649996883091226 ] }
        coordIndex [
          0, 1, 5, 4, -1,
          0, 4, 7, 3, -1,
          1, 2, 6, 5, -1,
          2, 3, 7, 6, -1,
          4, 5, 9, 8, -1,
          4, 8, 11, 7, -1,
          5, 6, 10, 9, -1,
          6, 7, 11, 10, -1,
          8, 9, 13, 12, -1,
          8, 12, 15, 11, -1,
          9, 10, 14, 13, -1,
          10, 11, 15, 14, -1,
          12, 13, 17, 16, -1,
          12, 16, 19, 15, -1,
          13, 14, 18, 17, -1,
          14, 15, 19, 18, -1,
          16, 17, 21, 20, -1,
          16, 20, 23, 19, -1,
          17, 18, 22, 21, -1,
          18, 19, 23, 22, -1,
          20, 21, 25, 24, -1,
          20, 24, 27, 23, -1,
          21, 22, 26, 25, -1,
          22, 23, 27, 26, -1,
          24, 25, 29, 28, -1,
          24, 28, 31, 27, -1,
          25, 26, 30, 29, -1,
          26, 27, 31, 30, -1,
          28, 29, 30, 31, -1 ]
        normal Normal { vector [
          -1.0 0.0 0.0,
          0.0 -0.9898437788601074 -0.14215939452580273,
          -1.0 0.0 0.0,
          0.0 0.9996394476979253 -0.02685097030252297,
          0.0 0.9996394476979253 -0.02685097030252297,
          1.0 0.0 0.0,
          1.0 0.0 0.0,
          0.0 -0.9898437788601074 -0.14215939452580273,
          -1.0 0.0 0.0,
          0.0 -0.9881062019760052 -0.15377299378159306,
          -1.0 0.0 0.0,
          0.0 -0.9881062019760052 -0.15377299378159306,
          -1.0 0.0 0.0,
          0.0 0.983008265709739 -0.18356129642800878,
          -1.0 0.0 0.0,
          0.0 0.983008265709739 -0.18356129642800878,
          0.0 0.983008265709739 -0.18356129642800878,
          1.0 0.0 0.0,
          0.0 0.983008265709739 -0.18356129642800878,
          1.0 0.0 0.0,
          1.0 0.0 0.0,
          0.0 -0.9881062019760052 -0.15377299378159306,
          1.0 0.0 0.0,
          0.0 -0.9881062019760052 -0.15377299378159306,
          -1.0 0.0 0.0,
          0.0 -0.9942366790181334 0.10720739757588127,
          -1.0 0.0 0.0,
          0.0 -0.9942366790181334 0.10720739757588127,
          -1.0 0.0 0.0,
          0.0 0.9020039118453855 -0.4317278575857966,
          -1.0 0.0 0.0,
          0.0 0.9020039118453855 -0.4317278575857966,
          0.0 0.9020039118453855 -0.4317278575857966,
          1.0 0.0 0.0,
          0.0 0.9020039118453855 -0.4317278575857966,
          1.0 0.0 0.0,
          1.0 0.0 0.0,
          0.0 -0.9942366790181334 0.10720739757588127,
          1.0 0.0 0.0,
          0.0 -0.9942366790181334 0.10720739757588127,
          -1.0 0.0 0.0,
          0.0 -0.9326115694389726 0.36088178195716164,
          -1.0 0.0 0.0,
          0.0 -0.9326115694389726 0.36088178195716164,
          -1.0 0.0 0.0,
          0.0 0.759529482020713 -0.6504728787131309,
          -1.0 0.0 0.0,
          0.0 0.759529482020713 -0.6504728787131309,
          0.0 0.759529482020713 -0.6504728787131309,
          1.0 0.0 0.0,
          0.0 0.759529482020713 -0.6504728787131309,
          1.0 0.0 0.0,
          1.0 0.0 0.0,
          0.0 -0.9326115694389726 0.36088178195716164,
          1.0 0.0 0.0,
          0.0 -0.9326115694389726 0.36088178195716164,
          -1.0 0.0 0.0,
          0.0 -0.8074305226160378 0.5899626692833981,
          -1.0 0.0 0.0,
          0.0 -0.8074305226160378 0.5899626692833981,
          -1.0 0.0 0.0,
          0.0 0.565294373178145 -0.8248892481134229,
          -1.0 0.0 0.0,
          0.0 0.565294373178145 -0.8248892481134229,
          0.0 0.565294373178145 -0.8248892481134229,
          1.0 0.0 0.0,
          0.0 0.565294373178145 -0.8248892481134229,
          1.0 0.0 0.0,
          1.0 0.0 0.0,
          0.0 -0.8074305226160378 0.5899626692833981,
          1.0 0.0 0.0,
          0.0 -0.8074305226160378 0.5899626692833981,
          -1.0 0.0 0.0,
          0.0 -0.6272244200188476 0.7788385756573826,
          -1.0 0.0 0.0,
          0.0 -0.6272244200188476 0.7788385756573826,
          -1.0 0.0 0.0,
          0.0 0.332535386996609 -0.9430907784487215,
          -1.0 0.0 0.0,
          0.0 0.332535386996609 -0.9430907784487215,
          0.0 0.332535386996609 -0.9430907784487215,
          1.0 0.0 0.0,
          0.0 0.332535386996609 -0.9430907784487215,
          1.0 0.0 0.0,
          1.0 0.0 0.0,
          0.0 -0.6272244200188476 0.7788385756573826,
          1.0 0.0 0.0,
          0.0 -0.6272244200188476 0.7788385756573826,
          -1.0 0.0 0.0,
          0.0 -0.27014374054593515 0.962820003657927,
          -1.0 0.0 0.0,
          0.0 -0.27014374054593515 0.962820003657927,
          -1.0 0.0 0.0,
          0.0 0.1038578741716292 -0.9945921485576639,
          -1.0 0.0 0.0,
          0.0 0.1038578741716292 -0.9945921485576639,
          0.0 0.1038578741716292 -0.9945921485576639,
          1.0 0.0 0.0,
          0.0 0.1038578741716292 -0.9945921485576639,
          1.0 0.0 0.0,
          1.0 0.0 0.0,
          0.0 -0.27014374054593515 0.962820003657927,
          1.0 0.0 0.0,
          0.0 -0.27014374054593515 0.962820003657927,
          0.0 -1.0 0.0,
          -1.0 0.0 0.0,
          0.0 -6.647192921214596e-16 1.0,
          0.0 -1.0 0.0,
          -1.0 0.0 0.0,
          0.0 6.647192921214596e-16 -1.0,
          0.0 -1.0 0.0,
          0.0 6.647192921214596e-16 -1.0,
          1.0 0.0 0.0,
          0.0 -1.0 0.0,
          1.0 0.0 0.0,
          0.0 -6.647192921214596e-16 1.0 ] }
        normalIndex [
          0, 2, 12, 8, -1,
          1, 9, 21, 7, -1,
          3, 4, 16, 13, -1,
          5, 6, 20, 17, -1,
          10, 14, 28, 24, -1,
          11, 25, 37, 23, -1,
          15, 18, 32, 29, -1,
          19, 22, 36, 33, -1,
          26, 30, 44, 40, -1,
          27, 41, 53, 39, -1,
          31, 34, 48, 45, -1,
          35, 38, 52, 49, -1,
          42, 46, 60, 56, -1,
          43, 57, 69, 55, -1,
          47, 50, 64, 61, -1,
          51, 54, 68, 65, -1,
          58, 62, 76, 72, -1,
          59, 73, 85, 71, -1,
          63, 66, 80, 77, -1,
          67, 70, 84, 81, -1,
          74, 78, 92, 88, -1,
          75, 89, 101, 87, -1,
          79, 82, 96, 93, -1,
          83, 86, 100, 97, -1,
          90, 94, 108, 105, -1,
          91, 106, 115, 103, -1,
          95, 98, 111, 109, -1,
          99, 102, 114, 112, -1,
          104, 107, 110, 113, -1 ]
      }
    }
  ]
}

DEF cube6_copy7 Transform {
  children [
    Shape {
      appearance Appearance {
        material USE gold
      }
      geometry IndexedFaceSet {
        normalPerVertex TRUE
        coord Coordinate { point [
          -0.08 0.3300004808571373 2.205,
          -0.08 0.1700004808571373 2.205,
          0.08 0.1700004808571373 2.205,
          0.08 0.3300004808571373 2.205,
          -0.08 0.3300004808571373 0.21393600000000002,
          -0.08 0.1700004808571373 0.21393600000000002,
          0.08 0.1700004808571373 0.21393600000000002,
          0.08 0.3300004808571373 0.21393600000000002,
          -0.024000000000000007 0.22600048085713728 2.355,
          -0.024000000000000007 0.2740004808571373 2.355,
          0.024000000000000007 0.2740004808571373 2.355,
          0.024000000000000007 0.22600048085713728 2.355 ] }
        coordIndex [
          0, 1, 8, 9, -1,
          0, 3, 7, 4, -1,
          0, 4, 5, 1, -1,
          0, 9, 10, 3, -1,
          1, 2, 11, 8, -1,
          1, 5, 6, 2, -1,
          2, 3, 10, 11, -1,
          2, 6, 7, 3, -1,
          8, 11, 10, 9, -1 ]
        normal Normal { vector [
          0.0 1.0 0.0,
          -1.0 0.0 0.0,
          -0.9368415147273569 0.0 0.3497541654982134,
          0.0 0.9368415147273569 0.3497541654982134,
          0.0 -1.0 0.0,
          -1.0 0.0 0.0,
          -0.9368415147273569 0.0 0.3497541654982134,
          0.0 -0.9368415147273569 0.3497541654982134,
          1.0 0.0 0.0,
          0.0 -1.0 0.0,
          0.9368415147273569 0.0 0.3497541654982134,
          0.0 -0.9368415147273569 0.3497541654982134,
          1.0 0.0 0.0,
          0.0 1.0 0.0,
          0.0 0.9368415147273569 0.3497541654982134,
          0.9368415147273569 0.0 0.3497541654982134,
          0.0 0.9898437788601074 -0.14215939452580273,
          -1.0 0.0 0.0,
          0.0 -0.9996394476979253 -0.02685097030252297,
          -1.0 0.0 0.0,
          1.0 0.0 0.0,
          0.0 -0.9996394476979253 -0.02685097030252297,
          1.0 0.0 0.0,
          0.0 0.9898437788601074 -0.14215939452580273,
          0.0 0.0 1.0,
          -0.9368415147273569 0.0 0.3497541654982134,
          0.0 -0.9368415147273569 0.3497541654982134,
          0.0 0.0 1.0,
          -0.9368415147273569 0.0 0.3497541654982134,
          0.0 0.9368415147273569 0.3497541654982134,
          0.0 0.0 1.0,
          0.0 0.9368415147273569 0.3497541654982134,
          0.9368415147273569 0.0 0.3497541654982134,
          0.0 0.0 1.0,
          0.9368415147273569 0.0 0.3497541654982134,
          0.0 -0.9368415147273569 0.3497541654982134 ] }
        normalIndex [
          2, 6, 25, 28, -1,
          0, 13, 23, 16, -1,
          1, 17, 19, 5, -1,
          3, 29, 31, 14, -1,
          7, 11, 35, 26, -1,
          4, 18, 21, 9, -1,
          10, 15, 32, 34, -1,
          8, 20, 22, 12, -1,
          24, 33, 30, 27, -1 ]
      }
    },
    Shape {
      appearance Appearance {
        material USE tin
      }
      geometry IndexedFaceSet {
        normalPerVertex TRUE
        coord Coordinate { point [
          -0.08 0.3300004808571373 0.21393600000000002,
          -0.08 0.1700004808571373 0.21393600000000002,
          0.08 0.1700004808571373 0.21393600000000002,
          0.08 0.3300004808571373 0.21393600000000002,
          -0.08 0.32727454696026276 0.20464152360820165,
          -0.08 0.17272641475401182 0.16323047639179833,
          0.08 0.17272641475401182 0.16323047639179833,
          0.08 0.32727454696026276 0.20464152360820165,
          -0.08 0.327047084512968 0.194958225211328,
          -0.08 0.18848301990745783 0.11495822521132804,
          0.08 0.18848301990745783 0.11495822521132804,
          0.08 0.327047084512968 0.194958225211328,
          -0.08 0.32933359470513673 0.18554600559271872,
          -0.08 0.21619650971528911 0.07240892060287107,
          0.08 0.21619650971528911 0.07240892060287107,
          0.08 0.32933359470513673 0.18554600559271872,
          -0.08 0.3339782556458094 0.17704629196495358,
          -0.08 0.2539782556458093 0.03848222735944339,
          0.08 0.2539782556458093 0.03848222735944339,
          0.08 0.3339782556458094 0.17704629196495358,
          -0.08 0.3406645413675442 0.17003832576532396,
          -0.08 0.2992534941511408 0.015490193559072992,
          0.08 0.2992534941511408 0.015490193559072992,
          0.08 0.3406645413675442 0.17003832576532396,
          -0.08 0.3489367925480146 0.16499968830912293,
          -0.08 0.34893679254801446 0.004999688309122781,
          0.08 0.34893679254801446 0.004999688309122781,
          0.08 0.3489367925480146 0.16499968830912293,
          -0.08 0.8499997925480145 0.1649996883091226,
          -0.08 0.8499997925480145 0.004999688309122448,
          0.08 0.8499997925480145 0.004999688309122448,
          0.08 0.8499997925480145 0.1649996883091226 ] }
        coordIndex [
          0, 3, 7, 4, -1,
          0, 4, 5, 1, -1,
          1, 5, 6, 2, -1,
          2, 6, 7, 3, -1,
          4, 7, 11, 8, -1,
          4, 8, 9, 5, -1,
          5, 9, 10, 6, -1,
          6, 10, 11, 7, -1,
          8, 11, 15, 12, -1,
          8, 12, 13, 9, -1,
          9, 13, 14, 10, -1,
          10, 14, 15, 11, -1,
          12, 15, 19, 16, -1,
          12, 16, 17, 13, -1,
          13, 17, 18, 14, -1,
          14, 18, 19, 15, -1,
          16, 19, 23, 20, -1,
          16, 20, 21, 17, -1,
          17, 21, 22, 18, -1,
          18, 22, 23, 19, -1,
          20, 23, 27, 24, -1,
          20, 24, 25, 21, -1,
          21, 25, 26, 22, -1,
          22, 26, 27, 23, -1,
          24, 27, 31, 28, -1,
          24, 28, 29, 25, -1,
          25, 29, 30, 26, -1,
          26, 30, 31, 27, -1,
          28, 31, 30, 29, -1 ]
        normal Normal { vector [
          -1.0 0.0 0.0,
          0.0 0.9898437788601074 -0.14215939452580273,
          -1.0 0.0 0.0,
          0.0 -0.9996394476979253 -0.02685097030252297,
          0.0 -0.9996394476979253 -0.02685097030252297,
          1.0 0.0 0.0,
          1.0 0.0 0.0,
          0.0 0.9898437788601074 -0.14215939452580273,
          -1.0 0.0 0.0,
          0.0 0.9881062019760052 -0.15377299378159306,
          -1.0 0.0 0.0,
          0.0 0.9881062019760052 -0.15377299378159306,
          -1.0 0.0 0.0,
          0.0 -0.9830082657097389 -0.18356129642800903,
          -1.0 0.0 0.0,
          0.0 -0.9830082657097389 -0.18356129642800903,
          0.0 -0.9830082657097389 -0.18356129642800903,
          1.0 0.0 0.0,
          0.0 -0.9830082657097389 -0.18356129642800903,
          1.0 0.0 0.0,
          1.0 0.0 0.0,
          0.0 0.9881062019760052 -0.15377299378159306,
          1.0 0.0 0.0,
          0.0 0.9881062019760052 -0.15377299378159306,
          -1.0 0.0 0.0,
          0.0 0.9942366790181334 0.10720739757588126,
          -1.0 0.0 0.0,
          0.0 0.9942366790181334 0.10720739757588126,
          -1.0 0.0 0.0,
          0.0 -0.9020039118453854 -0.4317278575857969,
          -1.0 0.0 0.0,
          0.0 -0.9020039118453854 -0.4317278575857969,
          0.0 -0.9020039118453854 -0.4317278575857969,
          1.0 0.0 0.0,
          0.0 -0.9020039118453854 -0.4317278575857969,
          1.0 0.0 0.0,
          1.0 0.0 0.0,
          0.0 0.9942366790181334 0.10720739757588126,
          1.0 0.0 0.0,
          0.0 0.9942366790181334 0.10720739757588126,
          -1.0 0.0 0.0,
          0.0 0.9326115694389726 0.36088178195716164,
          -1.0 0.0 0.0,
          0.0 0.9326115694389726 0.36088178195716164,
          -1.0 0.0 0.0,
          0.0 -0.7595294820207132 -0.6504728787131305,
          -1.0 0.0 0.0,
          0.0 -0.7595294820207132 -0.6504728787131305,
          0.0 -0.7595294820207132 -0.6504728787131305,
          1.0 0.0 0.0,
          0.0 -0.7595294820207132 -0.6504728787131305,
          1.0 0.0 0.0,
          1.0 0.0 0.0,
          0.0 0.9326115694389726 0.36088178195716164,
          1.0 0.0 0.0,
          0.0 0.9326115694389726 0.36088178195716164,
          -1.0 0.0 0.0,
          0.0 0.8074305226160378 0.589962669283398,
          -1.0 0.0 0.0,
          0.0 0.8074305226160378 0.589962669283398,
          -1.0 0.0 0.0,
          0.0 -0.5652943731781453 -0.8248892481134226,
          -1.0 0.0 0.0,
          0.0 -0.5652943731781453 -0.8248892481134226,
          0.0 -0.5652943731781453 -0.8248892481134226,
          1.0 0.0 0.0,
          0.0 -0.5652943731781453 -0.8248892481134226,
          1.0 0.0 0.0,
          1.0 0.0 0.0,
          0.0 0.8074305226160378 0.589962669283398,
          1.0 0.0 0.0,
          0.0 0.8074305226160378 0.589962669283398,
          -1.0 0.0 0.0,
          0.0 0.6272244200188475 0.7788385756573826,
          -1.0 0.0 0.0,
          0.0 0.6272244200188475 0.7788385756573826,
          -1.0 0.0 0.0,
          0.0 -0.332535386996609 -0.9430907784487215,
          -1.0 0.0 0.0,
          0.0 -0.332535386996609 -0.9430907784487215,
          0.0 -0.332535386996609 -0.9430907784487215,
          1.0 0.0 0.0,
          0.0 -0.332535386996609 -0.9430907784487215,
          1.0 0.0 0.0,
          1.0 0.0 0.0,
          0.0 0.6272244200188475 0.7788385756573826,
          1.0 0.0 0.0,
          0.0 0.6272244200188475 0.7788385756573826,
          -1.0 0.0 0.0,
          0.0 0.27014374054593515 0.962820003657927,
          -1.0 0.0 0.0,
          0.0 0.27014374054593515 0.962820003657927,
          -1.0 0.0 0.0,
          0.0 -0.10385787417162923 -0.9945921485576639,
          -1.0 0.0 0.0,
          0.0 -0.10385787417162923 -0.9945921485576639,
          0.0 -0.10385787417162923 -0.9945921485576639,
          1.0 0.0 0.0,
          0.0 -0.10385787417162923 -0.9945921485576639,
          1.0 0.0 0.0,
          1.0 0.0 0.0,
          0.0 0.27014374054593515 0.962820003657927,
          1.0 0.0 0.0,
          0.0 0.27014374054593515 0.962820003657927,
          0.0 1.0 0.0,
          -1.0 0.0 0.0,
          0.0 6.647206187396535e-16 1.0,
          0.0 1.0 0.0,
          -1.0 0.0 0.0,
          0.0 -6.647206187396534e-16 -1.0,
          0.0 1.0 0.0,
          0.0 -6.647206187396534e-16 -1.0,
          1.0 0.0 0.0,
          0.0 1.0 0.0,
          1.0 0.0 0.0,
          0.0 6.647206187396535e-16 1.0 ] }
        normalIndex [
          1, 7, 21, 9, -1,
          0, 8, 12, 2, -1,
          3, 13, 16, 4, -1,
          5, 17, 20, 6, -1,
          11, 23, 37, 25, -1,
          10, 24, 28, 14, -1,
          15, 29, 32, 18, -1,
          19, 33, 36, 22, -1,
          27, 39, 53, 41, -1,
          26, 40, 44, 30, -1,
          31, 45, 48, 34, -1,
          35, 49, 52, 38, -1,
          43, 55, 69, 57, -1,
          42, 56, 60, 46, -1,
          47, 61, 64, 50, -1,
          51, 65, 68, 54, -1,
          59, 71, 85, 73, -1,
          58, 72, 76, 62, -1,
          63, 77, 80, 66, -1,
          67, 81, 84, 70, -1,
          75, 87, 101, 89, -1,
          74, 88, 92, 78, -1,
          79, 93, 96, 82, -1,
          83, 97, 100, 86, -1,
          91, 103, 115, 106, -1,
          90, 105, 108, 94, -1,
          95, 109, 111, 98, -1,
          99, 112, 114, 102, -1,
          104, 113, 110, 107, -1 ]
      }
    }
  ]
}

DEF cube6 Transform {
  children [
    Shape {
      appearance Appearance {
        material USE gold
      }
      geometry IndexedFaceSet {
        normalPerVertex TRUE
        coord Coordinate { point [
          -0.08 -0.33 2.205,
          -0.08 -0.16999999999999998 2.205,
          0.08 -0.16999999999999998 2.205,
          0.08 -0.33 2.205,
          -0.08 -0.33 0.21393600000000002,
          -0.08 -0.16999999999999998 0.21393600000000002,
          0.08 -0.16999999999999998 0.21393600000000002,
          0.08 -0.33 0.21393600000000002,
          -0.024000000000000007 -0.22599999999999998 2.355,
          -0.024000000000000007 -0.274 2.355,
          0.024000000000000007 -0.274 2.355,
          0.024000000000000007 -0.22599999999999998 2.355 ] }
        coordIndex [
          0, 1, 5, 4, -1,
          0, 3, 10, 9, -1,
          0, 4, 7, 3, -1,
          0, 9, 8, 1, -1,
          1, 2, 6, 5, -1,
          1, 8, 11, 2, -1,
          2, 3, 7, 6, -1,
          2, 11, 10, 3, -1,
          8, 9, 10, 11, -1 ]
        normal Normal { vector [
          0.0 -1.0 0.0,
          -1.0 0.0 0.0,
          -0.9368415147273569 0.0 0.3497541654982134,
          0.0 -0.9368415147273569 0.3497541654982134,
          0.0 1.0 0.0,
          -1.0 0.0 0.0,
          -0.9368415147273569 0.0 0.3497541654982134,
          0.0 0.9368415147273569 0.3497541654982134,
          1.0 0.0 0.0,
          0.0 1.0 0.0,
          0.9368415147273569 0.0 0.3497541654982134,
          0.0 0.9368415147273569 0.3497541654982134,
          1.0 0.0 0.0,
          0.0 -1.0 0.0,
          0.0 -0.9368415147273569 0.3497541654982134,
          0.9368415147273569 0.0 0.3497541654982134,
          0.0 -0.9898437788601074 -0.14215939452580273,
          -1.0 0.0 0.0,
          0.0 0.9996394476979253 -0.02685097030252297,
          -1.0 0.0 0.0,
          1.0 0.0 0.0,
          0.0 0.9996394476979253 -0.02685097030252297,
          1.0 0.0 0.0,
          0.0 -0.9898437788601074 -0.14215939452580273,
          0.0 0.0 1.0,
          -0.9368415147273569 0.0 0.3497541654982134,
          0.0 0.9368415147273569 0.3497541654982134,
          0.0 0.0 1.0,
          -0.9368415147273569 0.0 0.3497541654982134,
          0.0 -0.9368415147273569 0.3497541654982134,
          0.0 0.0 1.0,
          0.0 -0.9368415147273569 0.3497541654982134,
          0.9368415147273569 0.0 0.3497541654982134,
          0.0 0.0 1.0,
          0.9368415147273569 0.0 0.3497541654982134,
          0.0 0.9368415147273569 0.3497541654982134 ] }
        normalIndex [
          1, 5, 19, 17, -1,
          3, 14, 31, 29, -1,
          0, 16, 23, 13, -1,
          2, 28, 25, 6, -1,
          4, 9, 21, 18, -1,
          7, 26, 35, 11, -1,
          8, 12, 22, 20, -1,
          10, 34, 32, 15, -1,
          24, 27, 30, 33, -1 ]
      }
    },
    Shape {
      appearance Appearance {
        material USE tin
      }
      geometry IndexedFaceSet {
        normalPerVertex TRUE
        coord Coordinate { point [
          -0.08 -0.33 0.21393600000000002,
          -0.08 -0.16999999999999998 0.21393600000000002,
          0.08 -0.16999999999999998 0.21393600000000002,
          0.08 -0.33 0.21393600000000002,
          -0.08 -0.3272740661031255 0.20464152360820165,
          -0.08 -0.17272593389687452 0.16323047639179833,
          0.08 -0.17272593389687452 0.16323047639179833,
          0.08 -0.3272740661031255 0.20464152360820165,
          -0.08 -0.3270466036558307 0.194958225211328,
          -0.08 -0.1884825390503205 0.11495822521132804,
          0.08 -0.1884825390503205 0.11495822521132804,
          0.08 -0.3270466036558307 0.194958225211328,
          -0.08 -0.32933311384799946 0.18554600559271872,
          -0.08 -0.21619602885815178 0.07240892060287107,
          0.08 -0.21619602885815178 0.07240892060287107,
          0.08 -0.32933311384799946 0.18554600559271872,
          -0.08 -0.33397777478867213 0.17704629196495358,
          -0.08 -0.253977774788672 0.03848222735944339,
          0.08 -0.253977774788672 0.03848222735944339,
          0.08 -0.33397777478867213 0.17704629196495358,
          -0.08 -0.34066406051040693 0.17003832576532396,
          -0.08 -0.2992530132940035 0.015490193559072992,
          0.08 -0.2992530132940035 0.015490193559072992,
          0.08 -0.34066406051040693 0.17003832576532396,
          -0.08 -0.3489363116908773 0.16499968830912293,
          -0.08 -0.3489363116908772 0.004999688309122781,
          0.08 -0.3489363116908772 0.004999688309122781,
          0.08 -0.3489363116908773 0.16499968830912293,
          -0.08 -0.8500003116908772 0.1649996883091226,
          -0.08 -0.8500003116908772 0.004999688309122448,
          0.08 -0.8500003116908772 0.004999688309122448,
          0.08 -0.8500003116908772 0.1649996883091226 ] }
        coordIndex [
          0, 1, 5, 4, -1,
          0, 4, 7, 3, -1,
          1, 2, 6, 5, -1,
          2, 3, 7, 6, -1,
          4, 5, 9, 8, -1,
          4, 8, 11, 7, -1,
          5, 6, 10, 9, -1,
          6, 7, 11, 10, -1,
          8, 9, 13, 12, -1,
          8, 12, 15, 11, -1,
          9, 10, 14, 13, -1,
          10, 11, 15, 14, -1,
          12, 13, 17, 16, -1,
          12, 16, 19, 15, -1,
          13, 14, 18, 17, -1,
          14, 15, 19, 18, -1,
          16, 17, 21, 20, -1,
          16, 20, 23, 19, -1,
          17, 18, 22, 21, -1,
          18, 19, 23, 22, -1,
          20, 21, 25, 24, -1,
          20, 24, 27, 23, -1,
          21, 22, 26, 25, -1,
          22, 23, 27, 26, -1,
          24, 25, 29, 28, -1,
          24, 28, 31, 27, -1,
          25, 26, 30, 29, -1,
          26, 27, 31, 30, -1,
          28, 29, 30, 31, -1 ]
        normal Normal { vector [
          -1.0 0.0 0.0,
          0.0 -0.9898437788601074 -0.14215939452580273,
          -1.0 0.0 0.0,
          0.0 0.9996394476979253 -0.02685097030252297,
          0.0 0.9996394476979253 -0.02685097030252297,
          1.0 0.0 0.0,
          1.0 0.0 0.0,
          0.0 -0.9898437788601074 -0.14215939452580273,
          -1.0 0.0 0.0,
          0.0 -0.9881062019760052 -0.15377299378159306,
          -1.0 0.0 0.0,
          0.0 -0.9881062019760052 -0.15377299378159306,
          -1.0 0.0 0.0,
          0.0 0.983008265709739 -0.18356129642800878,
          -1.0 0.0 0.0,
          0.0 0.983008265709739 -0.18356129642800878,
          0.0 0.983008265709739 -0.18356129642800878,
          1.0 0.0 0.0,
          0.0 0.983008265709739 -0.18356129642800878,
          1.0 0.0 0.0,
          1.0 0.0 0.0,
          0.0 -0.9881062019760052 -0.15377299378159306,
          1.0 0.0 0.0,
          0.0 -0.9881062019760052 -0.15377299378159306,
          -1.0 0.0 0.0,
          0.0 -0.9942366790181334 0.10720739757588126,
          -1.0 0.0 0.0,
          0.0 -0.9942366790181334 0.10720739757588126,
          -1.0 0.0 0.0,
          0.0 0.9020039118453855 -0.4317278575857966,
          -1.0 0.0 0.0,
          0.0 0.9020039118453855 -0.4317278575857966,
          0.0 0.9020039118453855 -0.4317278575857966,
          1.0 0.0 0.0,
          0.0 0.9020039118453855 -0.4317278575857966,
          1.0 0.0 0.0,
          1.0 0.0 0.0,
          0.0 -0.9942366790181334 0.10720739757588126,
          1.0 0.0 0.0,
          0.0 -0.9942366790181334 0.10720739757588126,
          -1.0 0.0 0.0,
          0.0 -0.9326115694389726 0.36088178195716164,
          -1.0 0.0 0.0,
          0.0 -0.9326115694389726 0.36088178195716164,
          -1.0 0.0 0.0,
          0.0 0.759529482020713 -0.6504728787131309,
          -1.0 0.0 0.0,
          0.0 0.759529482020713 -0.6504728787131309,
          0.0 0.759529482020713 -0.6504728787131309,
          1.0 0.0 0.0,
          0.0 0.759529482020713 -0.6504728787131309,
          1.0 0.0 0.0,
          1.0 0.0 0.0,
          0.0 -0.9326115694389726 0.36088178195716164,
          1.0 0.0 0.0,
          0.0 -0.9326115694389726 0.36088178195716164,
          -1.0 0.0 0.0,
          0.0 -0.8074305226160378 0.589962669283398,
          -1.0 0.0 0.0,
          0.0 -0.8074305226160378 0.589962669283398,
          -1.0 0.0 0.0,
          0.0 0.565294373178145 -0.8248892481134229,
          -1.0 0.0 0.0,
          0.0 0.565294373178145 -0.8248892481134229,
          0.0 0.565294373178145 -0.8248892481134229,
          1.0 0.0 0.0,
          0.0 0.565294373178145 -0.8248892481134229,
          1.0 0.0 0.0,
          1.0 0.0 0.0,
          0.0 -0.8074305226160378 0.589962669283398,
          1.0 0.0 0.0,
          0.0 -0.8074305226160378 0.589962669283398,
          -1.0 0.0 0.0,
          0.0 -0.6272244200188475 0.7788385756573826,
          -1.0 0.0 0.0,
          0.0 -0.6272244200188475 0.7788385756573826,
          -1.0 0.0 0.0,
          0.0 0.332535386996609 -0.9430907784487215,
          -1.0 0.0 0.0,
          0.0 0.332535386996609 -0.9430907784487215,
          0.0 0.332535386996609 -0.9430907784487215,
          1.0 0.0 0.0,
          0.0 0.332535386996609 -0.9430907784487215,
          1.0 0.0 0.0,
          1.0 0.0 0.0,
          0.0 -0.6272244200188475 0.7788385756573826,
          1.0 0.0 0.0,
          0.0 -0.6272244200188475 0.7788385756573826,
          -1.0 0.0 0.0,
          0.0 -0.27014374054593515 0.962820003657927,
          -1.0 0.0 0.0,
          0.0 -0.27014374054593515 0.962820003657927,
          -1.0 0.0 0.0,
          0.0 0.10385787417162923 -0.9945921485576639,
          -1.0 0.0 0.0,
          0.0 0.10385787417162923 -0.9945921485576639,
          0.0 0.10385787417162923 -0.9945921485576639,
          1.0 0.0 0.0,
          0.0 0.10385787417162923 -0.9945921485576639,
          1.0 0.0 0.0,
          1.0 0.0 0.0,
          0.0 -0.27014374054593515 0.962820003657927,
          1.0 0.0 0.0,
          0.0 -0.27014374054593515 0.962820003657927,
          0.0 -1.0 0.0,
          -1.0 0.0 0.0,
          0.0 -6.647192921214595e-16 1.0,
          0.0 -1.0 0.0,
          -1.0 0.0 0.0,
          0.0 6.647192921214595e-16 -1.0,
          0.0 -1.0 0.0,
          0.0 6.647192921214595e-16 -1.0,
          1.0 0.0 0.0,
          0.0 -1.0 0.0,
          1.0 0.0 0.0,
          0.0 -6.647192921214595e-16 1.0 ] }
        normalIndex [
          0, 2, 12, 8, -1,
          1, 9, 21, 7, -1,
          3, 4, 16, 13, -1,
          5, 6, 20, 17, -1,
          10, 14, 28, 24, -1,
          11, 25, 37, 23, -1,
          15, 18, 32, 29, -1,
          19, 22, 36, 33, -1,
          26, 30, 44, 40, -1,
          27, 41, 53, 39, -1,
          31, 34, 48, 45, -1,
          35, 38, 52, 49, -1,
          42, 46, 60, 56, -1,
          43, 57, 69, 55, -1,
          47, 50, 64, 61, -1,
          51, 54, 68, 65, -1,
          58, 62, 76, 72, -1,
          59, 73, 85, 71, -1,
          63, 66, 80, 77, -1,
          67, 70, 84, 81, -1,
          74, 78, 92, 88, -1,
          75, 89, 101, 87, -1,
          79, 82, 96, 93, -1,
          83, 86, 100, 97, -1,
          90, 94, 108, 105, -1,
          91, 106, 115, 103, -1,
          95, 98, 111, 109, -1,
          99, 102, 114, 112, -1,
          104, 107, 110, 113, -1 ]
      }
    }
  ]
}

