EESchema Schematic File Version 2
LIBS:power
LIBS:device
LIBS:transistors
LIBS:conn
LIBS:linear
LIBS:regul
LIBS:74xx
LIBS:cmos4000
LIBS:adc-dac
LIBS:memory
LIBS:xilinx
LIBS:microcontrollers
LIBS:dsp
LIBS:microchip
LIBS:analog_switches
LIBS:motorola
LIBS:texas
LIBS:intel
LIBS:audio
LIBS:interface
LIBS:digital-audio
LIBS:philips
LIBS:display
LIBS:cypress
LIBS:siliconi
LIBS:opto
LIBS:atmel
LIBS:contrib
LIBS:valves
LIBS:doragasu
LIBS:flash-boy-cache
EELAYER 25 0
EELAYER END
$Descr A4 11693 8268
encoding utf-8
Sheet 1 1
Title "FLASH-BOY"
Date "lun 13 abr 2015"
Rev "A"
Comp "doragasu, based on David Pello's design"
Comment1 ""
Comment2 ""
Comment3 ""
Comment4 ""
$EndDescr
$Comp
L ATMEGA8515-A U2
U 1 1 552BDFC5
P 6800 3150
F 0 "U2" H 6000 5050 40  0000 C CNN
F 1 "ATMEGA8515-A" H 7400 1250 40  0000 C CNN
F 2 "Housings_QFP:LQFP-44_10x10mm_Pitch0.8mm" H 6800 3150 35  0001 C CIN
F 3 "" H 6800 3150 60  0000 C CNN
	1    6800 3150
	1    0    0    -1  
$EndComp
$Comp
L CRYSTAL X1
U 1 1 552BE002
P 5450 2150
F 0 "X1" H 5450 2000 60  0000 C CNN
F 1 "6MHz" H 5450 2300 60  0000 C CNN
F 2 "Crystals:Crystal_HC49-U_Vertical" H 5450 2150 60  0001 C CNN
F 3 "" H 5450 2150 60  0000 C CNN
	1    5450 2150
	0    1    1    0   
$EndComp
$Comp
L C C6
U 1 1 552BE061
P 5100 1850
F 0 "C6" V 5050 1700 40  0000 L CNN
F 1 "22p" V 5050 1950 40  0000 L CNN
F 2 "Capacitors_SMD:C_0805_HandSoldering" H 5138 1700 30  0001 C CNN
F 3 "" H 5100 1850 60  0000 C CNN
	1    5100 1850
	0    1    1    0   
$EndComp
$Comp
L C C7
U 1 1 552BE0B5
P 5100 2450
F 0 "C7" V 5050 2300 40  0000 L CNN
F 1 "22p" V 5050 2550 40  0000 L CNN
F 2 "Capacitors_SMD:C_0805_HandSoldering" H 5138 2300 30  0001 C CNN
F 3 "" H 5100 2450 60  0000 C CNN
	1    5100 2450
	0    1    1    0   
$EndComp
$Comp
L FT232RL U1
U 1 1 552BE1C6
P 3950 3600
F 0 "U1" H 3950 4500 60  0000 C CNN
F 1 "FT232RL" H 4350 2600 60  0000 L CNN
F 2 "doragasu:SSOP-28_5.3x10.2mm_Pitch0.65mm_B" H 3950 3600 60  0001 C CNN
F 3 "" H 3950 3600 60  0000 C CNN
	1    3950 3600
	1    0    0    -1  
$EndComp
$Comp
L GB-CART J2
U 1 1 552BE959
P 9100 2800
F 0 "J2" H 9000 4500 60  0000 C CNN
F 1 "GB-CART" H 9100 1100 60  0000 C CNN
F 2 "doragasu:GB_CART" H 9100 2800 60  0001 C CNN
F 3 "" H 9100 2800 60  0000 C CNN
	1    9100 2800
	-1   0    0    -1  
$EndComp
$Comp
L USB J1
U 1 1 552BEB5D
P 1950 2850
F 0 "J1" H 1900 3250 60  0000 C CNN
F 1 "USB" V 1700 3000 60  0000 C CNN
F 2 "Connect:USB_B" H 1950 2850 60  0001 C CNN
F 3 "" H 1950 2850 60  0000 C CNN
	1    1950 2850
	1    0    0    -1  
$EndComp
$Comp
L GND #PWR01
U 1 1 552BEF33
P 1900 3500
F 0 "#PWR01" H 1900 3500 30  0001 C CNN
F 1 "GND" H 1900 3430 30  0001 C CNN
F 2 "" H 1900 3500 60  0000 C CNN
F 3 "" H 1900 3500 60  0000 C CNN
	1    1900 3500
	1    0    0    -1  
$EndComp
$Comp
L GND #PWR02
U 1 1 552BF24A
P 4900 2600
F 0 "#PWR02" H 4900 2600 30  0001 C CNN
F 1 "GND" H 4900 2530 30  0001 C CNN
F 2 "" H 4900 2600 60  0000 C CNN
F 3 "" H 4900 2600 60  0000 C CNN
	1    4900 2600
	1    0    0    -1  
$EndComp
$Comp
L GND #PWR03
U 1 1 552BF4DB
P 3950 4900
F 0 "#PWR03" H 3950 4900 30  0001 C CNN
F 1 "GND" H 3950 4830 30  0001 C CNN
F 2 "" H 3950 4900 60  0000 C CNN
F 3 "" H 3950 4900 60  0000 C CNN
	1    3950 4900
	1    0    0    -1  
$EndComp
$Comp
L GND #PWR04
U 1 1 552BF66B
P 6800 5150
F 0 "#PWR04" H 6800 5150 30  0001 C CNN
F 1 "GND" H 6800 5080 30  0001 C CNN
F 2 "" H 6800 5150 60  0000 C CNN
F 3 "" H 6800 5150 60  0000 C CNN
	1    6800 5150
	1    0    0    -1  
$EndComp
$Comp
L C C3
U 1 1 552BF7BC
P 3000 4450
F 0 "C3" H 3050 4350 40  0000 L CNN
F 1 "100n" H 3050 4550 40  0000 L CNN
F 2 "Capacitors_SMD:C_0805_HandSoldering" H 3038 4300 30  0001 C CNN
F 3 "" H 3000 4450 60  0000 C CNN
	1    3000 4450
	-1   0    0    1   
$EndComp
$Comp
L VCC #PWR05
U 1 1 552BFAC7
P 2900 2750
F 0 "#PWR05" H 2900 2850 30  0001 C CNN
F 1 "VCC" H 2900 2900 30  0000 C CNN
F 2 "" H 2900 2750 60  0000 C CNN
F 3 "" H 2900 2750 60  0000 C CNN
	1    2900 2750
	1    0    0    -1  
$EndComp
$Comp
L C C2
U 1 1 552BFCA9
P 1800 3950
F 0 "C2" H 1700 3850 40  0000 L CNN
F 1 "100n" H 1600 4050 40  0000 L CNN
F 2 "Capacitors_SMD:C_0805_HandSoldering" H 1838 3800 30  0001 C CNN
F 3 "" H 1800 3950 60  0000 C CNN
	1    1800 3950
	-1   0    0    1   
$EndComp
$Comp
L CAPAPOL C1
U 1 1 552BFCE6
P 1400 3950
F 0 "C1" H 1450 4050 40  0000 L CNN
F 1 "10u" H 1450 3850 40  0000 L CNN
F 2 "Capacitors_Tantalum_SMD:TantalC_SizeB_EIA-3528_HandSoldering" H 1500 3800 30  0001 C CNN
F 3 "" H 1400 3950 300 0000 C CNN
	1    1400 3950
	1    0    0    -1  
$EndComp
$Comp
L GND #PWR06
U 1 1 552BFD9A
P 1600 4250
F 0 "#PWR06" H 1600 4250 30  0001 C CNN
F 1 "GND" H 1600 4180 30  0001 C CNN
F 2 "" H 1600 4250 60  0000 C CNN
F 3 "" H 1600 4250 60  0000 C CNN
	1    1600 4250
	1    0    0    -1  
$EndComp
$Comp
L VCC #PWR07
U 1 1 552BFE89
P 1600 3650
F 0 "#PWR07" H 1600 3750 30  0001 C CNN
F 1 "VCC" H 1600 3800 30  0000 C CNN
F 2 "" H 1600 3650 60  0000 C CNN
F 3 "" H 1600 3650 60  0000 C CNN
	1    1600 3650
	1    0    0    -1  
$EndComp
$Comp
L LED D1
U 1 1 552C01CB
P 8900 5350
F 0 "D1" H 8900 5450 50  0000 C CNN
F 1 "LED" H 8900 5250 50  0000 C CNN
F 2 "LEDs:LED-5MM" H 8900 5350 60  0001 C CNN
F 3 "" H 8900 5350 60  0000 C CNN
	1    8900 5350
	-1   0    0    1   
$EndComp
$Comp
L LED D2
U 1 1 552C03F0
P 8900 5650
F 0 "D2" H 8900 5750 50  0000 C CNN
F 1 "LED" H 8900 5550 50  0000 C CNN
F 2 "LEDs:LED-5MM" H 8900 5650 60  0001 C CNN
F 3 "" H 8900 5650 60  0000 C CNN
	1    8900 5650
	-1   0    0    1   
$EndComp
$Comp
L R R1
U 1 1 552C057C
P 9350 5350
F 0 "R1" V 9430 5350 40  0000 C CNN
F 1 "220" V 9357 5351 40  0000 C CNN
F 2 "Resistors_SMD:R_0805_HandSoldering" V 9280 5350 30  0001 C CNN
F 3 "" H 9350 5350 30  0000 C CNN
	1    9350 5350
	0    1    1    0   
$EndComp
$Comp
L R R2
U 1 1 552C05D9
P 9350 5650
F 0 "R2" V 9430 5650 40  0000 C CNN
F 1 "220" V 9357 5651 40  0000 C CNN
F 2 "Resistors_SMD:R_0805_HandSoldering" V 9280 5650 30  0001 C CNN
F 3 "" H 9350 5650 30  0000 C CNN
	1    9350 5650
	0    1    1    0   
$EndComp
$Comp
L VCC #PWR08
U 1 1 552C07F0
P 9600 5300
F 0 "#PWR08" H 9600 5400 30  0001 C CNN
F 1 "VCC" H 9600 5450 30  0000 C CNN
F 2 "" H 9600 5300 60  0000 C CNN
F 3 "" H 9600 5300 60  0000 C CNN
	1    9600 5300
	1    0    0    -1  
$EndComp
$Comp
L GND #PWR09
U 1 1 552C088E
P 8550 5750
F 0 "#PWR09" H 8550 5750 30  0001 C CNN
F 1 "GND" H 8550 5680 30  0001 C CNN
F 2 "" H 8550 5750 60  0000 C CNN
F 3 "" H 8550 5750 60  0000 C CNN
	1    8550 5750
	1    0    0    -1  
$EndComp
$Comp
L VCC #PWR010
U 1 1 552C0CF5
P 6800 1100
F 0 "#PWR010" H 6800 1200 30  0001 C CNN
F 1 "VCC" H 6800 1250 30  0000 C CNN
F 2 "" H 6800 1100 60  0000 C CNN
F 3 "" H 6800 1100 60  0000 C CNN
	1    6800 1100
	1    0    0    -1  
$EndComp
$Comp
L VCC #PWR011
U 1 1 552C1046
P 8800 1200
F 0 "#PWR011" H 8800 1300 30  0001 C CNN
F 1 "VCC" H 8800 1350 30  0000 C CNN
F 2 "" H 8800 1200 60  0000 C CNN
F 3 "" H 8800 1200 60  0000 C CNN
	1    8800 1200
	1    0    0    -1  
$EndComp
$Comp
L GND #PWR012
U 1 1 552C11A4
P 8800 4450
F 0 "#PWR012" H 8800 4450 30  0001 C CNN
F 1 "GND" H 8800 4380 30  0001 C CNN
F 2 "" H 8800 4450 60  0000 C CNN
F 3 "" H 8800 4450 60  0000 C CNN
	1    8800 4450
	1    0    0    -1  
$EndComp
Entry Wire Line
	8200 1450 8300 1550
Entry Wire Line
	8200 1550 8300 1650
Entry Wire Line
	8200 1650 8300 1750
Entry Wire Line
	8200 1750 8300 1850
Entry Wire Line
	8200 1850 8300 1950
Entry Wire Line
	8200 1950 8300 2050
Entry Wire Line
	8200 2050 8300 2150
Entry Wire Line
	8200 2150 8300 2250
Entry Wire Line
	8200 2350 8300 2450
Entry Wire Line
	8200 2450 8300 2550
Entry Wire Line
	8200 2550 8300 2650
Entry Wire Line
	8200 2650 8300 2750
Entry Wire Line
	8200 2750 8300 2850
Entry Wire Line
	8200 2850 8300 2950
Entry Wire Line
	8200 2950 8300 3050
Entry Wire Line
	8200 3050 8300 3150
Entry Wire Line
	8200 3250 8300 3350
Entry Wire Line
	8200 3350 8300 3450
Entry Wire Line
	8200 3450 8300 3550
Entry Wire Line
	8200 3550 8300 3650
Entry Wire Line
	8200 3650 8300 3750
Entry Wire Line
	8200 3750 8300 3850
Entry Wire Line
	8200 3850 8300 3950
Entry Wire Line
	8200 3950 8300 4050
Entry Wire Line
	8300 1550 8400 1450
Entry Wire Line
	8300 1650 8400 1550
Entry Wire Line
	8300 1750 8400 1650
Entry Wire Line
	8300 1850 8400 1750
Entry Wire Line
	8300 1950 8400 1850
Entry Wire Line
	8300 2050 8400 1950
Entry Wire Line
	8300 2150 8400 2050
Entry Wire Line
	8300 2250 8400 2150
Entry Wire Line
	8300 2350 8400 2250
Entry Wire Line
	8300 2450 8400 2350
Entry Wire Line
	8300 2550 8400 2450
Entry Wire Line
	8300 2650 8400 2550
Entry Wire Line
	8300 2750 8400 2650
Entry Wire Line
	8300 2850 8400 2750
Entry Wire Line
	8300 2950 8400 2850
Entry Wire Line
	8300 3050 8400 2950
Entry Wire Line
	8300 3150 8400 3050
Entry Wire Line
	8300 3250 8400 3150
Entry Wire Line
	8300 3350 8400 3250
Entry Wire Line
	8300 3450 8400 3350
Entry Wire Line
	8300 3550 8400 3450
Entry Wire Line
	8300 3650 8400 3550
Entry Wire Line
	8300 3750 8400 3650
Entry Wire Line
	8300 3850 8400 3750
Entry Wire Line
	8300 3950 8400 3850
Entry Wire Line
	8300 4050 8400 3950
Entry Wire Line
	8300 4150 8400 4050
Entry Wire Line
	8300 4250 8400 4150
Entry Wire Line
	8300 4350 8400 4250
Entry Wire Line
	8200 4450 8300 4550
Entry Wire Line
	8200 4550 8300 4650
Entry Wire Line
	8200 4650 8300 4750
Entry Wire Line
	8200 4750 8300 4850
Entry Wire Line
	8200 4850 8300 4950
Entry Wire Line
	8200 4150 8300 4250
Entry Wire Line
	8200 4250 8300 4350
Entry Wire Line
	8200 4350 8300 4450
Entry Wire Line
	8300 5450 8400 5350
Text Label 7800 4350 0    60   ~ 0
ACT
Text Label 8400 5350 0    60   ~ 0
ACT
Entry Wire Line
	8200 5550 8300 5650
Entry Wire Line
	8200 5450 8300 5550
NoConn ~ 5800 4150
NoConn ~ 5800 4250
Text Label 7800 5450 0    60   ~ 0
TXD
Text Label 7800 5550 0    60   ~ 0
RXD
Text Label 7800 4150 0    60   ~ 0
TXD
Text Label 7800 4250 0    60   ~ 0
RXD
Text Label 8400 1750 0    60   ~ 0
A0
Text Label 8400 1850 0    60   ~ 0
A1
Text Label 8400 1950 0    60   ~ 0
A2
Text Label 8400 2050 0    60   ~ 0
A3
Text Label 8400 2150 0    60   ~ 0
A4
Text Label 8400 2250 0    60   ~ 0
A5/MOSI
Text Label 8400 2350 0    60   ~ 0
A6/MISO
Text Label 8400 2450 0    60   ~ 0
A7/SCK
Text Label 8400 2550 0    60   ~ 0
A8
Text Label 8400 2650 0    60   ~ 0
A9
Text Label 8400 2750 0    60   ~ 0
A10
Text Label 8400 2850 0    60   ~ 0
A11
Text Label 8400 2950 0    60   ~ 0
A12
Text Label 8400 3050 0    60   ~ 0
A13
Text Label 8400 3150 0    60   ~ 0
A14
Text Label 8400 3250 0    60   ~ 0
A15
Text Label 8400 3350 0    60   ~ 0
D0
Text Label 8400 3450 0    60   ~ 0
D1
Text Label 8400 3550 0    60   ~ 0
D2
Text Label 8400 3650 0    60   ~ 0
D3
Text Label 8400 3750 0    60   ~ 0
D4
Text Label 8400 3850 0    60   ~ 0
D5
Text Label 8400 3950 0    60   ~ 0
D6
Text Label 8400 4050 0    60   ~ 0
D7
Text Label 8400 4150 0    60   ~ 0
~RST
Text Label 8400 4250 0    60   ~ 0
~FWE
Text Label 8400 1450 0    60   ~ 0
~WR
Text Label 8400 1550 0    60   ~ 0
~RD
Text Label 8400 1650 0    60   ~ 0
~CS
$Comp
L C C4
U 1 1 552C5BC0
P 3700 5500
F 0 "C4" H 3750 5400 40  0000 L CNN
F 1 "100n" H 3750 5600 40  0000 L CNN
F 2 "Capacitors_SMD:C_0805_HandSoldering" H 3738 5350 30  0001 C CNN
F 3 "" H 3700 5500 60  0000 C CNN
	1    3700 5500
	-1   0    0    1   
$EndComp
$Comp
L C C5
U 1 1 552C5D26
P 4100 5500
F 0 "C5" H 4150 5400 40  0000 L CNN
F 1 "100n" H 4150 5600 40  0000 L CNN
F 2 "Capacitors_SMD:C_0805_HandSoldering" H 4138 5350 30  0001 C CNN
F 3 "" H 4100 5500 60  0000 C CNN
	1    4100 5500
	-1   0    0    1   
$EndComp
$Comp
L VCC #PWR013
U 1 1 552C6091
P 3900 5200
F 0 "#PWR013" H 3900 5300 30  0001 C CNN
F 1 "VCC" H 3900 5350 30  0000 C CNN
F 2 "" H 3900 5200 60  0000 C CNN
F 3 "" H 3900 5200 60  0000 C CNN
	1    3900 5200
	1    0    0    -1  
$EndComp
$Comp
L GND #PWR014
U 1 1 552C6146
P 3900 5800
F 0 "#PWR014" H 3900 5800 30  0001 C CNN
F 1 "GND" H 3900 5730 30  0001 C CNN
F 2 "" H 3900 5800 60  0000 C CNN
F 3 "" H 3900 5800 60  0000 C CNN
	1    3900 5800
	1    0    0    -1  
$EndComp
$Comp
L C C8
U 1 1 552C61D1
P 6800 5900
F 0 "C8" H 6700 5800 40  0000 L CNN
F 1 "100n" H 6600 6000 40  0000 L CNN
F 2 "Capacitors_SMD:C_0805_HandSoldering" H 6838 5750 30  0001 C CNN
F 3 "" H 6800 5900 60  0000 C CNN
	1    6800 5900
	-1   0    0    1   
$EndComp
$Comp
L GND #PWR015
U 1 1 552C62EF
P 6800 6100
F 0 "#PWR015" H 6800 6100 30  0001 C CNN
F 1 "GND" H 6800 6030 30  0001 C CNN
F 2 "" H 6800 6100 60  0000 C CNN
F 3 "" H 6800 6100 60  0000 C CNN
	1    6800 6100
	1    0    0    -1  
$EndComp
$Comp
L VCC #PWR016
U 1 1 552C633E
P 6800 5750
F 0 "#PWR016" H 6800 5850 30  0001 C CNN
F 1 "VCC" H 6800 5900 30  0000 C CNN
F 2 "" H 6800 5750 60  0000 C CNN
F 3 "" H 6800 5750 60  0000 C CNN
	1    6800 5750
	1    0    0    -1  
$EndComp
$Comp
L CONN_3X2 J3
U 1 1 552C6590
P 9200 4850
F 0 "J3" H 9200 5100 50  0000 C CNN
F 1 "ISP" V 9200 4900 40  0000 C CNN
F 2 "Pin_Headers:Pin_Header_Straight_2x03" H 9200 4850 60  0001 C CNN
F 3 "" H 9200 4850 60  0000 C CNN
	1    9200 4850
	1    0    0    -1  
$EndComp
$Comp
L GND #PWR017
U 1 1 552C67A9
P 9600 4950
F 0 "#PWR017" H 9600 4950 30  0001 C CNN
F 1 "GND" H 9600 4880 30  0001 C CNN
F 2 "" H 9600 4950 60  0000 C CNN
F 3 "" H 9600 4950 60  0000 C CNN
	1    9600 4950
	1    0    0    -1  
$EndComp
$Comp
L VCC #PWR018
U 1 1 552C6982
P 9600 4600
F 0 "#PWR018" H 9600 4700 30  0001 C CNN
F 1 "VCC" H 9600 4750 30  0000 C CNN
F 2 "" H 9600 4600 60  0000 C CNN
F 3 "" H 9600 4600 60  0000 C CNN
	1    9600 4600
	1    0    0    -1  
$EndComp
Entry Wire Line
	8300 4800 8400 4700
Entry Wire Line
	8300 4900 8400 4800
Entry Wire Line
	8300 5000 8400 4900
Entry Wire Line
	8300 5200 8400 5100
Text Label 7800 2150 0    60   ~ 0
A15
Text Label 7800 2050 0    60   ~ 0
A14
Text Label 7800 1950 0    60   ~ 0
A13
Text Label 7800 1850 0    60   ~ 0
A12
Text Label 7800 1750 0    60   ~ 0
A11
Text Label 7800 1650 0    60   ~ 0
A10
Text Label 7800 1550 0    60   ~ 0
A9
Text Label 7800 1450 0    60   ~ 0
A8
Text Label 7800 3050 0    60   ~ 0
A7/SCK
Text Label 7800 2950 0    60   ~ 0
A6/MISO
Text Label 7800 2850 0    60   ~ 0
A5/MOSI
Text Label 7800 2750 0    60   ~ 0
A4
Text Label 7800 2650 0    60   ~ 0
A3
Text Label 7800 2550 0    60   ~ 0
A2
Text Label 7800 2450 0    60   ~ 0
A1
Text Label 7800 2350 0    60   ~ 0
A0
Text Label 7800 3950 0    60   ~ 0
D7
Text Label 7800 3850 0    60   ~ 0
D6
Text Label 7800 3750 0    60   ~ 0
D5
Text Label 7800 3650 0    60   ~ 0
D4
Text Label 7800 3550 0    60   ~ 0
D3
Text Label 7800 3450 0    60   ~ 0
D2
Text Label 7800 3350 0    60   ~ 0
D1
Text Label 7800 3250 0    60   ~ 0
D0
Text Label 7800 4850 0    60   ~ 0
~FWE
Text Label 7800 4750 0    60   ~ 0
~RST
Text Label 7800 4650 0    60   ~ 0
~CS
Text Label 7800 4550 0    60   ~ 0
~RD
Text Label 7800 4450 0    60   ~ 0
~WR
NoConn ~ 4850 3100
NoConn ~ 4850 3200
NoConn ~ 4850 3300
NoConn ~ 4850 3400
NoConn ~ 4850 3500
NoConn ~ 4850 3600
NoConn ~ 4850 3900
NoConn ~ 3000 3800
NoConn ~ 3000 3900
Entry Wire Line
	8200 5350 8300 5450
Text Label 7800 5350 0    60   ~ 0
~MC_RST
Text Label 8400 4900 0    60   ~ 0
~MC_RST
Text Label 8400 4700 0    60   ~ 0
A6/MISO
Text Label 8400 4800 0    60   ~ 0
A7/SCK
Text Label 8400 5100 0    60   ~ 0
A5/MOSI
Text Label 2650 3200 0    60   ~ 0
D-
Text Label 2650 3300 0    60   ~ 0
D+
Entry Wire Line
	8200 5250 8300 5350
Entry Wire Line
	8300 1450 8400 1350
Text Label 8400 1350 0    60   ~ 0
CLK
Text Label 7800 5250 0    60   ~ 0
CLK
$Comp
L GS2 GS1
U 1 1 552EA18E
P 5100 4000
F 0 "GS1" V 5000 3950 50  0000 C CNN
F 1 "0R" V 5000 4100 40  0000 C CNN
F 2 "doragasu:JUMPER_0805" H 5100 4000 60  0001 C CNN
F 3 "" H 5100 4000 60  0000 C CNN
	1    5100 4000
	0    1    1    0   
$EndComp
$Comp
L GS2 GS2
U 1 1 552EA279
P 5100 4100
F 0 "GS2" V 5200 4050 50  0000 C CNN
F 1 "0R" V 5200 4200 40  0000 C CNN
F 2 "doragasu:JUMPER_0805" H 5100 4100 60  0001 C CNN
F 3 "" H 5100 4100 60  0000 C CNN
	1    5100 4100
	0    1    1    0   
$EndComp
NoConn ~ 4850 3800
Wire Wire Line
	7800 1550 8200 1550
Wire Wire Line
	7800 1450 8200 1450
Wire Wire Line
	8800 4350 8800 4450
Wire Wire Line
	8800 1200 8800 1250
Wire Wire Line
	6800 1100 6800 1150
Wire Wire Line
	8550 5650 8700 5650
Wire Wire Line
	8550 5750 8550 5650
Connection ~ 9600 5350
Wire Wire Line
	9600 5300 9600 5350
Wire Wire Line
	9600 5350 9600 5650
Wire Wire Line
	8400 5350 8700 5350
Wire Wire Line
	7800 4350 8200 4350
Connection ~ 1600 3750
Wire Wire Line
	1600 3750 1600 3650
Connection ~ 1600 4150
Wire Wire Line
	1600 4150 1600 4250
Wire Wire Line
	1400 4150 1600 4150
Wire Wire Line
	1600 4150 1800 4150
Wire Wire Line
	1400 3750 1600 3750
Wire Wire Line
	1600 3750 1800 3750
Connection ~ 2900 2850
Connection ~ 2900 2950
Wire Wire Line
	2900 2850 3000 2850
Wire Wire Line
	2900 2950 3000 2950
Wire Wire Line
	2900 2750 2900 2850
Wire Wire Line
	2900 2850 2900 2950
Wire Wire Line
	2900 2950 2900 3600
Wire Wire Line
	2900 3600 3000 3600
Connection ~ 3650 4800
Wire Wire Line
	3000 4600 3000 4800
Wire Wire Line
	3000 4100 3000 4300
Wire Wire Line
	3950 4800 3950 4900
Connection ~ 4100 4800
Connection ~ 3950 4800
Connection ~ 3800 4800
Wire Wire Line
	3000 4800 3650 4800
Wire Wire Line
	3650 4800 3800 4800
Wire Wire Line
	3800 4800 3950 4800
Wire Wire Line
	3950 4800 4100 4800
Wire Wire Line
	4100 4800 4250 4800
Connection ~ 4900 2450
Wire Wire Line
	4900 1850 4900 2450
Wire Wire Line
	4900 2450 4900 2600
Connection ~ 1900 3400
Wire Wire Line
	2300 3400 2300 3300
Connection ~ 1550 3300
Wire Wire Line
	1900 3400 1900 3500
Wire Wire Line
	1550 3400 1900 3400
Wire Wire Line
	1900 3400 2300 3400
Wire Wire Line
	1550 3200 1550 3300
Wire Wire Line
	1550 3300 1550 3400
Wire Wire Line
	2550 3050 2300 3050
Wire Wire Line
	2550 3300 2550 3050
Wire Wire Line
	3000 3300 2550 3300
Wire Wire Line
	2300 3200 3000 3200
Wire Wire Line
	8200 4250 7800 4250
Wire Wire Line
	5450 5550 8200 5550
Wire Wire Line
	5450 3000 5450 5550
Wire Wire Line
	4850 3000 5450 3000
Wire Wire Line
	8200 4150 7800 4150
Wire Wire Line
	5550 5450 8200 5450
Wire Wire Line
	5550 2900 5550 5450
Wire Wire Line
	4850 2900 5550 2900
Connection ~ 5450 2450
Wire Wire Line
	5800 2350 5800 2450
Wire Wire Line
	5800 2450 5800 4000
Wire Wire Line
	5250 2450 5450 2450
Wire Wire Line
	5450 2450 5800 2450
Connection ~ 5450 1850
Wire Wire Line
	5800 1850 5800 1950
Wire Wire Line
	5250 1850 5450 1850
Wire Wire Line
	5450 1850 5800 1850
Wire Wire Line
	7800 1650 8200 1650
Wire Wire Line
	7800 1750 8200 1750
Wire Wire Line
	7800 1850 8200 1850
Wire Wire Line
	7800 1950 8200 1950
Wire Wire Line
	7800 2050 8200 2050
Wire Wire Line
	7800 2150 8200 2150
Wire Wire Line
	7800 2350 8200 2350
Wire Wire Line
	7800 2450 8200 2450
Wire Wire Line
	7800 2550 8200 2550
Wire Wire Line
	7800 2650 8200 2650
Wire Wire Line
	7800 2750 8200 2750
Wire Wire Line
	7800 2850 8200 2850
Wire Wire Line
	7800 2950 8200 2950
Wire Wire Line
	7800 3050 8200 3050
Wire Wire Line
	7800 3250 8200 3250
Wire Wire Line
	7800 3350 8200 3350
Wire Wire Line
	7800 3450 8200 3450
Wire Wire Line
	7800 3550 8200 3550
Wire Wire Line
	7800 3650 8200 3650
Wire Wire Line
	7800 3750 8200 3750
Wire Wire Line
	7800 3850 8200 3850
Wire Wire Line
	7800 3950 8200 3950
Wire Wire Line
	8800 1450 8400 1450
Wire Wire Line
	8800 1550 8400 1550
Wire Wire Line
	8800 1650 8400 1650
Wire Wire Line
	8800 1750 8400 1750
Wire Wire Line
	8800 1850 8400 1850
Wire Wire Line
	8800 1950 8400 1950
Wire Wire Line
	8800 2050 8400 2050
Wire Wire Line
	8800 2150 8400 2150
Wire Wire Line
	8800 2250 8400 2250
Wire Wire Line
	8800 2350 8400 2350
Wire Wire Line
	8800 2450 8400 2450
Wire Wire Line
	8800 2550 8400 2550
Wire Wire Line
	8800 2650 8400 2650
Wire Wire Line
	8800 2750 8400 2750
Wire Wire Line
	8800 2850 8400 2850
Wire Wire Line
	8800 2950 8400 2950
Wire Wire Line
	8800 3050 8400 3050
Wire Wire Line
	8800 3150 8400 3150
Wire Wire Line
	8800 3250 8400 3250
Wire Wire Line
	8800 3350 8400 3350
Wire Wire Line
	8800 3450 8400 3450
Wire Wire Line
	8800 3550 8400 3550
Wire Wire Line
	8800 3650 8400 3650
Wire Wire Line
	8800 3750 8400 3750
Wire Wire Line
	8800 3850 8400 3850
Wire Wire Line
	8800 3950 8400 3950
Wire Wire Line
	8800 4050 8400 4050
Wire Wire Line
	8800 4150 8400 4150
Wire Wire Line
	8800 4250 8400 4250
Wire Bus Line
	8300 1450 8300 1550
Wire Bus Line
	8300 1550 8300 1650
Wire Bus Line
	8300 1650 8300 1750
Wire Bus Line
	8300 1750 8300 1850
Wire Bus Line
	8300 1850 8300 1950
Wire Bus Line
	8300 1950 8300 2050
Wire Bus Line
	8300 2050 8300 2150
Wire Bus Line
	8300 2150 8300 2250
Wire Bus Line
	8300 2250 8300 2350
Wire Bus Line
	8300 2350 8300 2450
Wire Bus Line
	8300 2450 8300 2550
Wire Bus Line
	8300 2550 8300 2650
Wire Bus Line
	8300 2650 8300 2750
Wire Bus Line
	8300 2750 8300 2850
Wire Bus Line
	8300 2850 8300 2950
Wire Bus Line
	8300 2950 8300 3050
Wire Bus Line
	8300 3050 8300 3150
Wire Bus Line
	8300 3150 8300 3250
Wire Bus Line
	8300 3250 8300 3350
Wire Bus Line
	8300 3350 8300 3450
Wire Bus Line
	8300 3450 8300 3550
Wire Bus Line
	8300 3550 8300 3650
Wire Bus Line
	8300 3650 8300 3750
Wire Bus Line
	8300 3750 8300 3850
Wire Bus Line
	8300 3850 8300 3950
Wire Bus Line
	8300 3950 8300 4050
Wire Bus Line
	8300 4050 8300 4150
Wire Bus Line
	8300 4150 8300 4250
Wire Bus Line
	8300 4250 8300 4350
Wire Bus Line
	8300 4350 8300 4450
Wire Bus Line
	8300 4450 8300 4550
Wire Bus Line
	8300 4550 8300 4650
Wire Bus Line
	8300 4650 8300 4750
Wire Bus Line
	8300 4750 8300 4800
Wire Bus Line
	8300 4800 8300 4850
Wire Bus Line
	8300 4850 8300 4900
Wire Bus Line
	8300 4900 8300 4950
Wire Bus Line
	8300 4950 8300 5000
Wire Bus Line
	8300 5000 8300 5200
Wire Bus Line
	8300 5200 8300 5350
Wire Bus Line
	8300 5350 8300 5450
Wire Bus Line
	8300 5450 8300 5550
Wire Bus Line
	8300 5550 8300 5650
Wire Wire Line
	7800 4450 8200 4450
Wire Wire Line
	7800 4550 8200 4550
Wire Wire Line
	7800 4650 8200 4650
Wire Wire Line
	7800 4750 8200 4750
Wire Wire Line
	7800 4850 8200 4850
Wire Wire Line
	3700 5300 3900 5300
Wire Wire Line
	3900 5300 4100 5300
Wire Wire Line
	3900 5300 3900 5200
Connection ~ 3900 5300
Wire Wire Line
	3700 5700 3900 5700
Wire Wire Line
	3900 5700 4100 5700
Wire Wire Line
	3900 5700 3900 5800
Connection ~ 3900 5700
Wire Wire Line
	9600 4900 9600 4950
Wire Wire Line
	9600 4700 9600 4600
Wire Wire Line
	8800 4700 8400 4700
Wire Wire Line
	8800 4800 8400 4800
Wire Wire Line
	8800 4900 8400 4900
Wire Wire Line
	9600 4800 9700 4800
Wire Wire Line
	9700 4800 9700 5100
Wire Wire Line
	1550 3050 1400 3050
Wire Wire Line
	1400 3050 1400 3750
Connection ~ 1400 3750
Wire Wire Line
	5800 1450 4700 1450
Wire Wire Line
	4700 1450 4700 2800
Wire Wire Line
	4700 2800 5650 2800
Wire Wire Line
	5650 2800 5650 4100
Wire Wire Line
	5650 4100 5650 5350
Wire Wire Line
	5650 5350 8200 5350
Wire Wire Line
	9700 5100 8400 5100
Wire Wire Line
	5800 4350 5750 4350
Wire Wire Line
	5750 4350 5750 5250
Wire Wire Line
	5750 5250 8200 5250
Wire Wire Line
	8400 1350 8800 1350
Connection ~ 5800 2450
Connection ~ 5650 4100
Wire Wire Line
	5800 4000 5300 4000
Wire Wire Line
	5300 4100 5650 4100
Wire Wire Line
	4850 4100 4900 4100
NoConn ~ 4850 3700
Wire Wire Line
	4850 4000 4900 4000
Wire Wire Line
	1800 3750 1800 3800
Wire Wire Line
	1800 4150 1800 4100
Wire Wire Line
	3700 5300 3700 5350
Wire Wire Line
	3700 5650 3700 5700
Wire Wire Line
	4100 5700 4100 5650
Wire Wire Line
	4100 5300 4100 5350
Wire Wire Line
	6800 6050 6800 6100
Wire Wire Line
	9100 5350 9200 5350
Wire Wire Line
	9200 5650 9100 5650
Wire Wire Line
	9600 5650 9500 5650
Wire Wire Line
	9500 5350 9600 5350
Wire Wire Line
	4950 2450 4900 2450
Wire Wire Line
	4900 1850 4950 1850
$EndSCHEMATC
